(export (version D)
  (design
    (source "/Users/Augustin/OneDrive - Nexus365/Oxford/ALD/ALD_electronics_V2-0/baseBoard/baseBoard.sch")
    (date "Monday, 10 February 2020 at 04:57:21 pm")
    (tool "Eeschema (5.1.5-0)")
    (sheet (number 1) (name /) (tstamps /)
      (title_block
        (title)
        (company)
        (rev)
        (date)
        (source baseBoard.sch)
        (comment (number 1) (value ""))
        (comment (number 2) (value ""))
        (comment (number 3) (value ""))
        (comment (number 4) (value "")))))
  (components
    (comp (ref conn_gauge_0)
      (value Conn_01x06)
      (footprint Socket_Strips:Socket_Strip_Straight_1x06_Pitch2.54mm)
      (datasheet ~)
      (libsource (lib Connector_Generic) (part Conn_01x06) (description "Generic connector, single row, 01x06, script generated (kicad-library-utils/schlib/autogen/connector/)"))
      (sheetpath (names /) (tstamps /))
      (tstamp 5E33E341))
    (comp (ref conn_gauge_1)
      (value Conn_01x06)
      (footprint Socket_Strips:Socket_Strip_Straight_1x06_Pitch2.54mm)
      (datasheet ~)
      (libsource (lib Connector_Generic) (part Conn_01x06) (description "Generic connector, single row, 01x06, script generated (kicad-library-utils/schlib/autogen/connector/)"))
      (sheetpath (names /) (tstamps /))
      (tstamp 5E33EAC0))
    (comp (ref conn_gauge_3)
      (value Conn_01x06)
      (footprint Socket_Strips:Socket_Strip_Straight_1x06_Pitch2.54mm)
      (datasheet ~)
      (libsource (lib Connector_Generic) (part Conn_01x06) (description "Generic connector, single row, 01x06, script generated (kicad-library-utils/schlib/autogen/connector/)"))
      (sheetpath (names /) (tstamps /))
      (tstamp 5E33F001))
    (comp (ref conn_gauge_2)
      (value Conn_01x06)
      (footprint Socket_Strips:Socket_Strip_Straight_1x06_Pitch2.54mm)
      (datasheet ~)
      (libsource (lib Connector_Generic) (part Conn_01x06) (description "Generic connector, single row, 01x06, script generated (kicad-library-utils/schlib/autogen/connector/)"))
      (sheetpath (names /) (tstamps /))
      (tstamp 5E33F89A))
    (comp (ref conn_MFC_3)
      (value Conn_01x10)
      (footprint Socket_Strips:Socket_Strip_Straight_1x10_Pitch2.54mm)
      (datasheet ~)
      (libsource (lib Connector_Generic) (part Conn_01x10) (description "Generic connector, single row, 01x10, script generated (kicad-library-utils/schlib/autogen/connector/)"))
      (sheetpath (names /) (tstamps /))
      (tstamp 5E343291))
    (comp (ref J3)
      (value Conn_01x10)
      (footprint Socket_Strips:Socket_Strip_Straight_1x10_Pitch2.54mm)
      (datasheet ~)
      (libsource (lib Connector_Generic) (part Conn_01x10) (description "Generic connector, single row, 01x10, script generated (kicad-library-utils/schlib/autogen/connector/)"))
      (sheetpath (names /) (tstamps /))
      (tstamp 5E343C10))
    (comp (ref J4)
      (value Conn_01x10)
      (footprint Socket_Strips:Socket_Strip_Straight_1x10_Pitch2.54mm)
      (datasheet ~)
      (libsource (lib Connector_Generic) (part Conn_01x10) (description "Generic connector, single row, 01x10, script generated (kicad-library-utils/schlib/autogen/connector/)"))
      (sheetpath (names /) (tstamps /))
      (tstamp 5E3444A6))
    (comp (ref J7)
      (value Conn_01x10)
      (footprint Socket_Strips:Socket_Strip_Straight_1x10_Pitch2.54mm)
      (datasheet ~)
      (libsource (lib Connector_Generic) (part Conn_01x10) (description "Generic connector, single row, 01x10, script generated (kicad-library-utils/schlib/autogen/connector/)"))
      (sheetpath (names /) (tstamps /))
      (tstamp 5E3451E4))
    (comp (ref J8)
      (value Conn_01x10)
      (footprint Socket_Strips:Socket_Strip_Straight_1x10_Pitch2.54mm)
      (datasheet ~)
      (libsource (lib Connector_Generic) (part Conn_01x10) (description "Generic connector, single row, 01x10, script generated (kicad-library-utils/schlib/autogen/connector/)"))
      (sheetpath (names /) (tstamps /))
      (tstamp 5E34631F))
    (comp (ref H_temp_1)
      (value MountingHole_Pad)
      (footprint Mounting_Holes:MountingHole_3.2mm_M3_Pad_Via)
      (datasheet ~)
      (libsource (lib Mechanical) (part MountingHole_Pad) (description "Mounting Hole with connection"))
      (sheetpath (names /) (tstamps /))
      (tstamp 5E34778A))
    (comp (ref H_temp_3)
      (value MountingHole_Pad)
      (footprint Mounting_Holes:MountingHole_3.2mm_M3_Pad_Via)
      (datasheet ~)
      (libsource (lib Mechanical) (part MountingHole_Pad) (description "Mounting Hole with connection"))
      (sheetpath (names /) (tstamps /))
      (tstamp 5E347FAD))
    (comp (ref H_temp_4)
      (value MountingHole_Pad)
      (footprint Mounting_Holes:MountingHole_3.2mm_M3_Pad_Via)
      (datasheet ~)
      (libsource (lib Mechanical) (part MountingHole_Pad) (description "Mounting Hole with connection"))
      (sheetpath (names /) (tstamps /))
      (tstamp 5E348688))
    (comp (ref H_temp_2)
      (value MountingHole_Pad)
      (footprint Mounting_Holes:MountingHole_3.2mm_M3_Pad_Via)
      (datasheet ~)
      (libsource (lib Mechanical) (part MountingHole_Pad) (description "Mounting Hole with connection"))
      (sheetpath (names /) (tstamps /))
      (tstamp 5E348E2F))
    (comp (ref H_MFC_1)
      (value MountingHole_Pad)
      (footprint Mounting_Holes:MountingHole_3.2mm_M3_Pad_Via)
      (datasheet ~)
      (libsource (lib Mechanical) (part MountingHole_Pad) (description "Mounting Hole with connection"))
      (sheetpath (names /) (tstamps /))
      (tstamp 5E3494DA))
    (comp (ref H_MFC_2)
      (value MountingHole_Pad)
      (footprint Mounting_Holes:MountingHole_3.2mm_M3_Pad_Via)
      (datasheet ~)
      (libsource (lib Mechanical) (part MountingHole_Pad) (description "Mounting Hole with connection"))
      (sheetpath (names /) (tstamps /))
      (tstamp 5E349AFB))
    (comp (ref H_MFC_4)
      (value MountingHole_Pad)
      (footprint Mounting_Holes:MountingHole_3.2mm_M3_Pad_Via)
      (datasheet ~)
      (libsource (lib Mechanical) (part MountingHole_Pad) (description "Mounting Hole with connection"))
      (sheetpath (names /) (tstamps /))
      (tstamp 5E34A033))
    (comp (ref H_gauge_2)
      (value MountingHole_Pad)
      (footprint Mounting_Holes:MountingHole_3.2mm_M3_Pad_Via)
      (datasheet ~)
      (libsource (lib Mechanical) (part MountingHole_Pad) (description "Mounting Hole with connection"))
      (sheetpath (names /) (tstamps /))
      (tstamp 5E34AA94))
    (comp (ref H_gauge_3)
      (value MountingHole_Pad)
      (footprint Mounting_Holes:MountingHole_3.2mm_M3_Pad_Via)
      (datasheet ~)
      (libsource (lib Mechanical) (part MountingHole_Pad) (description "Mounting Hole with connection"))
      (sheetpath (names /) (tstamps /))
      (tstamp 5E34B07B))
    (comp (ref H_gauge_4)
      (value MountingHole_Pad)
      (footprint Mounting_Holes:MountingHole_3.2mm_M3_Pad_Via)
      (datasheet ~)
      (libsource (lib Mechanical) (part MountingHole_Pad) (description "Mounting Hole with connection"))
      (sheetpath (names /) (tstamps /))
      (tstamp 5E34B46F))
    (comp (ref H_gauge_1)
      (value MountingHole_Pad)
      (footprint Mounting_Holes:MountingHole_3.2mm_M3_Pad_Via)
      (datasheet ~)
      (libsource (lib Mechanical) (part MountingHole_Pad) (description "Mounting Hole with connection"))
      (sheetpath (names /) (tstamps /))
      (tstamp 5E34BA26))
    (comp (ref conn_sol_3)
      (value Conn_01x04)
      (footprint Socket_Strips:Socket_Strip_Straight_1x04_Pitch2.54mm)
      (datasheet ~)
      (libsource (lib Connector_Generic) (part Conn_01x04) (description "Generic connector, single row, 01x04, script generated (kicad-library-utils/schlib/autogen/connector/)"))
      (sheetpath (names /) (tstamps /))
      (tstamp 5E34C21F))
    (comp (ref conn_sol_2)
      (value Conn_01x04)
      (footprint Socket_Strips:Socket_Strip_Straight_1x04_Pitch2.54mm)
      (datasheet ~)
      (libsource (lib Connector_Generic) (part Conn_01x04) (description "Generic connector, single row, 01x04, script generated (kicad-library-utils/schlib/autogen/connector/)"))
      (sheetpath (names /) (tstamps /))
      (tstamp 5E34DBB4))
    (comp (ref conn_sol_1)
      (value Conn_01x04)
      (footprint Socket_Strips:Socket_Strip_Straight_1x04_Pitch2.54mm)
      (datasheet ~)
      (libsource (lib Connector_Generic) (part Conn_01x04) (description "Generic connector, single row, 01x04, script generated (kicad-library-utils/schlib/autogen/connector/)"))
      (sheetpath (names /) (tstamps /))
      (tstamp 5E34E650))
    (comp (ref conn_sol_0)
      (value Conn_01x04)
      (footprint Socket_Strips:Socket_Strip_Straight_1x04_Pitch2.54mm)
      (datasheet ~)
      (libsource (lib Connector_Generic) (part Conn_01x04) (description "Generic connector, single row, 01x04, script generated (kicad-library-utils/schlib/autogen/connector/)"))
      (sheetpath (names /) (tstamps /))
      (tstamp 5E34EEB6))
    (comp (ref conn_sol_4)
      (value Conn_01x04)
      (footprint Socket_Strips:Socket_Strip_Straight_1x04_Pitch2.54mm)
      (datasheet ~)
      (libsource (lib Connector_Generic) (part Conn_01x04) (description "Generic connector, single row, 01x04, script generated (kicad-library-utils/schlib/autogen/connector/)"))
      (sheetpath (names /) (tstamps /))
      (tstamp 5E34F60F))
    (comp (ref conn_sol_5)
      (value Conn_01x04)
      (footprint Socket_Strips:Socket_Strip_Straight_1x04_Pitch2.54mm)
      (datasheet ~)
      (libsource (lib Connector_Generic) (part Conn_01x04) (description "Generic connector, single row, 01x04, script generated (kicad-library-utils/schlib/autogen/connector/)"))
      (sheetpath (names /) (tstamps /))
      (tstamp 5E35009C))
    (comp (ref conn_sol_6)
      (value Conn_01x04)
      (footprint Socket_Strips:Socket_Strip_Straight_1x04_Pitch2.54mm)
      (datasheet ~)
      (libsource (lib Connector_Generic) (part Conn_01x04) (description "Generic connector, single row, 01x04, script generated (kicad-library-utils/schlib/autogen/connector/)"))
      (sheetpath (names /) (tstamps /))
      (tstamp 5E35065F))
    (comp (ref conn_sol_7)
      (value Conn_01x04)
      (footprint Socket_Strips:Socket_Strip_Straight_1x04_Pitch2.54mm)
      (datasheet ~)
      (libsource (lib Connector_Generic) (part Conn_01x04) (description "Generic connector, single row, 01x04, script generated (kicad-library-utils/schlib/autogen/connector/)"))
      (sheetpath (names /) (tstamps /))
      (tstamp 5E35101C))
    (comp (ref conn_sol_8)
      (value Conn_01x04)
      (footprint Socket_Strips:Socket_Strip_Straight_1x04_Pitch2.54mm)
      (datasheet ~)
      (libsource (lib Connector_Generic) (part Conn_01x04) (description "Generic connector, single row, 01x04, script generated (kicad-library-utils/schlib/autogen/connector/)"))
      (sheetpath (names /) (tstamps /))
      (tstamp 5E35148B))
    (comp (ref conn_sol_9)
      (value Conn_01x04)
      (footprint Socket_Strips:Socket_Strip_Straight_1x04_Pitch2.54mm)
      (datasheet ~)
      (libsource (lib Connector_Generic) (part Conn_01x04) (description "Generic connector, single row, 01x04, script generated (kicad-library-utils/schlib/autogen/connector/)"))
      (sheetpath (names /) (tstamps /))
      (tstamp 5E3521DA))
    (comp (ref conn_sol_10)
      (value Conn_01x04)
      (footprint Socket_Strips:Socket_Strip_Straight_1x04_Pitch2.54mm)
      (datasheet ~)
      (libsource (lib Connector_Generic) (part Conn_01x04) (description "Generic connector, single row, 01x04, script generated (kicad-library-utils/schlib/autogen/connector/)"))
      (sheetpath (names /) (tstamps /))
      (tstamp 5E35280D))
    (comp (ref conn_sol_11)
      (value Conn_01x04)
      (footprint Socket_Strips:Socket_Strip_Straight_1x04_Pitch2.54mm)
      (datasheet ~)
      (libsource (lib Connector_Generic) (part Conn_01x04) (description "Generic connector, single row, 01x04, script generated (kicad-library-utils/schlib/autogen/connector/)"))
      (sheetpath (names /) (tstamps /))
      (tstamp 5E35348C))
    (comp (ref conn_sol_15)
      (value Conn_01x04)
      (footprint Socket_Strips:Socket_Strip_Straight_1x04_Pitch2.54mm)
      (datasheet ~)
      (libsource (lib Connector_Generic) (part Conn_01x04) (description "Generic connector, single row, 01x04, script generated (kicad-library-utils/schlib/autogen/connector/)"))
      (sheetpath (names /) (tstamps /))
      (tstamp 5E3541AB))
    (comp (ref conn_sol_14)
      (value Conn_01x04)
      (footprint Socket_Strips:Socket_Strip_Straight_1x04_Pitch2.54mm)
      (datasheet ~)
      (libsource (lib Connector_Generic) (part Conn_01x04) (description "Generic connector, single row, 01x04, script generated (kicad-library-utils/schlib/autogen/connector/)"))
      (sheetpath (names /) (tstamps /))
      (tstamp 5E3547AE))
    (comp (ref conn_sol_13)
      (value Conn_01x04)
      (footprint Socket_Strips:Socket_Strip_Straight_1x04_Pitch2.54mm)
      (datasheet ~)
      (libsource (lib Connector_Generic) (part Conn_01x04) (description "Generic connector, single row, 01x04, script generated (kicad-library-utils/schlib/autogen/connector/)"))
      (sheetpath (names /) (tstamps /))
      (tstamp 5E3552B3))
    (comp (ref conn_sol_12)
      (value Conn_01x04)
      (footprint Socket_Strips:Socket_Strip_Straight_1x04_Pitch2.54mm)
      (datasheet ~)
      (libsource (lib Connector_Generic) (part Conn_01x04) (description "Generic connector, single row, 01x04, script generated (kicad-library-utils/schlib/autogen/connector/)"))
      (sheetpath (names /) (tstamps /))
      (tstamp 5E355E16))
    (comp (ref H_arduino_1)
      (value MountingHole_Pad)
      (footprint Mounting_Holes:MountingHole_3.2mm_M3_Pad_Via)
      (datasheet ~)
      (libsource (lib Mechanical) (part MountingHole_Pad) (description "Mounting Hole with connection"))
      (sheetpath (names /) (tstamps /))
      (tstamp 5E35F34B))
    (comp (ref H_arduino_2)
      (value MountingHole_Pad)
      (footprint Mounting_Holes:MountingHole_3.2mm_M3_Pad_Via)
      (datasheet ~)
      (libsource (lib Mechanical) (part MountingHole_Pad) (description "Mounting Hole with connection"))
      (sheetpath (names /) (tstamps /))
      (tstamp 5E35FCDA))
    (comp (ref H_arduino_3)
      (value MountingHole_Pad)
      (footprint Mounting_Holes:MountingHole_3.2mm_M3_Pad_Via)
      (datasheet ~)
      (libsource (lib Mechanical) (part MountingHole_Pad) (description "Mounting Hole with connection"))
      (sheetpath (names /) (tstamps /))
      (tstamp 5E36069F))
    (comp (ref H_arduino_4)
      (value MountingHole_Pad)
      (footprint Mounting_Holes:MountingHole_3.2mm_M3_Pad_Via)
      (datasheet ~)
      (libsource (lib Mechanical) (part MountingHole_Pad) (description "Mounting Hole with connection"))
      (sheetpath (names /) (tstamps /))
      (tstamp 5E360E74))
    (comp (ref H_arduino_5)
      (value MountingHole_Pad)
      (footprint Mounting_Holes:MountingHole_3.2mm_M3_Pad_Via)
      (datasheet ~)
      (libsource (lib Mechanical) (part MountingHole_Pad) (description "Mounting Hole with connection"))
      (sheetpath (names /) (tstamps /))
      (tstamp 5E36172B))
    (comp (ref H_arduino_6)
      (value MountingHole_Pad)
      (footprint Mounting_Holes:MountingHole_3.2mm_M3_Pad_Via)
      (datasheet ~)
      (libsource (lib Mechanical) (part MountingHole_Pad) (description "Mounting Hole with connection"))
      (sheetpath (names /) (tstamps /))
      (tstamp 5E361EBD))
    (comp (ref H_mount_1)
      (value MountingHole_Pad)
      (footprint MountingHole:MountingHole_3.2mm_M3_Pad_Via)
      (datasheet ~)
      (libsource (lib Mechanical) (part MountingHole_Pad) (description "Mounting Hole with connection"))
      (sheetpath (names /) (tstamps /))
      (tstamp 5E3627D8))
    (comp (ref H_mount_2)
      (value MountingHole_Pad)
      (footprint MountingHole:MountingHole_3.2mm_M3_Pad_Via)
      (datasheet ~)
      (libsource (lib Mechanical) (part MountingHole_Pad) (description "Mounting Hole with connection"))
      (sheetpath (names /) (tstamps /))
      (tstamp 5E3631D3))
    (comp (ref H_mount_3)
      (value MountingHole_Pad)
      (footprint MountingHole:MountingHole_3.2mm_M3_Pad_Via)
      (datasheet ~)
      (libsource (lib Mechanical) (part MountingHole_Pad) (description "Mounting Hole with connection"))
      (sheetpath (names /) (tstamps /))
      (tstamp 5E363A73))
    (comp (ref H_mount_4)
      (value MountingHole_Pad)
      (footprint MountingHole:MountingHole_3.2mm_M3_Pad_Via)
      (datasheet ~)
      (libsource (lib Mechanical) (part MountingHole_Pad) (description "Mounting Hole with connection"))
      (sheetpath (names /) (tstamps /))
      (tstamp 5E364263))
    (comp (ref H_mount_5)
      (value MountingHole_Pad)
      (footprint MountingHole:MountingHole_3.2mm_M3_Pad_Via)
      (datasheet ~)
      (libsource (lib Mechanical) (part MountingHole_Pad) (description "Mounting Hole with connection"))
      (sheetpath (names /) (tstamps /))
      (tstamp 5E364B45))
    (comp (ref H_mount_6)
      (value MountingHole_Pad)
      (footprint MountingHole:MountingHole_3.2mm_M3_Pad_Via)
      (datasheet ~)
      (libsource (lib Mechanical) (part MountingHole_Pad) (description "Mounting Hole with connection"))
      (sheetpath (names /) (tstamps /))
      (tstamp 5E365305))
    (comp (ref H_mount_7)
      (value MountingHole_Pad)
      (footprint MountingHole:MountingHole_3.2mm_M3_Pad_Via)
      (datasheet ~)
      (libsource (lib Mechanical) (part MountingHole_Pad) (description "Mounting Hole with connection"))
      (sheetpath (names /) (tstamps /))
      (tstamp 5E365C03))
    (comp (ref H_mount_8)
      (value MountingHole_Pad)
      (footprint MountingHole:MountingHole_3.2mm_M3_Pad_Via)
      (datasheet ~)
      (libsource (lib Mechanical) (part MountingHole_Pad) (description "Mounting Hole with connection"))
      (sheetpath (names /) (tstamps /))
      (tstamp 5E3666B1))
    (comp (ref H_MFC_3)
      (value MountingHole_Pad)
      (footprint Mounting_Holes:MountingHole_3.2mm_M3_Pad_Via)
      (datasheet ~)
      (libsource (lib Mechanical) (part MountingHole_Pad) (description "Mounting Hole with connection"))
      (sheetpath (names /) (tstamps /))
      (tstamp 5E34A637))
    (comp (ref conn_MFC_2)
      (value Conn_01x10)
      (footprint Socket_Strips:Socket_Strip_Straight_1x10_Pitch2.54mm)
      (datasheet ~)
      (libsource (lib Connector_Generic) (part Conn_01x10) (description "Generic connector, single row, 01x10, script generated (kicad-library-utils/schlib/autogen/connector/)"))
      (sheetpath (names /) (tstamps /))
      (tstamp 5E41017C))
    (comp (ref conn_MFC_1)
      (value Conn_01x10)
      (footprint Socket_Strips:Socket_Strip_Straight_1x10_Pitch2.54mm)
      (datasheet ~)
      (libsource (lib Connector_Generic) (part Conn_01x10) (description "Generic connector, single row, 01x10, script generated (kicad-library-utils/schlib/autogen/connector/)"))
      (sheetpath (names /) (tstamps /))
      (tstamp 5E41907F))
    (comp (ref conn_MFC_0)
      (value Conn_01x10)
      (footprint Socket_Strips:Socket_Strip_Straight_1x10_Pitch2.54mm)
      (datasheet ~)
      (libsource (lib Connector_Generic) (part Conn_01x10) (description "Generic connector, single row, 01x10, script generated (kicad-library-utils/schlib/autogen/connector/)"))
      (sheetpath (names /) (tstamps /))
      (tstamp 5E41A5C6))
    (comp (ref H_DC_supplies_1)
      (value MountingHole_Pad)
      (footprint Mounting_Holes:MountingHole_3.2mm_M3_Pad_Via)
      (datasheet ~)
      (libsource (lib Mechanical) (part MountingHole_Pad) (description "Mounting Hole with connection"))
      (sheetpath (names /) (tstamps /))
      (tstamp 5E35CD52))
    (comp (ref H_DC_supplies_2)
      (value MountingHole_Pad)
      (footprint Mounting_Holes:MountingHole_3.2mm_M3_Pad_Via)
      (datasheet ~)
      (libsource (lib Mechanical) (part MountingHole_Pad) (description "Mounting Hole with connection"))
      (sheetpath (names /) (tstamps /))
      (tstamp 5E35E0CA))
    (comp (ref J5)
      (value Screw_Terminal_01x04)
      (footprint Connectors_Terminal_Blocks:TerminalBlock_bornier-4_P5.08mm)
      (datasheet ~)
      (libsource (lib Connector) (part Screw_Terminal_01x04) (description "Generic screw terminal, single row, 01x04, script generated (kicad-library-utils/schlib/autogen/connector/)"))
      (sheetpath (names /) (tstamps /))
      (tstamp 5E36000A))
    (comp (ref J6)
      (value Screw_Terminal_01x02)
      (footprint Connectors_Terminal_Blocks:TerminalBlock_bornier-2_P5.08mm)
      (datasheet ~)
      (libsource (lib Connector) (part Screw_Terminal_01x02) (description "Generic screw terminal, single row, 01x02, script generated (kicad-library-utils/schlib/autogen/connector/)"))
      (sheetpath (names /) (tstamps /))
      (tstamp 5E362559))
    (comp (ref J1)
      (value Screw_Terminal_01x04)
      (footprint Connectors_Terminal_Blocks:TerminalBlock_bornier-4_P5.08mm)
      (datasheet ~)
      (libsource (lib Connector) (part Screw_Terminal_01x04) (description "Generic screw terminal, single row, 01x04, script generated (kicad-library-utils/schlib/autogen/connector/)"))
      (sheetpath (names /) (tstamps /))
      (tstamp 5E367CC8))
    (comp (ref J2)
      (value Screw_Terminal_01x02)
      (footprint Connectors_Terminal_Blocks:TerminalBlock_bornier-2_P5.08mm)
      (datasheet ~)
      (libsource (lib Connector) (part Screw_Terminal_01x02) (description "Generic screw terminal, single row, 01x02, script generated (kicad-library-utils/schlib/autogen/connector/)"))
      (sheetpath (names /) (tstamps /))
      (tstamp 5E367CCE))
    (comp (ref H_DC_supplies_4)
      (value MountingHole_Pad)
      (footprint Mounting_Holes:MountingHole_3.2mm_M3_Pad_Via)
      (datasheet ~)
      (libsource (lib Mechanical) (part MountingHole_Pad) (description "Mounting Hole with connection"))
      (sheetpath (names /) (tstamps /))
      (tstamp 5E35F54D))
    (comp (ref H_DC_supplies_3)
      (value MountingHole_Pad)
      (footprint Mounting_Holes:MountingHole_3.2mm_M3_Pad_Via)
      (datasheet ~)
      (libsource (lib Mechanical) (part MountingHole_Pad) (description "Mounting Hole with connection"))
      (sheetpath (names /) (tstamps /))
      (tstamp 5E35EAE8))
    (comp (ref J12)
      (value Screw_Terminal_01x03)
      (footprint TerminalBlock:TerminalBlock_bornier-3_P5.08mm)
      (datasheet ~)
      (libsource (lib Connector) (part Screw_Terminal_01x03) (description "Generic screw terminal, single row, 01x03, script generated (kicad-library-utils/schlib/autogen/connector/)"))
      (sheetpath (names /) (tstamps /))
      (tstamp 5E52214E))
    (comp (ref J11)
      (value arduino_LHS)
      (footprint Connector_PinSocket_2.54mm:PinSocket_1x26_P2.54mm_Vertical)
      (datasheet ~)
      (libsource (lib Connector_Generic) (part Conn_01x26) (description "Generic connector, single row, 01x26, script generated (kicad-library-utils/schlib/autogen/connector/)"))
      (sheetpath (names /) (tstamps /))
      (tstamp 5E587489))
    (comp (ref J13)
      (value USB_A)
      (footprint Connector_USB:USB_A_Molex_105057_Vertical)
      (datasheet " ~")
      (libsource (lib Connector) (part USB_A) (description "USB Type A connector"))
      (sheetpath (names /) (tstamps /))
      (tstamp 5E3B58D6))
    (comp (ref J9)
      (value arduino_RHS)
      (footprint Connector_PinSocket_2.54mm:PinSocket_1x28_P2.54mm_Vertical)
      (datasheet ~)
      (libsource (lib Connector_Generic) (part Conn_01x28) (description "Generic connector, single row, 01x28, script generated (kicad-library-utils/schlib/autogen/connector/)"))
      (sheetpath (names /) (tstamps /))
      (tstamp 5E3E161F))
    (comp (ref J10)
      (value arduino_bottom)
      (footprint Connector_PinSocket_2.54mm:PinSocket_2x18_P2.54mm_Vertical)
      (datasheet ~)
      (libsource (lib Connector_Generic) (part Conn_02x18_Odd_Even) (description "Generic connector, double row, 02x18, odd/even pin numbering scheme (row 1 odd numbers, row 2 even numbers), script generated (kicad-library-utils/schlib/autogen/connector/)"))
      (sheetpath (names /) (tstamps /))
      (tstamp 5E5CADB0))
    (comp (ref J14)
      (value USB_A)
      (footprint Connector_USB:USB_A_Molex_105057_Vertical)
      (datasheet " ~")
      (libsource (lib Connector) (part USB_A) (description "USB Type A connector"))
      (sheetpath (names /) (tstamps /))
      (tstamp 5E4473E0)))
  (libparts
    (libpart (lib Connector) (part Screw_Terminal_01x02)
      (description "Generic screw terminal, single row, 01x02, script generated (kicad-library-utils/schlib/autogen/connector/)")
      (docs ~)
      (footprints
        (fp TerminalBlock*:*))
      (fields
        (field (name Reference) J)
        (field (name Value) Screw_Terminal_01x02))
      (pins
        (pin (num 1) (name Pin_1) (type passive))
        (pin (num 2) (name Pin_2) (type passive))))
    (libpart (lib Connector) (part Screw_Terminal_01x03)
      (description "Generic screw terminal, single row, 01x03, script generated (kicad-library-utils/schlib/autogen/connector/)")
      (docs ~)
      (footprints
        (fp TerminalBlock*:*))
      (fields
        (field (name Reference) J)
        (field (name Value) Screw_Terminal_01x03))
      (pins
        (pin (num 1) (name Pin_1) (type passive))
        (pin (num 2) (name Pin_2) (type passive))
        (pin (num 3) (name Pin_3) (type passive))))
    (libpart (lib Connector) (part Screw_Terminal_01x04)
      (description "Generic screw terminal, single row, 01x04, script generated (kicad-library-utils/schlib/autogen/connector/)")
      (docs ~)
      (footprints
        (fp TerminalBlock*:*))
      (fields
        (field (name Reference) J)
        (field (name Value) Screw_Terminal_01x04))
      (pins
        (pin (num 1) (name Pin_1) (type passive))
        (pin (num 2) (name Pin_2) (type passive))
        (pin (num 3) (name Pin_3) (type passive))
        (pin (num 4) (name Pin_4) (type passive))))
    (libpart (lib Connector) (part USB_A)
      (description "USB Type A connector")
      (docs " ~")
      (footprints
        (fp USB*))
      (fields
        (field (name Reference) J)
        (field (name Value) USB_A))
      (pins
        (pin (num 1) (name VBUS) (type power_in))
        (pin (num 2) (name D-) (type passive))
        (pin (num 3) (name D+) (type passive))
        (pin (num 4) (name GND) (type power_in))
        (pin (num 5) (name Shield) (type passive))))
    (libpart (lib Connector_Generic) (part Conn_01x04)
      (description "Generic connector, single row, 01x04, script generated (kicad-library-utils/schlib/autogen/connector/)")
      (docs ~)
      (footprints
        (fp Connector*:*_1x??_*))
      (fields
        (field (name Reference) J)
        (field (name Value) Conn_01x04))
      (pins
        (pin (num 1) (name Pin_1) (type passive))
        (pin (num 2) (name Pin_2) (type passive))
        (pin (num 3) (name Pin_3) (type passive))
        (pin (num 4) (name Pin_4) (type passive))))
    (libpart (lib Connector_Generic) (part Conn_01x06)
      (description "Generic connector, single row, 01x06, script generated (kicad-library-utils/schlib/autogen/connector/)")
      (docs ~)
      (footprints
        (fp Connector*:*_1x??_*))
      (fields
        (field (name Reference) J)
        (field (name Value) Conn_01x06))
      (pins
        (pin (num 1) (name Pin_1) (type passive))
        (pin (num 2) (name Pin_2) (type passive))
        (pin (num 3) (name Pin_3) (type passive))
        (pin (num 4) (name Pin_4) (type passive))
        (pin (num 5) (name Pin_5) (type passive))
        (pin (num 6) (name Pin_6) (type passive))))
    (libpart (lib Connector_Generic) (part Conn_01x10)
      (description "Generic connector, single row, 01x10, script generated (kicad-library-utils/schlib/autogen/connector/)")
      (docs ~)
      (footprints
        (fp Connector*:*_1x??_*))
      (fields
        (field (name Reference) J)
        (field (name Value) Conn_01x10))
      (pins
        (pin (num 1) (name Pin_1) (type passive))
        (pin (num 2) (name Pin_2) (type passive))
        (pin (num 3) (name Pin_3) (type passive))
        (pin (num 4) (name Pin_4) (type passive))
        (pin (num 5) (name Pin_5) (type passive))
        (pin (num 6) (name Pin_6) (type passive))
        (pin (num 7) (name Pin_7) (type passive))
        (pin (num 8) (name Pin_8) (type passive))
        (pin (num 9) (name Pin_9) (type passive))
        (pin (num 10) (name Pin_10) (type passive))))
    (libpart (lib Connector_Generic) (part Conn_01x26)
      (description "Generic connector, single row, 01x26, script generated (kicad-library-utils/schlib/autogen/connector/)")
      (docs ~)
      (footprints
        (fp Connector*:*_1x??_*))
      (fields
        (field (name Reference) J)
        (field (name Value) Conn_01x26))
      (pins
        (pin (num 1) (name Pin_1) (type passive))
        (pin (num 2) (name Pin_2) (type passive))
        (pin (num 3) (name Pin_3) (type passive))
        (pin (num 4) (name Pin_4) (type passive))
        (pin (num 5) (name Pin_5) (type passive))
        (pin (num 6) (name Pin_6) (type passive))
        (pin (num 7) (name Pin_7) (type passive))
        (pin (num 8) (name Pin_8) (type passive))
        (pin (num 9) (name Pin_9) (type passive))
        (pin (num 10) (name Pin_10) (type passive))
        (pin (num 11) (name Pin_11) (type passive))
        (pin (num 12) (name Pin_12) (type passive))
        (pin (num 13) (name Pin_13) (type passive))
        (pin (num 14) (name Pin_14) (type passive))
        (pin (num 15) (name Pin_15) (type passive))
        (pin (num 16) (name Pin_16) (type passive))
        (pin (num 17) (name Pin_17) (type passive))
        (pin (num 18) (name Pin_18) (type passive))
        (pin (num 19) (name Pin_19) (type passive))
        (pin (num 20) (name Pin_20) (type passive))
        (pin (num 21) (name Pin_21) (type passive))
        (pin (num 22) (name Pin_22) (type passive))
        (pin (num 23) (name Pin_23) (type passive))
        (pin (num 24) (name Pin_24) (type passive))
        (pin (num 25) (name Pin_25) (type passive))
        (pin (num 26) (name Pin_26) (type passive))))
    (libpart (lib Connector_Generic) (part Conn_01x28)
      (description "Generic connector, single row, 01x28, script generated (kicad-library-utils/schlib/autogen/connector/)")
      (docs ~)
      (footprints
        (fp Connector*:*_1x??_*))
      (fields
        (field (name Reference) J)
        (field (name Value) Conn_01x28))
      (pins
        (pin (num 1) (name Pin_1) (type passive))
        (pin (num 2) (name Pin_2) (type passive))
        (pin (num 3) (name Pin_3) (type passive))
        (pin (num 4) (name Pin_4) (type passive))
        (pin (num 5) (name Pin_5) (type passive))
        (pin (num 6) (name Pin_6) (type passive))
        (pin (num 7) (name Pin_7) (type passive))
        (pin (num 8) (name Pin_8) (type passive))
        (pin (num 9) (name Pin_9) (type passive))
        (pin (num 10) (name Pin_10) (type passive))
        (pin (num 11) (name Pin_11) (type passive))
        (pin (num 12) (name Pin_12) (type passive))
        (pin (num 13) (name Pin_13) (type passive))
        (pin (num 14) (name Pin_14) (type passive))
        (pin (num 15) (name Pin_15) (type passive))
        (pin (num 16) (name Pin_16) (type passive))
        (pin (num 17) (name Pin_17) (type passive))
        (pin (num 18) (name Pin_18) (type passive))
        (pin (num 19) (name Pin_19) (type passive))
        (pin (num 20) (name Pin_20) (type passive))
        (pin (num 21) (name Pin_21) (type passive))
        (pin (num 22) (name Pin_22) (type passive))
        (pin (num 23) (name Pin_23) (type passive))
        (pin (num 24) (name Pin_24) (type passive))
        (pin (num 25) (name Pin_25) (type passive))
        (pin (num 26) (name Pin_26) (type passive))
        (pin (num 27) (name Pin_27) (type passive))
        (pin (num 28) (name Pin_28) (type passive))))
    (libpart (lib Connector_Generic) (part Conn_02x18_Odd_Even)
      (description "Generic connector, double row, 02x18, odd/even pin numbering scheme (row 1 odd numbers, row 2 even numbers), script generated (kicad-library-utils/schlib/autogen/connector/)")
      (docs ~)
      (footprints
        (fp Connector*:*_2x??_*))
      (fields
        (field (name Reference) J)
        (field (name Value) Conn_02x18_Odd_Even))
      (pins
        (pin (num 1) (name Pin_1) (type passive))
        (pin (num 2) (name Pin_2) (type passive))
        (pin (num 3) (name Pin_3) (type passive))
        (pin (num 4) (name Pin_4) (type passive))
        (pin (num 5) (name Pin_5) (type passive))
        (pin (num 6) (name Pin_6) (type passive))
        (pin (num 7) (name Pin_7) (type passive))
        (pin (num 8) (name Pin_8) (type passive))
        (pin (num 9) (name Pin_9) (type passive))
        (pin (num 10) (name Pin_10) (type passive))
        (pin (num 11) (name Pin_11) (type passive))
        (pin (num 12) (name Pin_12) (type passive))
        (pin (num 13) (name Pin_13) (type passive))
        (pin (num 14) (name Pin_14) (type passive))
        (pin (num 15) (name Pin_15) (type passive))
        (pin (num 16) (name Pin_16) (type passive))
        (pin (num 17) (name Pin_17) (type passive))
        (pin (num 18) (name Pin_18) (type passive))
        (pin (num 19) (name Pin_19) (type passive))
        (pin (num 20) (name Pin_20) (type passive))
        (pin (num 21) (name Pin_21) (type passive))
        (pin (num 22) (name Pin_22) (type passive))
        (pin (num 23) (name Pin_23) (type passive))
        (pin (num 24) (name Pin_24) (type passive))
        (pin (num 25) (name Pin_25) (type passive))
        (pin (num 26) (name Pin_26) (type passive))
        (pin (num 27) (name Pin_27) (type passive))
        (pin (num 28) (name Pin_28) (type passive))
        (pin (num 29) (name Pin_29) (type passive))
        (pin (num 30) (name Pin_30) (type passive))
        (pin (num 31) (name Pin_31) (type passive))
        (pin (num 32) (name Pin_32) (type passive))
        (pin (num 33) (name Pin_33) (type passive))
        (pin (num 34) (name Pin_34) (type passive))
        (pin (num 35) (name Pin_35) (type passive))
        (pin (num 36) (name Pin_36) (type passive))))
    (libpart (lib Mechanical) (part MountingHole_Pad)
      (description "Mounting Hole with connection")
      (docs ~)
      (footprints
        (fp MountingHole*Pad*))
      (fields
        (field (name Reference) H)
        (field (name Value) MountingHole_Pad))
      (pins
        (pin (num 1) (name 1) (type input)))))
  (libraries
    (library (logical Connector)
      (uri "/Library/Application Support/kicad/library/Connector.lib"))
    (library (logical Connector_Generic)
      (uri "/Library/Application Support/kicad/library/Connector_Generic.lib"))
    (library (logical Mechanical)
      (uri "/Library/Application Support/kicad/library/Mechanical.lib")))
  (nets
    (net (code 1) (name arduino_analog_gnd)
      (node (ref conn_MFC_0) (pin 2))
      (node (ref conn_gauge_0) (pin 3))
      (node (ref conn_MFC_1) (pin 2))
      (node (ref conn_MFC_3) (pin 2))
      (node (ref conn_gauge_1) (pin 3))
      (node (ref conn_MFC_2) (pin 2))
      (node (ref conn_gauge_2) (pin 3))
      (node (ref conn_gauge_3) (pin 3)))
    (net (code 2) (name arduino_analog_07)
      (node (ref conn_gauge_0) (pin 5))
      (node (ref J11) (pin 10)))
    (net (code 3) (name arduino_PWM_gnd)
      (node (ref conn_MFC_2) (pin 4))
      (node (ref conn_MFC_3) (pin 4))
      (node (ref conn_MFC_0) (pin 4))
      (node (ref conn_MFC_1) (pin 4)))
    (net (code 4) (name MFC_3_serial_RX)
      (node (ref conn_MFC_3) (pin 5)))
    (net (code 5) (name MFC_3_serial_TX)
      (node (ref conn_MFC_3) (pin 6)))
    (net (code 6) (name "Net-(J3-Pad1)")
      (node (ref J3) (pin 1)))
    (net (code 7) (name "Net-(J3-Pad10)")
      (node (ref J3) (pin 10)))
    (net (code 8) (name "Net-(J3-Pad2)")
      (node (ref J3) (pin 2)))
    (net (code 9) (name "Net-(J3-Pad3)")
      (node (ref J3) (pin 3)))
    (net (code 10) (name "Net-(J3-Pad4)")
      (node (ref J3) (pin 4)))
    (net (code 11) (name "Net-(J3-Pad5)")
      (node (ref J3) (pin 5)))
    (net (code 12) (name "Net-(J3-Pad6)")
      (node (ref J3) (pin 6)))
    (net (code 13) (name "Net-(J3-Pad7)")
      (node (ref J3) (pin 7)))
    (net (code 14) (name "Net-(J3-Pad8)")
      (node (ref J3) (pin 8)))
    (net (code 15) (name "Net-(J3-Pad9)")
      (node (ref J3) (pin 9)))
    (net (code 16) (name "Net-(J4-Pad1)")
      (node (ref J4) (pin 1)))
    (net (code 17) (name "Net-(J4-Pad10)")
      (node (ref J4) (pin 10)))
    (net (code 18) (name "Net-(J4-Pad2)")
      (node (ref J4) (pin 2)))
    (net (code 19) (name "Net-(J4-Pad3)")
      (node (ref J4) (pin 3)))
    (net (code 20) (name "Net-(J4-Pad4)")
      (node (ref J4) (pin 4)))
    (net (code 21) (name "Net-(J4-Pad5)")
      (node (ref J4) (pin 5)))
    (net (code 22) (name "Net-(J4-Pad6)")
      (node (ref J4) (pin 6)))
    (net (code 23) (name "Net-(J4-Pad7)")
      (node (ref J4) (pin 7)))
    (net (code 24) (name "Net-(J4-Pad8)")
      (node (ref J4) (pin 8)))
    (net (code 25) (name "Net-(J4-Pad9)")
      (node (ref J4) (pin 9)))
    (net (code 26) (name "Net-(J7-Pad1)")
      (node (ref J7) (pin 1)))
    (net (code 27) (name "Net-(J7-Pad10)")
      (node (ref J7) (pin 10)))
    (net (code 28) (name "Net-(J7-Pad2)")
      (node (ref J7) (pin 2)))
    (net (code 29) (name "Net-(J7-Pad3)")
      (node (ref J7) (pin 3)))
    (net (code 30) (name "Net-(J7-Pad4)")
      (node (ref J7) (pin 4)))
    (net (code 31) (name "Net-(J7-Pad5)")
      (node (ref J7) (pin 5)))
    (net (code 32) (name "Net-(J7-Pad6)")
      (node (ref J7) (pin 6)))
    (net (code 33) (name "Net-(J7-Pad7)")
      (node (ref J7) (pin 7)))
    (net (code 34) (name "Net-(J7-Pad8)")
      (node (ref J7) (pin 8)))
    (net (code 35) (name "Net-(J7-Pad9)")
      (node (ref J7) (pin 9)))
    (net (code 36) (name "Net-(J8-Pad1)")
      (node (ref J8) (pin 1)))
    (net (code 37) (name "Net-(J8-Pad10)")
      (node (ref J8) (pin 10)))
    (net (code 38) (name "Net-(J8-Pad2)")
      (node (ref J8) (pin 2)))
    (net (code 39) (name "Net-(J8-Pad3)")
      (node (ref J8) (pin 3)))
    (net (code 40) (name "Net-(J8-Pad4)")
      (node (ref J8) (pin 4)))
    (net (code 41) (name "Net-(J8-Pad5)")
      (node (ref J8) (pin 5)))
    (net (code 42) (name "Net-(J8-Pad6)")
      (node (ref J8) (pin 6)))
    (net (code 43) (name "Net-(J8-Pad7)")
      (node (ref J8) (pin 7)))
    (net (code 44) (name "Net-(J8-Pad8)")
      (node (ref J8) (pin 8)))
    (net (code 45) (name "Net-(J8-Pad9)")
      (node (ref J8) (pin 9)))
    (net (code 46) (name arduino_digital_37)
      (node (ref conn_sol_3) (pin 4))
      (node (ref J10) (pin 17)))
    (net (code 47) (name arduino_digital_33)
      (node (ref J10) (pin 13))
      (node (ref conn_sol_2) (pin 4)))
    (net (code 48) (name arduino_dig_gnd)
      (node (ref conn_sol_10) (pin 3))
      (node (ref conn_sol_9) (pin 3))
      (node (ref conn_sol_11) (pin 3))
      (node (ref conn_sol_8) (pin 3))
      (node (ref conn_sol_7) (pin 3))
      (node (ref conn_sol_15) (pin 3))
      (node (ref conn_sol_6) (pin 3))
      (node (ref conn_sol_5) (pin 3))
      (node (ref conn_sol_4) (pin 3))
      (node (ref conn_sol_14) (pin 3))
      (node (ref conn_sol_0) (pin 3))
      (node (ref conn_sol_1) (pin 3))
      (node (ref conn_sol_13) (pin 3))
      (node (ref conn_sol_2) (pin 3))
      (node (ref conn_sol_12) (pin 3))
      (node (ref conn_sol_3) (pin 3))
      (node (ref conn_gauge_2) (pin 4))
      (node (ref conn_gauge_3) (pin 4))
      (node (ref conn_gauge_1) (pin 4))
      (node (ref conn_gauge_0) (pin 4)))
    (net (code 49) (name arduino_digital_29)
      (node (ref conn_sol_1) (pin 4))
      (node (ref J10) (pin 9)))
    (net (code 50) (name 24V_DC_GND)
      (node (ref conn_sol_2) (pin 1))
      (node (ref conn_sol_1) (pin 1))
      (node (ref conn_sol_0) (pin 1))
      (node (ref conn_sol_4) (pin 1))
      (node (ref conn_sol_5) (pin 1))
      (node (ref conn_sol_3) (pin 1))
      (node (ref H_arduino_6) (pin 1))
      (node (ref H_gauge_1) (pin 1))
      (node (ref H_gauge_4) (pin 1))
      (node (ref H_gauge_3) (pin 1))
      (node (ref H_gauge_2) (pin 1))
      (node (ref H_MFC_4) (pin 1))
      (node (ref H_MFC_2) (pin 1))
      (node (ref H_MFC_1) (pin 1))
      (node (ref H_temp_2) (pin 1))
      (node (ref H_temp_4) (pin 1))
      (node (ref H_temp_3) (pin 1))
      (node (ref H_temp_1) (pin 1))
      (node (ref H_MFC_3) (pin 1))
      (node (ref conn_sol_6) (pin 1))
      (node (ref conn_MFC_3) (pin 8))
      (node (ref conn_MFC_3) (pin 7))
      (node (ref conn_sol_7) (pin 1))
      (node (ref H_arduino_5) (pin 1))
      (node (ref H_arduino_4) (pin 1))
      (node (ref H_arduino_3) (pin 1))
      (node (ref H_arduino_2) (pin 1))
      (node (ref H_arduino_1) (pin 1))
      (node (ref conn_gauge_2) (pin 1))
      (node (ref conn_gauge_3) (pin 1))
      (node (ref conn_sol_12) (pin 1))
      (node (ref conn_sol_13) (pin 1))
      (node (ref conn_sol_14) (pin 1))
      (node (ref J11) (pin 21))
      (node (ref J11) (pin 20))
      (node (ref conn_MFC_2) (pin 7))
      (node (ref conn_MFC_2) (pin 8))
      (node (ref J13) (pin 4))
      (node (ref conn_sol_8) (pin 1))
      (node (ref J13) (pin 5))
      (node (ref J9) (pin 25))
      (node (ref J14) (pin 5))
      (node (ref conn_sol_9) (pin 1))
      (node (ref conn_sol_15) (pin 1))
      (node (ref J14) (pin 4))
      (node (ref conn_gauge_1) (pin 1))
      (node (ref conn_MFC_1) (pin 7))
      (node (ref conn_MFC_1) (pin 8))
      (node (ref J10) (pin 35))
      (node (ref J10) (pin 36))
      (node (ref conn_gauge_0) (pin 1))
      (node (ref conn_sol_11) (pin 1))
      (node (ref H_DC_supplies_3) (pin 1))
      (node (ref conn_MFC_0) (pin 7))
      (node (ref conn_MFC_0) (pin 8))
      (node (ref H_DC_supplies_4) (pin 1))
      (node (ref J1) (pin 2))
      (node (ref J1) (pin 1))
      (node (ref J5) (pin 2))
      (node (ref J5) (pin 1))
      (node (ref conn_sol_10) (pin 1))
      (node (ref H_DC_supplies_2) (pin 1))
      (node (ref H_DC_supplies_1) (pin 1)))
    (net (code 51) (name 24V_DC_HOT)
      (node (ref conn_sol_3) (pin 2))
      (node (ref conn_MFC_3) (pin 10))
      (node (ref J5) (pin 3))
      (node (ref J5) (pin 4))
      (node (ref conn_MFC_3) (pin 9))
      (node (ref conn_sol_15) (pin 2))
      (node (ref conn_gauge_2) (pin 2))
      (node (ref conn_sol_6) (pin 2))
      (node (ref conn_MFC_0) (pin 9))
      (node (ref conn_sol_7) (pin 2))
      (node (ref conn_sol_10) (pin 2))
      (node (ref conn_gauge_3) (pin 2))
      (node (ref conn_sol_12) (pin 2))
      (node (ref conn_sol_13) (pin 2))
      (node (ref conn_sol_0) (pin 2))
      (node (ref conn_MFC_0) (pin 10))
      (node (ref conn_sol_8) (pin 2))
      (node (ref conn_sol_9) (pin 2))
      (node (ref conn_MFC_1) (pin 10))
      (node (ref conn_MFC_2) (pin 10))
      (node (ref conn_sol_2) (pin 2))
      (node (ref conn_sol_11) (pin 2))
      (node (ref conn_sol_4) (pin 2))
      (node (ref conn_sol_5) (pin 2))
      (node (ref conn_gauge_1) (pin 2))
      (node (ref conn_sol_14) (pin 2))
      (node (ref conn_sol_1) (pin 2))
      (node (ref conn_gauge_0) (pin 2))
      (node (ref conn_MFC_1) (pin 9))
      (node (ref conn_MFC_2) (pin 9)))
    (net (code 52) (name arduino_digital_25)
      (node (ref J10) (pin 5))
      (node (ref conn_sol_0) (pin 4)))
    (net (code 53) (name arduino_digital_41)
      (node (ref J10) (pin 21))
      (node (ref conn_sol_4) (pin 4)))
    (net (code 54) (name arduino_digital_45)
      (node (ref J10) (pin 25))
      (node (ref conn_sol_5) (pin 4)))
    (net (code 55) (name arduino_digital_49)
      (node (ref conn_sol_6) (pin 4))
      (node (ref J10) (pin 29)))
    (net (code 56) (name arduino_digital_53)
      (node (ref J10) (pin 33))
      (node (ref conn_sol_7) (pin 4)))
    (net (code 57) (name arduino_digital_23)
      (node (ref conn_sol_8) (pin 4))
      (node (ref J10) (pin 3)))
    (net (code 58) (name arduino_digital_27)
      (node (ref J10) (pin 7))
      (node (ref conn_sol_9) (pin 4)))
    (net (code 59) (name arduino_digital_31)
      (node (ref conn_sol_10) (pin 4))
      (node (ref J10) (pin 11)))
    (net (code 60) (name arduino_digital_51)
      (node (ref J10) (pin 31))
      (node (ref conn_sol_15) (pin 4)))
    (net (code 61) (name arduino_digital_47)
      (node (ref J10) (pin 27))
      (node (ref conn_sol_14) (pin 4)))
    (net (code 62) (name arduino_digital_43)
      (node (ref conn_sol_13) (pin 4))
      (node (ref J10) (pin 23)))
    (net (code 63) (name arduino_digital_39)
      (node (ref conn_sol_12) (pin 4))
      (node (ref J10) (pin 19)))
    (net (code 64) (name MFC_2_serial_RX)
      (node (ref conn_MFC_2) (pin 5)))
    (net (code 65) (name MFC_2_serial_TX)
      (node (ref conn_MFC_2) (pin 6)))
    (net (code 66) (name MFC_1_serial_RX)
      (node (ref conn_MFC_1) (pin 5)))
    (net (code 67) (name MFC_1_serial_TX)
      (node (ref conn_MFC_1) (pin 6)))
    (net (code 68) (name MFC_0_serial_RX)
      (node (ref conn_MFC_0) (pin 5)))
    (net (code 69) (name MFC_0_serial_TX)
      (node (ref conn_MFC_0) (pin 6)))
    (net (code 70) (name 5V_DC_HOT)
      (node (ref J13) (pin 1))
      (node (ref J1) (pin 4))
      (node (ref J1) (pin 3))
      (node (ref J14) (pin 1)))
    (net (code 71) (name 240V_AC_neutral)
      (node (ref J2) (pin 1))
      (node (ref J6) (pin 1))
      (node (ref J12) (pin 2)))
    (net (code 72) (name 240V_AC_line)
      (node (ref J6) (pin 2))
      (node (ref J12) (pin 3))
      (node (ref J2) (pin 2)))
    (net (code 73) (name 240V_AC_gnd)
      (node (ref H_mount_5) (pin 1))
      (node (ref H_mount_4) (pin 1))
      (node (ref H_mount_3) (pin 1))
      (node (ref H_mount_2) (pin 1))
      (node (ref H_mount_1) (pin 1))
      (node (ref H_mount_6) (pin 1))
      (node (ref H_mount_7) (pin 1))
      (node (ref H_mount_8) (pin 1))
      (node (ref J12) (pin 1)))
    (net (code 74) (name "Net-(J9-Pad9)")
      (node (ref J9) (pin 9)))
    (net (code 75) (name "Net-(J9-Pad18)")
      (node (ref J9) (pin 18)))
    (net (code 76) (name "Net-(J11-Pad9)")
      (node (ref J11) (pin 9)))
    (net (code 77) (name "Net-(J11-Pad18)")
      (node (ref J11) (pin 18)))
    (net (code 78) (name arduino_analog_15)
      (node (ref J11) (pin 1)))
    (net (code 79) (name arduino_analog_06)
      (node (ref J11) (pin 11))
      (node (ref conn_gauge_1) (pin 5)))
    (net (code 80) (name arduino_analog_05)
      (node (ref conn_gauge_2) (pin 5))
      (node (ref J11) (pin 12)))
    (net (code 81) (name arduino_analog_04)
      (node (ref conn_gauge_3) (pin 5))
      (node (ref J11) (pin 13)))
    (net (code 82) (name MFC_0_analog_sig)
      (node (ref J11) (pin 14))
      (node (ref conn_MFC_0) (pin 1)))
    (net (code 83) (name MFC_1_analog_sig)
      (node (ref J11) (pin 15))
      (node (ref conn_MFC_1) (pin 1)))
    (net (code 84) (name MFC_2_analog_sig)
      (node (ref J11) (pin 16))
      (node (ref conn_MFC_2) (pin 1)))
    (net (code 85) (name MFC_3_analog_sig)
      (node (ref conn_MFC_3) (pin 1))
      (node (ref J11) (pin 17)))
    (net (code 86) (name V_in)
      (node (ref J11) (pin 19)))
    (net (code 87) (name arduino_analog_14)
      (node (ref J11) (pin 2)))
    (net (code 88) (name arduino_3V3)
      (node (ref J11) (pin 23)))
    (net (code 89) (name arduino_reset)
      (node (ref J11) (pin 24)))
    (net (code 90) (name arduino_IOREF)
      (node (ref J11) (pin 25)))
    (net (code 91) (name arduino_unlabeled)
      (node (ref J11) (pin 26)))
    (net (code 92) (name arduino_analog_13)
      (node (ref J11) (pin 3)))
    (net (code 93) (name arduino_analog_12)
      (node (ref J11) (pin 4)))
    (net (code 94) (name arduino_analog_11)
      (node (ref J11) (pin 5)))
    (net (code 95) (name arduino_analog_10)
      (node (ref J11) (pin 6)))
    (net (code 96) (name arduino_analog_09)
      (node (ref J11) (pin 7)))
    (net (code 97) (name arduino_analog_08)
      (node (ref J11) (pin 8)))
    (net (code 98) (name "Net-(J13-Pad2)")
      (node (ref J13) (pin 2)))
    (net (code 99) (name "Net-(J13-Pad3)")
      (node (ref J13) (pin 3)))
    (net (code 100) (name arduino_digital_21)
      (node (ref J9) (pin 1)))
    (net (code 101) (name arduino_digital_00)
      (node (ref J9) (pin 10)))
    (net (code 102) (name arduino_digital_01)
      (node (ref J9) (pin 11)))
    (net (code 103) (name MFC_0_PWM_sig)
      (node (ref conn_MFC_0) (pin 3))
      (node (ref J9) (pin 12)))
    (net (code 104) (name MFC_1_PWM_sig)
      (node (ref J9) (pin 13))
      (node (ref conn_MFC_1) (pin 3)))
    (net (code 105) (name MFC_2_PWM_sig)
      (node (ref J9) (pin 14))
      (node (ref conn_MFC_2) (pin 3)))
    (net (code 106) (name MFC_3_PWM_sig)
      (node (ref J9) (pin 15))
      (node (ref conn_MFC_3) (pin 3)))
    (net (code 107) (name arduino_digital_06)
      (node (ref J9) (pin 16)))
    (net (code 108) (name arduino_digital_07)
      (node (ref J9) (pin 17)))
    (net (code 109) (name arduino_digital_08)
      (node (ref J9) (pin 19)))
    (net (code 110) (name arduino_digital_20)
      (node (ref J9) (pin 2)))
    (net (code 111) (name arduino_digital_09)
      (node (ref J9) (pin 20)))
    (net (code 112) (name arduino_digital_10)
      (node (ref J9) (pin 21)))
    (net (code 113) (name arduino_digital_11)
      (node (ref J9) (pin 22)))
    (net (code 114) (name arduino_digital_12)
      (node (ref J9) (pin 23)))
    (net (code 115) (name arduino_digital_13)
      (node (ref J9) (pin 24)))
    (net (code 116) (name A_REF)
      (node (ref J9) (pin 26)))
    (net (code 117) (name SDA_1)
      (node (ref J9) (pin 27)))
    (net (code 118) (name SCL_1)
      (node (ref J9) (pin 28)))
    (net (code 119) (name arduino_digital_19)
      (node (ref J9) (pin 3)))
    (net (code 120) (name arduino_digital_18)
      (node (ref J9) (pin 4)))
    (net (code 121) (name arduino_digital_17)
      (node (ref J9) (pin 5)))
    (net (code 122) (name arduino_digital_16)
      (node (ref J9) (pin 6)))
    (net (code 123) (name arduino_digital_15)
      (node (ref J9) (pin 7)))
    (net (code 124) (name arduino_digital_14)
      (node (ref J9) (pin 8)))
    (net (code 125) (name arduino_digital_28)
      (node (ref J10) (pin 10))
      (node (ref conn_gauge_0) (pin 6)))
    (net (code 126) (name arduino_digital_30)
      (node (ref J10) (pin 12)))
    (net (code 127) (name arduino_digital_32)
      (node (ref J10) (pin 14)))
    (net (code 128) (name arduino_digital_35)
      (node (ref conn_sol_11) (pin 4))
      (node (ref J10) (pin 15)))
    (net (code 129) (name arduino_digital_34)
      (node (ref J10) (pin 16)))
    (net (code 130) (name arduino_digital_36)
      (node (ref J10) (pin 18)))
    (net (code 131) (name arduino_5V)
      (node (ref J11) (pin 22))
      (node (ref J10) (pin 2))
      (node (ref J10) (pin 1)))
    (net (code 132) (name arduino_digital_38)
      (node (ref J10) (pin 20)))
    (net (code 133) (name arduino_digital_40)
      (node (ref J10) (pin 22)))
    (net (code 134) (name arduino_digital_42)
      (node (ref J10) (pin 24)))
    (net (code 135) (name arduino_digital_44)
      (node (ref J10) (pin 26)))
    (net (code 136) (name arduino_digital_46)
      (node (ref J10) (pin 28)))
    (net (code 137) (name arduino_digital_48)
      (node (ref J10) (pin 30)))
    (net (code 138) (name arduino_digital_50)
      (node (ref J10) (pin 32)))
    (net (code 139) (name arduino_digital_52)
      (node (ref J10) (pin 34)))
    (net (code 140) (name arduino_digital_22)
      (node (ref J10) (pin 4))
      (node (ref conn_gauge_3) (pin 6)))
    (net (code 141) (name arduino_digital_24)
      (node (ref J10) (pin 6))
      (node (ref conn_gauge_2) (pin 6)))
    (net (code 142) (name arduino_digital_26)
      (node (ref conn_gauge_1) (pin 6))
      (node (ref J10) (pin 8)))
    (net (code 143) (name "Net-(J14-Pad2)")
      (node (ref J14) (pin 2)))
    (net (code 144) (name "Net-(J14-Pad3)")
      (node (ref J14) (pin 3)))))