(export (version D)
  (design
    (source "/Users/Augustin/OneDrive - Nexus365/Oxford/ALD/ALD_electronics_V2-0/solenoid_daughterBoard/solenoid_daughterBoard.sch")
    (date "Thursday, 30 January 2020 at 06:50:26 pm")
    (tool "Eeschema (5.1.5-0)")
    (sheet (number 1) (name /) (tstamps /)
      (title_block
        (title)
        (company)
        (rev)
        (date)
        (source solenoid_daughterBoard.sch)
        (comment (number 1) (value ""))
        (comment (number 2) (value ""))
        (comment (number 3) (value ""))
        (comment (number 4) (value "")))))
  (components
    (comp (ref conn_stab_1)
      (value Conn_01x02)
      (footprint Pin_Headers:Pin_Header_Angled_1x02_Pitch2.54mm)
      (datasheet ~)
      (libsource (lib Connector_Generic) (part Conn_01x02) (description "Generic connector, single row, 01x02, script generated (kicad-library-utils/schlib/autogen/connector/)"))
      (sheetpath (names /) (tstamps /))
      (tstamp 5E33205B))
    (comp (ref conn_stab_2)
      (value Conn_01x02)
      (footprint Pin_Headers:Pin_Header_Angled_1x02_Pitch2.54mm)
      (datasheet ~)
      (libsource (lib Connector_Generic) (part Conn_01x02) (description "Generic connector, single row, 01x02, script generated (kicad-library-utils/schlib/autogen/connector/)"))
      (sheetpath (names /) (tstamps /))
      (tstamp 5E3326EA))
    (comp (ref U1)
      (value ASSR-1611-100E)
      (footprint myParts:ASSR-1611-100E)
      (libsource (lib myParts) (part ASSR-1611-100E) (description ""))
      (sheetpath (names /) (tstamps /))
      (tstamp 5E334FCC))
    (comp (ref R2)
      (value 2KR)
      (footprint Resistors_SMD:R_2512)
      (datasheet ~)
      (libsource (lib Device) (part R) (description Resistor))
      (sheetpath (names /) (tstamps /))
      (tstamp 5E339D80))
    (comp (ref R3)
      (value 100R)
      (footprint Resistors_SMD:R_2512)
      (datasheet ~)
      (libsource (lib Device) (part R) (description Resistor))
      (sheetpath (names /) (tstamps /))
      (tstamp 5E33AA2D))
    (comp (ref D1)
      (value D)
      (footprint Diodes_THT:D_A-405_P7.62mm_Horizontal)
      (datasheet ~)
      (libsource (lib Device) (part D) (description Diode))
      (sheetpath (names /) (tstamps /))
      (tstamp 5E33BC4E))
    (comp (ref conn_LED_1)
      (value Conn_01x02)
      (footprint Pin_Headers:Pin_Header_Angled_1x02_Pitch2.54mm)
      (datasheet ~)
      (libsource (lib Connector_Generic) (part Conn_01x02) (description "Generic connector, single row, 01x02, script generated (kicad-library-utils/schlib/autogen/connector/)"))
      (sheetpath (names /) (tstamps /))
      (tstamp 5E33C3C2))
    (comp (ref conn_sol_1)
      (value Conn_01x02)
      (footprint Pin_Headers:Pin_Header_Angled_1x02_Pitch2.54mm)
      (datasheet ~)
      (libsource (lib Connector_Generic) (part Conn_01x02) (description "Generic connector, single row, 01x02, script generated (kicad-library-utils/schlib/autogen/connector/)"))
      (sheetpath (names /) (tstamps /))
      (tstamp 5E346D6E))
    (comp (ref J1)
      (value Conn_01x04)
      (footprint Pin_Headers:Pin_Header_Angled_1x04_Pitch2.54mm)
      (datasheet ~)
      (libsource (lib Connector_Generic) (part Conn_01x04) (description "Generic connector, single row, 01x04, script generated (kicad-library-utils/schlib/autogen/connector/)"))
      (sheetpath (names /) (tstamps /))
      (tstamp 5E332FD0))
    (comp (ref R1)
      (value 470R)
      (footprint Resistors_SMD:R_2512)
      (datasheet ~)
      (libsource (lib Device) (part R) (description Resistor))
      (sheetpath (names /) (tstamps /))
      (tstamp 5E34E71C)))
  (libparts
    (libpart (lib Connector_Generic) (part Conn_01x02)
      (description "Generic connector, single row, 01x02, script generated (kicad-library-utils/schlib/autogen/connector/)")
      (docs ~)
      (footprints
        (fp Connector*:*_1x??_*))
      (fields
        (field (name Reference) J)
        (field (name Value) Conn_01x02))
      (pins
        (pin (num 1) (name Pin_1) (type passive))
        (pin (num 2) (name Pin_2) (type passive))))
    (libpart (lib Connector_Generic) (part Conn_01x04)
      (description "Generic connector, single row, 01x04, script generated (kicad-library-utils/schlib/autogen/connector/)")
      (docs ~)
      (footprints
        (fp Connector*:*_1x??_*))
      (fields
        (field (name Reference) J)
        (field (name Value) Conn_01x04))
      (pins
        (pin (num 1) (name Pin_1) (type passive))
        (pin (num 2) (name Pin_2) (type passive))
        (pin (num 3) (name Pin_3) (type passive))
        (pin (num 4) (name Pin_4) (type passive))))
    (libpart (lib Device) (part D)
      (description Diode)
      (docs ~)
      (footprints
        (fp TO-???*)
        (fp *_Diode_*)
        (fp *SingleDiode*)
        (fp D_*))
      (fields
        (field (name Reference) D)
        (field (name Value) D))
      (pins
        (pin (num 1) (name K) (type passive))
        (pin (num 2) (name A) (type passive))))
    (libpart (lib Device) (part R)
      (description Resistor)
      (docs ~)
      (footprints
        (fp R_*))
      (fields
        (field (name Reference) R)
        (field (name Value) R))
      (pins
        (pin (num 1) (name ~) (type passive))
        (pin (num 2) (name ~) (type passive))))
    (libpart (lib myParts) (part ASSR-1611-100E)
      (footprints
        (fp DIP-6))
      (fields
        (field (name Reference) U)
        (field (name Value) ASSR-1611-100E)
        (field (name Footprint) Housings_DIP:DIP-6_W7.62mm))
      (pins
        (pin (num 1) (name ~) (type passive))
        (pin (num 2) (name ~) (type passive))
        (pin (num 3) (name ~) (type NotConnected))
        (pin (num 4) (name ~) (type passive))
        (pin (num 5) (name ~) (type passive))
        (pin (num 6) (name ~) (type passive)))))
  (libraries
    (library (logical Connector_Generic)
      (uri "/Library/Application Support/kicad/library/Connector_Generic.lib"))
    (library (logical Device)
      (uri "/Library/Application Support/kicad/library/Device.lib"))
    (library (logical myParts)
      (uri /Applications/KiCad/myParts.lib)))
  (nets
    (net (code 1) (name digital_signal)
      (node (ref U1) (pin 1))
      (node (ref J1) (pin 4)))
    (net (code 2) (name "Net-(U1-Pad3)")
      (node (ref U1) (pin 3)))
    (net (code 3) (name "Net-(U1-Pad4)")
      (node (ref U1) (pin 4)))
    (net (code 4) (name "Net-(R2-Pad2)")
      (node (ref U1) (pin 5))
      (node (ref R2) (pin 2))
      (node (ref R3) (pin 2))
      (node (ref conn_sol_1) (pin 1)))
    (net (code 5) (name "Net-(D1-Pad1)")
      (node (ref R3) (pin 1))
      (node (ref D1) (pin 1)))
    (net (code 6) (name "Net-(R2-Pad1)")
      (node (ref R2) (pin 1))
      (node (ref conn_LED_1) (pin 1)))
    (net (code 7) (name 24V_DC_HOT)
      (node (ref J1) (pin 2))
      (node (ref U1) (pin 6)))
    (net (code 8) (name 24V_DC_GND)
      (node (ref conn_sol_1) (pin 2))
      (node (ref D1) (pin 2))
      (node (ref J1) (pin 1))
      (node (ref conn_stab_2) (pin 2))
      (node (ref conn_stab_2) (pin 1))
      (node (ref conn_LED_1) (pin 2))
      (node (ref conn_stab_1) (pin 2))
      (node (ref conn_stab_1) (pin 1)))
    (net (code 9) (name digital_ground)
      (node (ref J1) (pin 3))
      (node (ref R1) (pin 1)))
    (net (code 10) (name "Net-(R1-Pad2)")
      (node (ref U1) (pin 2))
      (node (ref R1) (pin 2)))))