(export (version D)
  (design
    (source "/Users/Augustin/OneDrive - Nexus365/Oxford/ALD/ALD_electronics_V2-0/MFC_interfaceBoard/MFC_interfaceBoard.sch")
    (date "Friday, 22 January 2021 at 02:05:06 pm")
    (tool "Eeschema (5.1.5-0)")
    (sheet (number 1) (name /) (tstamps /)
      (title_block
        (title)
        (company)
        (rev)
        (date)
        (source MFC_interfaceBoard.sch)
        (comment (number 1) (value ""))
        (comment (number 2) (value ""))
        (comment (number 3) (value ""))
        (comment (number 4) (value "")))))
  (components
    (comp (ref C1)
      (value C)
      (footprint Capacitors_SMD:C_2220)
      (libsource (lib Device) (part C) (description "Unpolarized capacitor"))
      (sheetpath (names /) (tstamps /))
      (tstamp 5E2B1E75))
    (comp (ref R1)
      (value R)
      (footprint Resistors_SMD:R_2512)
      (libsource (lib Device) (part R) (description Resistor))
      (sheetpath (names /) (tstamps /))
      (tstamp 5E2B1EE0))
    (comp (ref J2)
      (value RJ45)
      (footprint Connectors:RJ45_8)
      (datasheet ~)
      (libsource (lib Connector) (part RJ45) (description "RJ connector, 8P8C (8 positions 8 connected)"))
      (sheetpath (names /) (tstamps /))
      (tstamp 5E3718D8))
    (comp (ref H1)
      (value MountingHole_Pad)
      (footprint Mounting_Holes:MountingHole_3.2mm_M3_Pad_Via)
      (datasheet ~)
      (libsource (lib Mechanical) (part MountingHole_Pad) (description "Mounting Hole with connection"))
      (sheetpath (names /) (tstamps /))
      (tstamp 5E373D6B))
    (comp (ref H2)
      (value MountingHole_Pad)
      (footprint Mounting_Holes:MountingHole_3.2mm_M3_Pad_Via)
      (datasheet ~)
      (libsource (lib Mechanical) (part MountingHole_Pad) (description "Mounting Hole with connection"))
      (sheetpath (names /) (tstamps /))
      (tstamp 5E374233))
    (comp (ref H3)
      (value MountingHole_Pad)
      (footprint Mounting_Holes:MountingHole_3.2mm_M3_Pad_Via)
      (datasheet ~)
      (libsource (lib Mechanical) (part MountingHole_Pad) (description "Mounting Hole with connection"))
      (sheetpath (names /) (tstamps /))
      (tstamp 5E374747))
    (comp (ref H4)
      (value MountingHole_Pad)
      (footprint Mounting_Holes:MountingHole_3.2mm_M3_Pad_Via)
      (datasheet ~)
      (libsource (lib Mechanical) (part MountingHole_Pad) (description "Mounting Hole with connection"))
      (sheetpath (names /) (tstamps /))
      (tstamp 5E374A1C))
    (comp (ref J1)
      (value Conn_01x10)
      (footprint Pin_Headers:Pin_Header_Angled_1x10_Pitch2.54mm)
      (datasheet ~)
      (libsource (lib Connector_Generic) (part Conn_01x10) (description "Generic connector, single row, 01x10, script generated (kicad-library-utils/schlib/autogen/connector/)"))
      (sheetpath (names /) (tstamps /))
      (tstamp 5E375346))
    (comp (ref R3)
      (value 1KR)
      (footprint Resistors_SMD:R_2512)
      (datasheet ~)
      (libsource (lib Device) (part R) (description Resistor))
      (sheetpath (names /) (tstamps /))
      (tstamp 5E37738E))
    (comp (ref R2)
      (value 1KR)
      (footprint Resistors_SMD:R_2512)
      (datasheet ~)
      (libsource (lib Device) (part R) (description Resistor))
      (sheetpath (names /) (tstamps /))
      (tstamp 5E37876B))
    (comp (ref SW1)
      (value SW_DIP_x02)
      (footprint Buttons_Switches_THT:SW_DIP_x2_W7.62mm_Slide)
      (datasheet ~)
      (libsource (lib Switch) (part SW_DIP_x02) (description "2x DIP Switch, Single Pole Single Throw (SPST) switch, small symbol"))
      (sheetpath (names /) (tstamps /))
      (tstamp 5E379693))
    (comp (ref SW2)
      (value SW_DIP_x02)
      (footprint Buttons_Switches_THT:SW_DIP_x2_W7.62mm_Slide)
      (datasheet ~)
      (libsource (lib Switch) (part SW_DIP_x02) (description "2x DIP Switch, Single Pole Single Throw (SPST) switch, small symbol"))
      (sheetpath (names /) (tstamps /))
      (tstamp 5E39289C))
    (comp (ref R4)
      (value 10KR)
      (footprint Resistors_SMD:R_2512)
      (datasheet ~)
      (libsource (lib Device) (part R) (description Resistor))
      (sheetpath (names /) (tstamps /))
      (tstamp 5E3994F3))
    (comp (ref R5)
      (value 10KR)
      (footprint Resistors_SMD:R_2512)
      (datasheet ~)
      (libsource (lib Device) (part R) (description Resistor))
      (sheetpath (names /) (tstamps /))
      (tstamp 5E39BA5C))
    (comp (ref U1)
      (value AD8603)
      (footprint myParts:AD_8603_op_amp)
      (datasheet https://www.analog.com/media/en/technical-documentation/data-sheets/AD8603_8607_8609.pdf)
      (libsource (lib Amplifier_Operational) (part AD8603) (description "Precision Micropower, Low Noise CMOS, Rail-to-Rail Input/Output Operational Amplifier, TSOT-23-5"))
      (sheetpath (names /) (tstamps /))
      (tstamp 5E3AB14D)))
  (libparts
    (libpart (lib Amplifier_Operational) (part AD8603)
      (aliases
        (alias OPA188xxDBV))
      (description "Precision Micropower, Low Noise CMOS, Rail-to-Rail Input/Output Operational Amplifier, TSOT-23-5")
      (docs https://www.analog.com/media/en/technical-documentation/data-sheets/AD8603_8607_8609.pdf)
      (footprints
        (fp TSOT*23*))
      (fields
        (field (name Reference) U)
        (field (name Value) AD8603)
        (field (name Footprint) Package_TO_SOT_SMD:TSOT-23-5))
      (pins
        (pin (num 1) (name ~) (type output))
        (pin (num 2) (name V-) (type power_in))
        (pin (num 3) (name +) (type input))
        (pin (num 4) (name -) (type input))
        (pin (num 5) (name V+) (type power_in))))
    (libpart (lib Connector) (part 8P8C)
      (aliases
        (alias RJ31)
        (alias RJ32)
        (alias RJ33)
        (alias RJ34)
        (alias RJ35)
        (alias RJ41)
        (alias RJ45)
        (alias RJ49)
        (alias RJ61))
      (description "RJ connector, 8P8C (8 positions 8 connected), RJ31/RJ32/RJ33/RJ34/RJ35/RJ41/RJ45/RJ49/RJ61")
      (docs ~)
      (footprints
        (fp 8P8C*)
        (fp RJ31*)
        (fp RJ32*)
        (fp RJ33*)
        (fp RJ34*)
        (fp RJ35*)
        (fp RJ41*)
        (fp RJ45*)
        (fp RJ49*)
        (fp RJ61*))
      (fields
        (field (name Reference) J)
        (field (name Value) 8P8C))
      (pins
        (pin (num 1) (name ~) (type passive))
        (pin (num 2) (name ~) (type passive))
        (pin (num 3) (name ~) (type passive))
        (pin (num 4) (name ~) (type passive))
        (pin (num 5) (name ~) (type passive))
        (pin (num 6) (name ~) (type passive))
        (pin (num 7) (name ~) (type passive))
        (pin (num 8) (name ~) (type passive))))
    (libpart (lib Connector_Generic) (part Conn_01x10)
      (description "Generic connector, single row, 01x10, script generated (kicad-library-utils/schlib/autogen/connector/)")
      (docs ~)
      (footprints
        (fp Connector*:*_1x??_*))
      (fields
        (field (name Reference) J)
        (field (name Value) Conn_01x10))
      (pins
        (pin (num 1) (name Pin_1) (type passive))
        (pin (num 2) (name Pin_2) (type passive))
        (pin (num 3) (name Pin_3) (type passive))
        (pin (num 4) (name Pin_4) (type passive))
        (pin (num 5) (name Pin_5) (type passive))
        (pin (num 6) (name Pin_6) (type passive))
        (pin (num 7) (name Pin_7) (type passive))
        (pin (num 8) (name Pin_8) (type passive))
        (pin (num 9) (name Pin_9) (type passive))
        (pin (num 10) (name Pin_10) (type passive))))
    (libpart (lib Device) (part C)
      (description "Unpolarized capacitor")
      (docs ~)
      (footprints
        (fp C_*))
      (fields
        (field (name Reference) C)
        (field (name Value) C))
      (pins
        (pin (num 1) (name ~) (type passive))
        (pin (num 2) (name ~) (type passive))))
    (libpart (lib Device) (part R)
      (description Resistor)
      (docs ~)
      (footprints
        (fp R_*))
      (fields
        (field (name Reference) R)
        (field (name Value) R))
      (pins
        (pin (num 1) (name ~) (type passive))
        (pin (num 2) (name ~) (type passive))))
    (libpart (lib Mechanical) (part MountingHole_Pad)
      (description "Mounting Hole with connection")
      (docs ~)
      (footprints
        (fp MountingHole*Pad*))
      (fields
        (field (name Reference) H)
        (field (name Value) MountingHole_Pad))
      (pins
        (pin (num 1) (name 1) (type input))))
    (libpart (lib Switch) (part SW_DIP_x02)
      (description "2x DIP Switch, Single Pole Single Throw (SPST) switch, small symbol")
      (docs ~)
      (footprints
        (fp SW?DIP?x2*))
      (fields
        (field (name Reference) SW)
        (field (name Value) SW_DIP_x02))
      (pins
        (pin (num 1) (name ~) (type passive))
        (pin (num 2) (name ~) (type passive))
        (pin (num 3) (name ~) (type passive))
        (pin (num 4) (name ~) (type passive)))))
  (libraries
    (library (logical Amplifier_Operational)
      (uri "/Library/Application Support/kicad/library/Amplifier_Operational.lib"))
    (library (logical Connector)
      (uri "/Library/Application Support/kicad/library/Connector.lib"))
    (library (logical Connector_Generic)
      (uri "/Library/Application Support/kicad/library/Connector_Generic.lib"))
    (library (logical Device)
      (uri "/Library/Application Support/kicad/library/Device.lib"))
    (library (logical Mechanical)
      (uri "/Library/Application Support/kicad/library/Mechanical.lib"))
    (library (logical Switch)
      (uri "/Library/Application Support/kicad/library/Switch.lib")))
  (nets
    (net (code 1) (name "Net-(C1-Pad2)")
      (node (ref C1) (pin 2))
      (node (ref R1) (pin 1))
      (node (ref U1) (pin 3))
      (node (ref SW2) (pin 1)))
    (net (code 2) (name pwm_signal)
      (node (ref J1) (pin 3))
      (node (ref R1) (pin 2)))
    (net (code 3) (name mfc_analog_signal)
      (node (ref J2) (pin 6))
      (node (ref SW1) (pin 3))
      (node (ref R3) (pin 1)))
    (net (code 4) (name "Net-(J2-Pad7)")
      (node (ref J2) (pin 7)))
    (net (code 5) (name "Net-(J2-Pad8)")
      (node (ref J2) (pin 8)))
    (net (code 6) (name analog_signal)
      (node (ref J1) (pin 1))
      (node (ref SW1) (pin 2))
      (node (ref SW1) (pin 1)))
    (net (code 7) (name serial_TX)
      (node (ref J2) (pin 2))
      (node (ref J1) (pin 5)))
    (net (code 8) (name serial_RX)
      (node (ref J2) (pin 3))
      (node (ref J1) (pin 6)))
    (net (code 9) (name 24V_DC_GND)
      (node (ref R2) (pin 2))
      (node (ref R4) (pin 2))
      (node (ref J1) (pin 8))
      (node (ref J1) (pin 7))
      (node (ref J1) (pin 4))
      (node (ref J1) (pin 2))
      (node (ref C1) (pin 1))
      (node (ref H4) (pin 1))
      (node (ref H3) (pin 1))
      (node (ref U1) (pin 2))
      (node (ref H2) (pin 1))
      (node (ref H1) (pin 1))
      (node (ref J2) (pin 5)))
    (net (code 10) (name 24V_DC_HOT)
      (node (ref J2) (pin 1))
      (node (ref U1) (pin 5))
      (node (ref J1) (pin 10))
      (node (ref J1) (pin 9)))
    (net (code 11) (name "Net-(R2-Pad1)")
      (node (ref SW1) (pin 4))
      (node (ref R3) (pin 2))
      (node (ref R2) (pin 1)))
    (net (code 12) (name "Net-(R5-Pad2)")
      (node (ref SW2) (pin 2))
      (node (ref R5) (pin 2))
      (node (ref U1) (pin 1)))
    (net (code 13) (name mfc_analog_setPoint)
      (node (ref SW2) (pin 4))
      (node (ref SW2) (pin 3))
      (node (ref J2) (pin 4)))
    (net (code 14) (name "Net-(R4-Pad1)")
      (node (ref R4) (pin 1))
      (node (ref R5) (pin 1))
      (node (ref U1) (pin 4)))))