G04 #@! TF.GenerationSoftware,KiCad,Pcbnew,(5.1.5-0)*
G04 #@! TF.CreationDate,2020-02-11T14:35:12+00:00*
G04 #@! TF.ProjectId,gaugeInterfaceBoard,67617567-6549-46e7-9465-726661636542,rev?*
G04 #@! TF.SameCoordinates,Original*
G04 #@! TF.FileFunction,Profile,NP*
%FSLAX46Y46*%
G04 Gerber Fmt 4.6, Leading zero omitted, Abs format (unit mm)*
G04 Created by KiCad (PCBNEW (5.1.5-0)) date 2020-02-11 14:35:12*
%MOMM*%
%LPD*%
G04 APERTURE LIST*
%ADD10C,0.100000*%
%ADD11C,0.150000*%
G04 APERTURE END LIST*
D10*
X40000000Y-87000000D02*
X40000000Y-33000000D01*
D11*
X80000000Y-87000000D02*
G75*
G02X77000000Y-90000000I-3000000J0D01*
G01*
X43000000Y-90000000D02*
G75*
G02X40000000Y-87000000I0J3000000D01*
G01*
X40000000Y-33000000D02*
G75*
G02X43000000Y-30000000I3000000J0D01*
G01*
X77000000Y-30000000D02*
G75*
G02X80000000Y-33000000I0J-3000000D01*
G01*
D10*
X80000000Y-33000000D02*
X80000000Y-87000000D01*
X43000000Y-30000000D02*
X77000000Y-30000000D01*
X77000000Y-90000000D02*
X43000000Y-90000000D01*
M02*
