G04 #@! TF.GenerationSoftware,KiCad,Pcbnew,(5.1.5-0)*
G04 #@! TF.CreationDate,2020-02-11T14:35:12+00:00*
G04 #@! TF.ProjectId,gaugeInterfaceBoard,67617567-6549-46e7-9465-726661636542,rev?*
G04 #@! TF.SameCoordinates,Original*
G04 #@! TF.FileFunction,Copper,L2,Bot*
G04 #@! TF.FilePolarity,Positive*
%FSLAX46Y46*%
G04 Gerber Fmt 4.6, Leading zero omitted, Abs format (unit mm)*
G04 Created by KiCad (PCBNEW (5.1.5-0)) date 2020-02-11 14:35:12*
%MOMM*%
%LPD*%
G04 APERTURE LIST*
%ADD10C,0.200000*%
%ADD11C,6.400000*%
%ADD12C,0.800000*%
%ADD13C,3.650000*%
%ADD14R,1.500000X1.500000*%
%ADD15C,1.500000*%
%ADD16R,1.600000X1.600000*%
%ADD17O,1.600000X1.600000*%
%ADD18C,1.600000*%
%ADD19R,1.250000X1.250000*%
%ADD20C,1.250000*%
%ADD21R,1.700000X1.700000*%
%ADD22O,1.700000X1.700000*%
%ADD23C,0.600000*%
%ADD24C,0.500000*%
%ADD25C,0.254000*%
G04 APERTURE END LIST*
D10*
X66357142Y-46466666D02*
X65880952Y-46466666D01*
X66452380Y-46752380D02*
X66119047Y-45752380D01*
X65785714Y-46752380D01*
X65023809Y-46085714D02*
X65023809Y-46752380D01*
X65452380Y-46085714D02*
X65452380Y-46609523D01*
X65404761Y-46704761D01*
X65309523Y-46752380D01*
X65166666Y-46752380D01*
X65071428Y-46704761D01*
X65023809Y-46657142D01*
X64119047Y-46085714D02*
X64119047Y-46895238D01*
X64166666Y-46990476D01*
X64214285Y-47038095D01*
X64309523Y-47085714D01*
X64452380Y-47085714D01*
X64547619Y-47038095D01*
X64119047Y-46704761D02*
X64214285Y-46752380D01*
X64404761Y-46752380D01*
X64500000Y-46704761D01*
X64547619Y-46657142D01*
X64595238Y-46561904D01*
X64595238Y-46276190D01*
X64547619Y-46180952D01*
X64500000Y-46133333D01*
X64404761Y-46085714D01*
X64214285Y-46085714D01*
X64119047Y-46133333D01*
X63214285Y-46085714D02*
X63214285Y-46752380D01*
X63642857Y-46085714D02*
X63642857Y-46609523D01*
X63595238Y-46704761D01*
X63500000Y-46752380D01*
X63357142Y-46752380D01*
X63261904Y-46704761D01*
X63214285Y-46657142D01*
X62785714Y-46704761D02*
X62690476Y-46752380D01*
X62500000Y-46752380D01*
X62404761Y-46704761D01*
X62357142Y-46609523D01*
X62357142Y-46561904D01*
X62404761Y-46466666D01*
X62500000Y-46419047D01*
X62642857Y-46419047D01*
X62738095Y-46371428D01*
X62785714Y-46276190D01*
X62785714Y-46228571D01*
X62738095Y-46133333D01*
X62642857Y-46085714D01*
X62500000Y-46085714D01*
X62404761Y-46133333D01*
X62071428Y-46085714D02*
X61690476Y-46085714D01*
X61928571Y-45752380D02*
X61928571Y-46609523D01*
X61880952Y-46704761D01*
X61785714Y-46752380D01*
X61690476Y-46752380D01*
X61357142Y-46752380D02*
X61357142Y-46085714D01*
X61357142Y-45752380D02*
X61404761Y-45800000D01*
X61357142Y-45847619D01*
X61309523Y-45800000D01*
X61357142Y-45752380D01*
X61357142Y-45847619D01*
X60880952Y-46085714D02*
X60880952Y-46752380D01*
X60880952Y-46180952D02*
X60833333Y-46133333D01*
X60738095Y-46085714D01*
X60595238Y-46085714D01*
X60500000Y-46133333D01*
X60452380Y-46228571D01*
X60452380Y-46752380D01*
X59309523Y-45752380D02*
X58642857Y-45752380D01*
X59309523Y-46752380D01*
X58642857Y-46752380D01*
X57833333Y-46752380D02*
X57833333Y-46228571D01*
X57880952Y-46133333D01*
X57976190Y-46085714D01*
X58166666Y-46085714D01*
X58261904Y-46133333D01*
X57833333Y-46704761D02*
X57928571Y-46752380D01*
X58166666Y-46752380D01*
X58261904Y-46704761D01*
X58309523Y-46609523D01*
X58309523Y-46514285D01*
X58261904Y-46419047D01*
X58166666Y-46371428D01*
X57928571Y-46371428D01*
X57833333Y-46323809D01*
X57357142Y-46752380D02*
X57357142Y-46085714D01*
X57357142Y-45752380D02*
X57404761Y-45800000D01*
X57357142Y-45847619D01*
X57309523Y-45800000D01*
X57357142Y-45752380D01*
X57357142Y-45847619D01*
X56880952Y-46085714D02*
X56880952Y-46752380D01*
X56880952Y-46180952D02*
X56833333Y-46133333D01*
X56738095Y-46085714D01*
X56595238Y-46085714D01*
X56500000Y-46133333D01*
X56452380Y-46228571D01*
X56452380Y-46752380D01*
X55976190Y-46752380D02*
X55976190Y-46085714D01*
X55976190Y-45752380D02*
X56023809Y-45800000D01*
X55976190Y-45847619D01*
X55928571Y-45800000D01*
X55976190Y-45752380D01*
X55976190Y-45847619D01*
X55500000Y-46085714D02*
X55500000Y-46752380D01*
X55500000Y-46180952D02*
X55452380Y-46133333D01*
X55357142Y-46085714D01*
X55214285Y-46085714D01*
X55119047Y-46133333D01*
X55071428Y-46228571D01*
X55071428Y-46752380D01*
X54166666Y-46085714D02*
X54166666Y-46895238D01*
X54214285Y-46990476D01*
X54261904Y-47038095D01*
X54357142Y-47085714D01*
X54500000Y-47085714D01*
X54595238Y-47038095D01*
X54166666Y-46704761D02*
X54261904Y-46752380D01*
X54452380Y-46752380D01*
X54547619Y-46704761D01*
X54595238Y-46657142D01*
X54642857Y-46561904D01*
X54642857Y-46276190D01*
X54595238Y-46180952D01*
X54547619Y-46133333D01*
X54452380Y-46085714D01*
X54261904Y-46085714D01*
X54166666Y-46133333D01*
X53309523Y-46704761D02*
X53404761Y-46752380D01*
X53595238Y-46752380D01*
X53690476Y-46704761D01*
X53738095Y-46609523D01*
X53738095Y-46228571D01*
X53690476Y-46133333D01*
X53595238Y-46085714D01*
X53404761Y-46085714D01*
X53309523Y-46133333D01*
X53261904Y-46228571D01*
X53261904Y-46323809D01*
X53738095Y-46419047D01*
X52833333Y-46752380D02*
X52833333Y-46085714D01*
X52833333Y-46276190D02*
X52785714Y-46180952D01*
X52738095Y-46133333D01*
X52642857Y-46085714D01*
X52547619Y-46085714D01*
X66333333Y-48452380D02*
X66333333Y-47928571D01*
X66380952Y-47833333D01*
X66476190Y-47785714D01*
X66666666Y-47785714D01*
X66761904Y-47833333D01*
X66333333Y-48404761D02*
X66428571Y-48452380D01*
X66666666Y-48452380D01*
X66761904Y-48404761D01*
X66809523Y-48309523D01*
X66809523Y-48214285D01*
X66761904Y-48119047D01*
X66666666Y-48071428D01*
X66428571Y-48071428D01*
X66333333Y-48023809D01*
X65428571Y-47785714D02*
X65428571Y-48452380D01*
X65857142Y-47785714D02*
X65857142Y-48309523D01*
X65809523Y-48404761D01*
X65714285Y-48452380D01*
X65571428Y-48452380D01*
X65476190Y-48404761D01*
X65428571Y-48357142D01*
X64523809Y-47785714D02*
X64523809Y-48595238D01*
X64571428Y-48690476D01*
X64619047Y-48738095D01*
X64714285Y-48785714D01*
X64857142Y-48785714D01*
X64952380Y-48738095D01*
X64523809Y-48404761D02*
X64619047Y-48452380D01*
X64809523Y-48452380D01*
X64904761Y-48404761D01*
X64952380Y-48357142D01*
X65000000Y-48261904D01*
X65000000Y-47976190D01*
X64952380Y-47880952D01*
X64904761Y-47833333D01*
X64809523Y-47785714D01*
X64619047Y-47785714D01*
X64523809Y-47833333D01*
X63619047Y-47785714D02*
X63619047Y-48452380D01*
X64047619Y-47785714D02*
X64047619Y-48309523D01*
X64000000Y-48404761D01*
X63904761Y-48452380D01*
X63761904Y-48452380D01*
X63666666Y-48404761D01*
X63619047Y-48357142D01*
X63190476Y-48404761D02*
X63095238Y-48452380D01*
X62904761Y-48452380D01*
X62809523Y-48404761D01*
X62761904Y-48309523D01*
X62761904Y-48261904D01*
X62809523Y-48166666D01*
X62904761Y-48119047D01*
X63047619Y-48119047D01*
X63142857Y-48071428D01*
X63190476Y-47976190D01*
X63190476Y-47928571D01*
X63142857Y-47833333D01*
X63047619Y-47785714D01*
X62904761Y-47785714D01*
X62809523Y-47833333D01*
X62476190Y-47785714D02*
X62095238Y-47785714D01*
X62333333Y-47452380D02*
X62333333Y-48309523D01*
X62285714Y-48404761D01*
X62190476Y-48452380D01*
X62095238Y-48452380D01*
X61761904Y-48452380D02*
X61761904Y-47785714D01*
X61761904Y-47452380D02*
X61809523Y-47500000D01*
X61761904Y-47547619D01*
X61714285Y-47500000D01*
X61761904Y-47452380D01*
X61761904Y-47547619D01*
X61285714Y-47785714D02*
X61285714Y-48452380D01*
X61285714Y-47880952D02*
X61238095Y-47833333D01*
X61142857Y-47785714D01*
X61000000Y-47785714D01*
X60904761Y-47833333D01*
X60857142Y-47928571D01*
X60857142Y-48452380D01*
X60380952Y-48357142D02*
X60333333Y-48404761D01*
X60380952Y-48452380D01*
X60428571Y-48404761D01*
X60380952Y-48357142D01*
X60380952Y-48452380D01*
X60000000Y-47785714D02*
X59476190Y-47785714D01*
X60000000Y-48452380D01*
X59476190Y-48452380D01*
X58666666Y-48452380D02*
X58666666Y-47928571D01*
X58714285Y-47833333D01*
X58809523Y-47785714D01*
X59000000Y-47785714D01*
X59095238Y-47833333D01*
X58666666Y-48404761D02*
X58761904Y-48452380D01*
X59000000Y-48452380D01*
X59095238Y-48404761D01*
X59142857Y-48309523D01*
X59142857Y-48214285D01*
X59095238Y-48119047D01*
X59000000Y-48071428D01*
X58761904Y-48071428D01*
X58666666Y-48023809D01*
X58190476Y-48452380D02*
X58190476Y-47785714D01*
X58190476Y-47452380D02*
X58238095Y-47500000D01*
X58190476Y-47547619D01*
X58142857Y-47500000D01*
X58190476Y-47452380D01*
X58190476Y-47547619D01*
X57714285Y-47785714D02*
X57714285Y-48452380D01*
X57714285Y-47880952D02*
X57666666Y-47833333D01*
X57571428Y-47785714D01*
X57428571Y-47785714D01*
X57333333Y-47833333D01*
X57285714Y-47928571D01*
X57285714Y-48452380D01*
X56809523Y-48452380D02*
X56809523Y-47785714D01*
X56809523Y-47452380D02*
X56857142Y-47500000D01*
X56809523Y-47547619D01*
X56761904Y-47500000D01*
X56809523Y-47452380D01*
X56809523Y-47547619D01*
X56333333Y-47785714D02*
X56333333Y-48452380D01*
X56333333Y-47880952D02*
X56285714Y-47833333D01*
X56190476Y-47785714D01*
X56047619Y-47785714D01*
X55952380Y-47833333D01*
X55904761Y-47928571D01*
X55904761Y-48452380D01*
X55000000Y-47785714D02*
X55000000Y-48595238D01*
X55047619Y-48690476D01*
X55095238Y-48738095D01*
X55190476Y-48785714D01*
X55333333Y-48785714D01*
X55428571Y-48738095D01*
X55000000Y-48404761D02*
X55095238Y-48452380D01*
X55285714Y-48452380D01*
X55380952Y-48404761D01*
X55428571Y-48357142D01*
X55476190Y-48261904D01*
X55476190Y-47976190D01*
X55428571Y-47880952D01*
X55380952Y-47833333D01*
X55285714Y-47785714D01*
X55095238Y-47785714D01*
X55000000Y-47833333D01*
X54142857Y-48404761D02*
X54238095Y-48452380D01*
X54428571Y-48452380D01*
X54523809Y-48404761D01*
X54571428Y-48309523D01*
X54571428Y-47928571D01*
X54523809Y-47833333D01*
X54428571Y-47785714D01*
X54238095Y-47785714D01*
X54142857Y-47833333D01*
X54095238Y-47928571D01*
X54095238Y-48023809D01*
X54571428Y-48119047D01*
X53666666Y-48452380D02*
X53666666Y-47785714D01*
X53666666Y-47976190D02*
X53619047Y-47880952D01*
X53571428Y-47833333D01*
X53476190Y-47785714D01*
X53380952Y-47785714D01*
X52428571Y-47976190D02*
X52476190Y-47928571D01*
X52571428Y-47880952D01*
X52666666Y-47880952D01*
X52761904Y-47928571D01*
X52809523Y-47976190D01*
X52857142Y-48071428D01*
X52857142Y-48166666D01*
X52809523Y-48261904D01*
X52761904Y-48309523D01*
X52666666Y-48357142D01*
X52571428Y-48357142D01*
X52476190Y-48309523D01*
X52428571Y-48261904D01*
X52428571Y-47880952D02*
X52428571Y-48261904D01*
X52380952Y-48309523D01*
X52333333Y-48309523D01*
X52238095Y-48261904D01*
X52190476Y-48166666D01*
X52190476Y-47928571D01*
X52285714Y-47785714D01*
X52428571Y-47690476D01*
X52619047Y-47642857D01*
X52809523Y-47690476D01*
X52952380Y-47785714D01*
X53047619Y-47928571D01*
X53095238Y-48119047D01*
X53047619Y-48309523D01*
X52952380Y-48452380D01*
X52809523Y-48547619D01*
X52619047Y-48595238D01*
X52428571Y-48547619D01*
X52285714Y-48452380D01*
X65333333Y-49485714D02*
X65333333Y-50485714D01*
X65333333Y-49533333D02*
X65238095Y-49485714D01*
X65047619Y-49485714D01*
X64952380Y-49533333D01*
X64904761Y-49580952D01*
X64857142Y-49676190D01*
X64857142Y-49961904D01*
X64904761Y-50057142D01*
X64952380Y-50104761D01*
X65047619Y-50152380D01*
X65238095Y-50152380D01*
X65333333Y-50104761D01*
X64428571Y-50152380D02*
X64428571Y-49152380D01*
X64000000Y-50152380D02*
X64000000Y-49628571D01*
X64047619Y-49533333D01*
X64142857Y-49485714D01*
X64285714Y-49485714D01*
X64380952Y-49533333D01*
X64428571Y-49580952D01*
X63619047Y-49485714D02*
X63380952Y-50152380D01*
X63142857Y-49485714D02*
X63380952Y-50152380D01*
X63476190Y-50390476D01*
X63523809Y-50438095D01*
X63619047Y-50485714D01*
X62809523Y-50104761D02*
X62714285Y-50152380D01*
X62523809Y-50152380D01*
X62428571Y-50104761D01*
X62380952Y-50009523D01*
X62380952Y-49961904D01*
X62428571Y-49866666D01*
X62523809Y-49819047D01*
X62666666Y-49819047D01*
X62761904Y-49771428D01*
X62809523Y-49676190D01*
X62809523Y-49628571D01*
X62761904Y-49533333D01*
X62666666Y-49485714D01*
X62523809Y-49485714D01*
X62428571Y-49533333D01*
X61952380Y-50152380D02*
X61952380Y-49485714D01*
X61952380Y-49152380D02*
X62000000Y-49200000D01*
X61952380Y-49247619D01*
X61904761Y-49200000D01*
X61952380Y-49152380D01*
X61952380Y-49247619D01*
X61047619Y-50104761D02*
X61142857Y-50152380D01*
X61333333Y-50152380D01*
X61428571Y-50104761D01*
X61476190Y-50057142D01*
X61523809Y-49961904D01*
X61523809Y-49676190D01*
X61476190Y-49580952D01*
X61428571Y-49533333D01*
X61333333Y-49485714D01*
X61142857Y-49485714D01*
X61047619Y-49533333D01*
X60666666Y-50104761D02*
X60571428Y-50152380D01*
X60380952Y-50152380D01*
X60285714Y-50104761D01*
X60238095Y-50009523D01*
X60238095Y-49961904D01*
X60285714Y-49866666D01*
X60380952Y-49819047D01*
X60523809Y-49819047D01*
X60619047Y-49771428D01*
X60666666Y-49676190D01*
X60666666Y-49628571D01*
X60619047Y-49533333D01*
X60523809Y-49485714D01*
X60380952Y-49485714D01*
X60285714Y-49533333D01*
X59809523Y-50057142D02*
X59761904Y-50104761D01*
X59809523Y-50152380D01*
X59857142Y-50104761D01*
X59809523Y-50057142D01*
X59809523Y-50152380D01*
X59190476Y-50152380D02*
X59285714Y-50104761D01*
X59333333Y-50057142D01*
X59380952Y-49961904D01*
X59380952Y-49676190D01*
X59333333Y-49580952D01*
X59285714Y-49533333D01*
X59190476Y-49485714D01*
X59047619Y-49485714D01*
X58952380Y-49533333D01*
X58904761Y-49580952D01*
X58857142Y-49676190D01*
X58857142Y-49961904D01*
X58904761Y-50057142D01*
X58952380Y-50104761D01*
X59047619Y-50152380D01*
X59190476Y-50152380D01*
X58523809Y-50152380D02*
X58000000Y-49485714D01*
X58523809Y-49485714D02*
X58000000Y-50152380D01*
X57619047Y-50057142D02*
X57571428Y-50104761D01*
X57619047Y-50152380D01*
X57666666Y-50104761D01*
X57619047Y-50057142D01*
X57619047Y-50152380D01*
X56714285Y-50152380D02*
X56714285Y-49628571D01*
X56761904Y-49533333D01*
X56857142Y-49485714D01*
X57047619Y-49485714D01*
X57142857Y-49533333D01*
X56714285Y-50104761D02*
X56809523Y-50152380D01*
X57047619Y-50152380D01*
X57142857Y-50104761D01*
X57190476Y-50009523D01*
X57190476Y-49914285D01*
X57142857Y-49819047D01*
X57047619Y-49771428D01*
X56809523Y-49771428D01*
X56714285Y-49723809D01*
X55809523Y-50104761D02*
X55904761Y-50152380D01*
X56095238Y-50152380D01*
X56190476Y-50104761D01*
X56238095Y-50057142D01*
X56285714Y-49961904D01*
X56285714Y-49676190D01*
X56238095Y-49580952D01*
X56190476Y-49533333D01*
X56095238Y-49485714D01*
X55904761Y-49485714D01*
X55809523Y-49533333D01*
X55380952Y-50057142D02*
X55333333Y-50104761D01*
X55380952Y-50152380D01*
X55428571Y-50104761D01*
X55380952Y-50057142D01*
X55380952Y-50152380D01*
X54476190Y-49485714D02*
X54476190Y-50152380D01*
X54904761Y-49485714D02*
X54904761Y-50009523D01*
X54857142Y-50104761D01*
X54761904Y-50152380D01*
X54619047Y-50152380D01*
X54523809Y-50104761D01*
X54476190Y-50057142D01*
X54000000Y-50152380D02*
X54000000Y-49152380D01*
X53904761Y-49771428D02*
X53619047Y-50152380D01*
X53619047Y-49485714D02*
X54000000Y-49866666D01*
D11*
X44000000Y-86000000D03*
D12*
X46400000Y-86000000D03*
X45697056Y-87697056D03*
X44000000Y-88400000D03*
X42302944Y-87697056D03*
X41600000Y-86000000D03*
X42302944Y-84302944D03*
X44000000Y-83600000D03*
X45697056Y-84302944D03*
D11*
X44000000Y-34000000D03*
D12*
X46400000Y-34000000D03*
X45697056Y-35697056D03*
X44000000Y-36400000D03*
X42302944Y-35697056D03*
X41600000Y-34000000D03*
X42302944Y-32302944D03*
X44000000Y-31600000D03*
X45697056Y-32302944D03*
D11*
X76000000Y-34000000D03*
D12*
X78400000Y-34000000D03*
X77697056Y-35697056D03*
X76000000Y-36400000D03*
X74302944Y-35697056D03*
X73600000Y-34000000D03*
X74302944Y-32302944D03*
X76000000Y-31600000D03*
X77697056Y-32302944D03*
D11*
X76000000Y-86000000D03*
D12*
X78400000Y-86000000D03*
X77697056Y-87697056D03*
X76000000Y-88400000D03*
X74302944Y-87697056D03*
X73600000Y-86000000D03*
X74302944Y-84302944D03*
X76000000Y-83600000D03*
X77697056Y-84302944D03*
D13*
X76350000Y-49620000D03*
X76350000Y-61490000D03*
D14*
X70000000Y-60000000D03*
D15*
X67460000Y-58730000D03*
X70000000Y-57460000D03*
X67460000Y-56190000D03*
X70000000Y-54920000D03*
X67460000Y-53650000D03*
X70000000Y-52380000D03*
X67460000Y-51110000D03*
D16*
X66000000Y-69500000D03*
D17*
X73620000Y-72040000D03*
X66000000Y-72040000D03*
X73620000Y-69500000D03*
D16*
X66000000Y-79000000D03*
D17*
X73620000Y-81540000D03*
X66000000Y-81540000D03*
X73620000Y-79000000D03*
D18*
X61000000Y-77500000D03*
D17*
X61000000Y-69880000D03*
D19*
X43460000Y-58810000D03*
D20*
X46000000Y-58810000D03*
X48540000Y-58810000D03*
X48540000Y-51190000D03*
X46000000Y-51190000D03*
X43460000Y-51190000D03*
D13*
X54120000Y-33650000D03*
X65990000Y-33650000D03*
D14*
X64500000Y-40000000D03*
D15*
X63230000Y-42540000D03*
X61960000Y-40000000D03*
X60690000Y-42540000D03*
X59420000Y-40000000D03*
X58150000Y-42540000D03*
X56880000Y-40000000D03*
X55610000Y-42540000D03*
D21*
X63000000Y-86000000D03*
D22*
X60460000Y-86000000D03*
X57920000Y-86000000D03*
X55380000Y-86000000D03*
X52840000Y-86000000D03*
X50300000Y-86000000D03*
D23*
X55500000Y-70500000D03*
X55500000Y-73500000D03*
X55500000Y-80000000D03*
X55610000Y-51110000D03*
X63230000Y-58730000D03*
X61960000Y-57460000D03*
X60690000Y-56190000D03*
X59420000Y-54920000D03*
X58150000Y-53650000D03*
X56880000Y-52380000D03*
X55500000Y-64000000D03*
D24*
X64540000Y-73500000D02*
X66000000Y-72040000D01*
X55500000Y-73500000D02*
X64540000Y-73500000D01*
X55500000Y-73500000D02*
X52000000Y-73500000D01*
X51000000Y-74500000D02*
X52000000Y-73500000D01*
X55500000Y-73500000D02*
X55500000Y-70500000D01*
X51000000Y-82957919D02*
X51000000Y-82000000D01*
X52840000Y-84797919D02*
X51000000Y-82957919D01*
X51000000Y-82000000D02*
X51000000Y-74500000D01*
X52840000Y-86000000D02*
X52840000Y-84797919D01*
X55500000Y-85620000D02*
X55880000Y-86000000D01*
X57920000Y-82420000D02*
X55500000Y-80000000D01*
X57920000Y-86000000D02*
X57920000Y-82420000D01*
X61000000Y-78500000D02*
X61000000Y-77500000D01*
X59500000Y-80000000D02*
X61000000Y-78500000D01*
X55500000Y-80000000D02*
X59500000Y-80000000D01*
X60460000Y-86000000D02*
X60460000Y-80540000D01*
X60460000Y-80540000D02*
X61000000Y-80000000D01*
X61000000Y-80000000D02*
X63000000Y-80000000D01*
X63000000Y-80000000D02*
X64000000Y-79000000D01*
X64000000Y-79000000D02*
X66000000Y-79000000D01*
X63000000Y-86000000D02*
X63000000Y-83000000D01*
X64460000Y-81540000D02*
X63000000Y-83000000D01*
X66000000Y-81540000D02*
X64460000Y-81540000D01*
X67460000Y-51110000D02*
X55610000Y-51110000D01*
X55610000Y-51110000D02*
X55610000Y-51110000D01*
X63230000Y-58730000D02*
X67460000Y-58730000D01*
X43460000Y-51960000D02*
X43460000Y-51190000D01*
X45000000Y-53500000D02*
X43460000Y-51960000D01*
X56000000Y-53500000D02*
X45000000Y-53500000D01*
X61230000Y-58730000D02*
X56000000Y-53500000D01*
X63230000Y-58730000D02*
X61230000Y-58730000D01*
X77000000Y-67500000D02*
X77000000Y-80480000D01*
X74500000Y-65000000D02*
X77000000Y-67500000D01*
X67500000Y-65000000D02*
X74500000Y-65000000D01*
X67460000Y-64960000D02*
X67500000Y-65000000D01*
X67460000Y-58730000D02*
X67460000Y-64960000D01*
X76739999Y-80740001D02*
X77000000Y-80480000D01*
X74419999Y-80740001D02*
X76739999Y-80740001D01*
X73620000Y-81540000D02*
X74419999Y-80740001D01*
X61960000Y-57460000D02*
X70000000Y-57460000D01*
X67460000Y-56190000D02*
X60690000Y-56190000D01*
X60690000Y-56190000D02*
X60690000Y-56190000D01*
X59420000Y-54920000D02*
X70000000Y-54920000D01*
X67460000Y-53650000D02*
X58150000Y-53650000D01*
X58150000Y-53650000D02*
X58150000Y-53650000D01*
X67966002Y-52380000D02*
X70000000Y-52380000D01*
X56880000Y-52380000D02*
X67966002Y-52380000D01*
X46000000Y-51190000D02*
X46000000Y-50306117D01*
X46000000Y-50306117D02*
X46000000Y-50000000D01*
X46000000Y-50000000D02*
X47000000Y-49000000D01*
X47000000Y-49000000D02*
X50000000Y-49000000D01*
X53380000Y-52380000D02*
X50000000Y-49000000D01*
X56880000Y-52380000D02*
X53380000Y-52380000D01*
X55500000Y-64000000D02*
X60500000Y-64000000D01*
X60500000Y-64000000D02*
X66000000Y-69500000D01*
D25*
G36*
X73879330Y-30782445D02*
G01*
X73838912Y-30809452D01*
X73478724Y-31299119D01*
X76000000Y-33820395D01*
X76014143Y-33806253D01*
X76193748Y-33985858D01*
X76179605Y-34000000D01*
X78700881Y-36521276D01*
X79190548Y-36161088D01*
X79315000Y-35931745D01*
X79315001Y-84064438D01*
X79217555Y-83879330D01*
X79190548Y-83838912D01*
X78700881Y-83478724D01*
X76179605Y-86000000D01*
X76193748Y-86014143D01*
X76014143Y-86193748D01*
X76000000Y-86179605D01*
X73478724Y-88700881D01*
X73838912Y-89190548D01*
X74068255Y-89315000D01*
X45935564Y-89315000D01*
X46120670Y-89217555D01*
X46161088Y-89190548D01*
X46521276Y-88700881D01*
X44000000Y-86179605D01*
X43985858Y-86193748D01*
X43806253Y-86014143D01*
X43820395Y-86000000D01*
X44179605Y-86000000D01*
X46700881Y-88521276D01*
X47190548Y-88161088D01*
X47550849Y-87497118D01*
X47774694Y-86775615D01*
X47853480Y-86024305D01*
X47837767Y-85853740D01*
X48815000Y-85853740D01*
X48815000Y-86146260D01*
X48872068Y-86433158D01*
X48984010Y-86703411D01*
X49146525Y-86946632D01*
X49353368Y-87153475D01*
X49596589Y-87315990D01*
X49866842Y-87427932D01*
X50153740Y-87485000D01*
X50446260Y-87485000D01*
X50733158Y-87427932D01*
X51003411Y-87315990D01*
X51246632Y-87153475D01*
X51453475Y-86946632D01*
X51570000Y-86772240D01*
X51686525Y-86946632D01*
X51893368Y-87153475D01*
X52136589Y-87315990D01*
X52406842Y-87427932D01*
X52693740Y-87485000D01*
X52986260Y-87485000D01*
X53273158Y-87427932D01*
X53543411Y-87315990D01*
X53786632Y-87153475D01*
X53993475Y-86946632D01*
X54110000Y-86772240D01*
X54226525Y-86946632D01*
X54433368Y-87153475D01*
X54676589Y-87315990D01*
X54946842Y-87427932D01*
X55233740Y-87485000D01*
X55526260Y-87485000D01*
X55813158Y-87427932D01*
X56083411Y-87315990D01*
X56326632Y-87153475D01*
X56533475Y-86946632D01*
X56650000Y-86772240D01*
X56766525Y-86946632D01*
X56973368Y-87153475D01*
X57216589Y-87315990D01*
X57486842Y-87427932D01*
X57773740Y-87485000D01*
X58066260Y-87485000D01*
X58353158Y-87427932D01*
X58623411Y-87315990D01*
X58866632Y-87153475D01*
X59073475Y-86946632D01*
X59190000Y-86772240D01*
X59306525Y-86946632D01*
X59513368Y-87153475D01*
X59756589Y-87315990D01*
X60026842Y-87427932D01*
X60313740Y-87485000D01*
X60606260Y-87485000D01*
X60893158Y-87427932D01*
X61163411Y-87315990D01*
X61406632Y-87153475D01*
X61538487Y-87021620D01*
X61560498Y-87094180D01*
X61619463Y-87204494D01*
X61698815Y-87301185D01*
X61795506Y-87380537D01*
X61905820Y-87439502D01*
X62025518Y-87475812D01*
X62150000Y-87488072D01*
X62714250Y-87485000D01*
X62873000Y-87326250D01*
X62873000Y-86127000D01*
X63127000Y-86127000D01*
X63127000Y-87326250D01*
X63285750Y-87485000D01*
X63850000Y-87488072D01*
X63974482Y-87475812D01*
X64094180Y-87439502D01*
X64204494Y-87380537D01*
X64301185Y-87301185D01*
X64380537Y-87204494D01*
X64439502Y-87094180D01*
X64475812Y-86974482D01*
X64488072Y-86850000D01*
X64485000Y-86285750D01*
X64326250Y-86127000D01*
X63127000Y-86127000D01*
X62873000Y-86127000D01*
X62853000Y-86127000D01*
X62853000Y-85975695D01*
X72146520Y-85975695D01*
X72215822Y-86727938D01*
X72430548Y-87452208D01*
X72782445Y-88120670D01*
X72809452Y-88161088D01*
X73299119Y-88521276D01*
X75820395Y-86000000D01*
X73299119Y-83478724D01*
X72809452Y-83838912D01*
X72449151Y-84502882D01*
X72225306Y-85224385D01*
X72146520Y-85975695D01*
X62853000Y-85975695D01*
X62853000Y-85873000D01*
X62873000Y-85873000D01*
X62873000Y-84673750D01*
X63127000Y-84673750D01*
X63127000Y-85873000D01*
X64326250Y-85873000D01*
X64485000Y-85714250D01*
X64488072Y-85150000D01*
X64475812Y-85025518D01*
X64439502Y-84905820D01*
X64380537Y-84795506D01*
X64301185Y-84698815D01*
X64204494Y-84619463D01*
X64094180Y-84560498D01*
X63974482Y-84524188D01*
X63850000Y-84511928D01*
X63285750Y-84515000D01*
X63127000Y-84673750D01*
X62873000Y-84673750D01*
X62714250Y-84515000D01*
X62150000Y-84511928D01*
X62025518Y-84524188D01*
X61905820Y-84560498D01*
X61795506Y-84619463D01*
X61698815Y-84698815D01*
X61619463Y-84795506D01*
X61560498Y-84905820D01*
X61538487Y-84978380D01*
X61406632Y-84846525D01*
X61345000Y-84805344D01*
X61345000Y-81889039D01*
X64608096Y-81889039D01*
X64648754Y-82023087D01*
X64768963Y-82277420D01*
X64936481Y-82503414D01*
X65144869Y-82692385D01*
X65386119Y-82837070D01*
X65650960Y-82931909D01*
X65873000Y-82810624D01*
X65873000Y-81667000D01*
X66127000Y-81667000D01*
X66127000Y-82810624D01*
X66349040Y-82931909D01*
X66613881Y-82837070D01*
X66855131Y-82692385D01*
X67063519Y-82503414D01*
X67231037Y-82277420D01*
X67351246Y-82023087D01*
X67391904Y-81889039D01*
X67269915Y-81667000D01*
X66127000Y-81667000D01*
X65873000Y-81667000D01*
X64730085Y-81667000D01*
X64608096Y-81889039D01*
X61345000Y-81889039D01*
X61345000Y-80906578D01*
X61366578Y-80885000D01*
X62956531Y-80885000D01*
X63000000Y-80889281D01*
X63043469Y-80885000D01*
X63043477Y-80885000D01*
X63173490Y-80872195D01*
X63340313Y-80821589D01*
X63494059Y-80739411D01*
X63628817Y-80628817D01*
X63656534Y-80595044D01*
X64366579Y-79885000D01*
X64570299Y-79885000D01*
X64574188Y-79924482D01*
X64610498Y-80044180D01*
X64669463Y-80154494D01*
X64748815Y-80251185D01*
X64845506Y-80330537D01*
X64955820Y-80389502D01*
X65075518Y-80425812D01*
X65100080Y-80428231D01*
X64936481Y-80576586D01*
X64768963Y-80802580D01*
X64648754Y-81056913D01*
X64608096Y-81190961D01*
X64730085Y-81413000D01*
X65873000Y-81413000D01*
X65873000Y-81393000D01*
X66127000Y-81393000D01*
X66127000Y-81413000D01*
X67269915Y-81413000D01*
X67391904Y-81190961D01*
X67351246Y-81056913D01*
X67231037Y-80802580D01*
X67063519Y-80576586D01*
X66899920Y-80428231D01*
X66924482Y-80425812D01*
X67044180Y-80389502D01*
X67154494Y-80330537D01*
X67251185Y-80251185D01*
X67330537Y-80154494D01*
X67389502Y-80044180D01*
X67425812Y-79924482D01*
X67438072Y-79800000D01*
X67438072Y-78200000D01*
X67425812Y-78075518D01*
X67389502Y-77955820D01*
X67330537Y-77845506D01*
X67251185Y-77748815D01*
X67154494Y-77669463D01*
X67044180Y-77610498D01*
X66924482Y-77574188D01*
X66800000Y-77561928D01*
X65200000Y-77561928D01*
X65075518Y-77574188D01*
X64955820Y-77610498D01*
X64845506Y-77669463D01*
X64748815Y-77748815D01*
X64669463Y-77845506D01*
X64610498Y-77955820D01*
X64574188Y-78075518D01*
X64570299Y-78115000D01*
X64043469Y-78115000D01*
X64000000Y-78110719D01*
X63956531Y-78115000D01*
X63956523Y-78115000D01*
X63826510Y-78127805D01*
X63659686Y-78178411D01*
X63505941Y-78260589D01*
X63404953Y-78343468D01*
X63404951Y-78343470D01*
X63371183Y-78371183D01*
X63343470Y-78404951D01*
X62633422Y-79115000D01*
X61640156Y-79115000D01*
X61739411Y-78994059D01*
X61821589Y-78840313D01*
X61872195Y-78673490D01*
X61875401Y-78640935D01*
X61914759Y-78614637D01*
X62114637Y-78414759D01*
X62271680Y-78179727D01*
X62379853Y-77918574D01*
X62435000Y-77641335D01*
X62435000Y-77358665D01*
X62379853Y-77081426D01*
X62271680Y-76820273D01*
X62114637Y-76585241D01*
X61914759Y-76385363D01*
X61679727Y-76228320D01*
X61418574Y-76120147D01*
X61141335Y-76065000D01*
X60858665Y-76065000D01*
X60581426Y-76120147D01*
X60320273Y-76228320D01*
X60085241Y-76385363D01*
X59885363Y-76585241D01*
X59728320Y-76820273D01*
X59620147Y-77081426D01*
X59565000Y-77358665D01*
X59565000Y-77641335D01*
X59620147Y-77918574D01*
X59728320Y-78179727D01*
X59864655Y-78383767D01*
X59133422Y-79115000D01*
X55806692Y-79115000D01*
X55772729Y-79100932D01*
X55592089Y-79065000D01*
X55407911Y-79065000D01*
X55227271Y-79100932D01*
X55057111Y-79171414D01*
X54903972Y-79273738D01*
X54773738Y-79403972D01*
X54671414Y-79557111D01*
X54600932Y-79727271D01*
X54565000Y-79907911D01*
X54565000Y-80092089D01*
X54600932Y-80272729D01*
X54671414Y-80442889D01*
X54773738Y-80596028D01*
X54903972Y-80726262D01*
X55057111Y-80828586D01*
X55091077Y-80842655D01*
X57035001Y-82786580D01*
X57035000Y-84805344D01*
X56973368Y-84846525D01*
X56766525Y-85053368D01*
X56650000Y-85227760D01*
X56533475Y-85053368D01*
X56326632Y-84846525D01*
X56083411Y-84684010D01*
X55813158Y-84572068D01*
X55526260Y-84515000D01*
X55233740Y-84515000D01*
X54946842Y-84572068D01*
X54676589Y-84684010D01*
X54433368Y-84846525D01*
X54226525Y-85053368D01*
X54110000Y-85227760D01*
X53993475Y-85053368D01*
X53786632Y-84846525D01*
X53728331Y-84807569D01*
X53729281Y-84797919D01*
X53725000Y-84754450D01*
X53725000Y-84754442D01*
X53712195Y-84624429D01*
X53661589Y-84457606D01*
X53579411Y-84303860D01*
X53468817Y-84169102D01*
X53435049Y-84141389D01*
X51885000Y-82591341D01*
X51885000Y-74866578D01*
X52366579Y-74385000D01*
X55193308Y-74385000D01*
X55227271Y-74399068D01*
X55407911Y-74435000D01*
X55592089Y-74435000D01*
X55772729Y-74399068D01*
X55806692Y-74385000D01*
X64496531Y-74385000D01*
X64540000Y-74389281D01*
X64583469Y-74385000D01*
X64583477Y-74385000D01*
X64713490Y-74372195D01*
X64880313Y-74321589D01*
X65034059Y-74239411D01*
X65168817Y-74128817D01*
X65196534Y-74095044D01*
X65823561Y-73468017D01*
X65858665Y-73475000D01*
X66141335Y-73475000D01*
X66418574Y-73419853D01*
X66679727Y-73311680D01*
X66914759Y-73154637D01*
X67114637Y-72954759D01*
X67271680Y-72719727D01*
X67379853Y-72458574D01*
X67435000Y-72181335D01*
X67435000Y-71898665D01*
X67379853Y-71621426D01*
X67271680Y-71360273D01*
X67114637Y-71125241D01*
X66916039Y-70926643D01*
X66924482Y-70925812D01*
X67044180Y-70889502D01*
X67154494Y-70830537D01*
X67251185Y-70751185D01*
X67330537Y-70654494D01*
X67389502Y-70544180D01*
X67425812Y-70424482D01*
X67438072Y-70300000D01*
X67438072Y-69358665D01*
X72185000Y-69358665D01*
X72185000Y-69641335D01*
X72240147Y-69918574D01*
X72348320Y-70179727D01*
X72505363Y-70414759D01*
X72705241Y-70614637D01*
X72937759Y-70770000D01*
X72705241Y-70925363D01*
X72505363Y-71125241D01*
X72348320Y-71360273D01*
X72240147Y-71621426D01*
X72185000Y-71898665D01*
X72185000Y-72181335D01*
X72240147Y-72458574D01*
X72348320Y-72719727D01*
X72505363Y-72954759D01*
X72705241Y-73154637D01*
X72940273Y-73311680D01*
X73201426Y-73419853D01*
X73478665Y-73475000D01*
X73761335Y-73475000D01*
X74038574Y-73419853D01*
X74299727Y-73311680D01*
X74534759Y-73154637D01*
X74734637Y-72954759D01*
X74891680Y-72719727D01*
X74999853Y-72458574D01*
X75055000Y-72181335D01*
X75055000Y-71898665D01*
X74999853Y-71621426D01*
X74891680Y-71360273D01*
X74734637Y-71125241D01*
X74534759Y-70925363D01*
X74302241Y-70770000D01*
X74534759Y-70614637D01*
X74734637Y-70414759D01*
X74891680Y-70179727D01*
X74999853Y-69918574D01*
X75055000Y-69641335D01*
X75055000Y-69358665D01*
X74999853Y-69081426D01*
X74891680Y-68820273D01*
X74734637Y-68585241D01*
X74534759Y-68385363D01*
X74299727Y-68228320D01*
X74038574Y-68120147D01*
X73761335Y-68065000D01*
X73478665Y-68065000D01*
X73201426Y-68120147D01*
X72940273Y-68228320D01*
X72705241Y-68385363D01*
X72505363Y-68585241D01*
X72348320Y-68820273D01*
X72240147Y-69081426D01*
X72185000Y-69358665D01*
X67438072Y-69358665D01*
X67438072Y-68700000D01*
X67425812Y-68575518D01*
X67389502Y-68455820D01*
X67330537Y-68345506D01*
X67251185Y-68248815D01*
X67154494Y-68169463D01*
X67044180Y-68110498D01*
X66924482Y-68074188D01*
X66800000Y-68061928D01*
X65813507Y-68061928D01*
X61156534Y-63404956D01*
X61128817Y-63371183D01*
X60994059Y-63260589D01*
X60840313Y-63178411D01*
X60673490Y-63127805D01*
X60543477Y-63115000D01*
X60543469Y-63115000D01*
X60500000Y-63110719D01*
X60456531Y-63115000D01*
X55806692Y-63115000D01*
X55772729Y-63100932D01*
X55592089Y-63065000D01*
X55407911Y-63065000D01*
X55227271Y-63100932D01*
X55057111Y-63171414D01*
X54903972Y-63273738D01*
X54773738Y-63403972D01*
X54671414Y-63557111D01*
X54600932Y-63727271D01*
X54565000Y-63907911D01*
X54565000Y-64092089D01*
X54600932Y-64272729D01*
X54671414Y-64442889D01*
X54773738Y-64596028D01*
X54903972Y-64726262D01*
X55057111Y-64828586D01*
X55227271Y-64899068D01*
X55407911Y-64935000D01*
X55592089Y-64935000D01*
X55772729Y-64899068D01*
X55806692Y-64885000D01*
X60133422Y-64885000D01*
X64561928Y-69313507D01*
X64561928Y-70300000D01*
X64574188Y-70424482D01*
X64610498Y-70544180D01*
X64669463Y-70654494D01*
X64748815Y-70751185D01*
X64845506Y-70830537D01*
X64955820Y-70889502D01*
X65075518Y-70925812D01*
X65083961Y-70926643D01*
X64885363Y-71125241D01*
X64728320Y-71360273D01*
X64620147Y-71621426D01*
X64565000Y-71898665D01*
X64565000Y-72181335D01*
X64571983Y-72216439D01*
X64173422Y-72615000D01*
X56385000Y-72615000D01*
X56385000Y-70806692D01*
X56399068Y-70772729D01*
X56435000Y-70592089D01*
X56435000Y-70407911D01*
X56399068Y-70227271D01*
X56328586Y-70057111D01*
X56226262Y-69903972D01*
X56096028Y-69773738D01*
X56043538Y-69738665D01*
X59565000Y-69738665D01*
X59565000Y-70021335D01*
X59620147Y-70298574D01*
X59728320Y-70559727D01*
X59885363Y-70794759D01*
X60085241Y-70994637D01*
X60320273Y-71151680D01*
X60581426Y-71259853D01*
X60858665Y-71315000D01*
X61141335Y-71315000D01*
X61418574Y-71259853D01*
X61679727Y-71151680D01*
X61914759Y-70994637D01*
X62114637Y-70794759D01*
X62271680Y-70559727D01*
X62379853Y-70298574D01*
X62435000Y-70021335D01*
X62435000Y-69738665D01*
X62379853Y-69461426D01*
X62271680Y-69200273D01*
X62114637Y-68965241D01*
X61914759Y-68765363D01*
X61679727Y-68608320D01*
X61418574Y-68500147D01*
X61141335Y-68445000D01*
X60858665Y-68445000D01*
X60581426Y-68500147D01*
X60320273Y-68608320D01*
X60085241Y-68765363D01*
X59885363Y-68965241D01*
X59728320Y-69200273D01*
X59620147Y-69461426D01*
X59565000Y-69738665D01*
X56043538Y-69738665D01*
X55942889Y-69671414D01*
X55772729Y-69600932D01*
X55592089Y-69565000D01*
X55407911Y-69565000D01*
X55227271Y-69600932D01*
X55057111Y-69671414D01*
X54903972Y-69773738D01*
X54773738Y-69903972D01*
X54671414Y-70057111D01*
X54600932Y-70227271D01*
X54565000Y-70407911D01*
X54565000Y-70592089D01*
X54600932Y-70772729D01*
X54615001Y-70806695D01*
X54615000Y-72615000D01*
X52043469Y-72615000D01*
X52000000Y-72610719D01*
X51956531Y-72615000D01*
X51956523Y-72615000D01*
X51826510Y-72627805D01*
X51659686Y-72678411D01*
X51505941Y-72760589D01*
X51404953Y-72843468D01*
X51404951Y-72843470D01*
X51371183Y-72871183D01*
X51343470Y-72904951D01*
X50404951Y-73843471D01*
X50371184Y-73871183D01*
X50343471Y-73904951D01*
X50343468Y-73904954D01*
X50260590Y-74005941D01*
X50178412Y-74159687D01*
X50127805Y-74326510D01*
X50110719Y-74500000D01*
X50115001Y-74543479D01*
X50115000Y-82043476D01*
X50115001Y-82043485D01*
X50115000Y-82914449D01*
X50110719Y-82957919D01*
X50115000Y-83001388D01*
X50115000Y-83001395D01*
X50127805Y-83131408D01*
X50178411Y-83298231D01*
X50260589Y-83451977D01*
X50371183Y-83586736D01*
X50404956Y-83614453D01*
X51765198Y-84974695D01*
X51686525Y-85053368D01*
X51570000Y-85227760D01*
X51453475Y-85053368D01*
X51246632Y-84846525D01*
X51003411Y-84684010D01*
X50733158Y-84572068D01*
X50446260Y-84515000D01*
X50153740Y-84515000D01*
X49866842Y-84572068D01*
X49596589Y-84684010D01*
X49353368Y-84846525D01*
X49146525Y-85053368D01*
X48984010Y-85296589D01*
X48872068Y-85566842D01*
X48815000Y-85853740D01*
X47837767Y-85853740D01*
X47784178Y-85272062D01*
X47569452Y-84547792D01*
X47217555Y-83879330D01*
X47190548Y-83838912D01*
X46700881Y-83478724D01*
X44179605Y-86000000D01*
X43820395Y-86000000D01*
X41299119Y-83478724D01*
X40809452Y-83838912D01*
X40685000Y-84068255D01*
X40685000Y-83299119D01*
X41478724Y-83299119D01*
X44000000Y-85820395D01*
X46521276Y-83299119D01*
X46161088Y-82809452D01*
X45497118Y-82449151D01*
X44775615Y-82225306D01*
X44024305Y-82146520D01*
X43272062Y-82215822D01*
X42547792Y-82430548D01*
X41879330Y-82782445D01*
X41838912Y-82809452D01*
X41478724Y-83299119D01*
X40685000Y-83299119D01*
X40685000Y-58185000D01*
X42196928Y-58185000D01*
X42196928Y-59435000D01*
X42209188Y-59559482D01*
X42245498Y-59679180D01*
X42304463Y-59789494D01*
X42383815Y-59886185D01*
X42480506Y-59965537D01*
X42590820Y-60024502D01*
X42710518Y-60060812D01*
X42835000Y-60073072D01*
X44085000Y-60073072D01*
X44209482Y-60060812D01*
X44329180Y-60024502D01*
X44439494Y-59965537D01*
X44536185Y-59886185D01*
X44615537Y-59789494D01*
X44674502Y-59679180D01*
X44710812Y-59559482D01*
X44723072Y-59435000D01*
X44723072Y-58685901D01*
X44740000Y-58685901D01*
X44740000Y-58934099D01*
X44788421Y-59177529D01*
X44883402Y-59406834D01*
X45021294Y-59613203D01*
X45196797Y-59788706D01*
X45403166Y-59926598D01*
X45632471Y-60021579D01*
X45875901Y-60070000D01*
X46124099Y-60070000D01*
X46367529Y-60021579D01*
X46596834Y-59926598D01*
X46803203Y-59788706D01*
X46978706Y-59613203D01*
X47116598Y-59406834D01*
X47211579Y-59177529D01*
X47260000Y-58934099D01*
X47260000Y-58685901D01*
X47280000Y-58685901D01*
X47280000Y-58934099D01*
X47328421Y-59177529D01*
X47423402Y-59406834D01*
X47561294Y-59613203D01*
X47736797Y-59788706D01*
X47943166Y-59926598D01*
X48172471Y-60021579D01*
X48415901Y-60070000D01*
X48664099Y-60070000D01*
X48907529Y-60021579D01*
X49136834Y-59926598D01*
X49343203Y-59788706D01*
X49518706Y-59613203D01*
X49656598Y-59406834D01*
X49751579Y-59177529D01*
X49800000Y-58934099D01*
X49800000Y-58685901D01*
X49751579Y-58442471D01*
X49656598Y-58213166D01*
X49518706Y-58006797D01*
X49343203Y-57831294D01*
X49136834Y-57693402D01*
X48907529Y-57598421D01*
X48664099Y-57550000D01*
X48415901Y-57550000D01*
X48172471Y-57598421D01*
X47943166Y-57693402D01*
X47736797Y-57831294D01*
X47561294Y-58006797D01*
X47423402Y-58213166D01*
X47328421Y-58442471D01*
X47280000Y-58685901D01*
X47260000Y-58685901D01*
X47211579Y-58442471D01*
X47116598Y-58213166D01*
X46978706Y-58006797D01*
X46803203Y-57831294D01*
X46596834Y-57693402D01*
X46367529Y-57598421D01*
X46124099Y-57550000D01*
X45875901Y-57550000D01*
X45632471Y-57598421D01*
X45403166Y-57693402D01*
X45196797Y-57831294D01*
X45021294Y-58006797D01*
X44883402Y-58213166D01*
X44788421Y-58442471D01*
X44740000Y-58685901D01*
X44723072Y-58685901D01*
X44723072Y-58185000D01*
X44710812Y-58060518D01*
X44674502Y-57940820D01*
X44615537Y-57830506D01*
X44536185Y-57733815D01*
X44439494Y-57654463D01*
X44329180Y-57595498D01*
X44209482Y-57559188D01*
X44085000Y-57546928D01*
X42835000Y-57546928D01*
X42710518Y-57559188D01*
X42590820Y-57595498D01*
X42480506Y-57654463D01*
X42383815Y-57733815D01*
X42304463Y-57830506D01*
X42245498Y-57940820D01*
X42209188Y-58060518D01*
X42196928Y-58185000D01*
X40685000Y-58185000D01*
X40685000Y-51065901D01*
X42200000Y-51065901D01*
X42200000Y-51314099D01*
X42248421Y-51557529D01*
X42343402Y-51786834D01*
X42481294Y-51993203D01*
X42584115Y-52096024D01*
X42587805Y-52133489D01*
X42638411Y-52300312D01*
X42720589Y-52454058D01*
X42831183Y-52588817D01*
X42864956Y-52616534D01*
X44343470Y-54095049D01*
X44371183Y-54128817D01*
X44404951Y-54156530D01*
X44404953Y-54156532D01*
X44505941Y-54239411D01*
X44659687Y-54321589D01*
X44826510Y-54372195D01*
X44956523Y-54385000D01*
X44956531Y-54385000D01*
X45000000Y-54389281D01*
X45043469Y-54385000D01*
X55633422Y-54385000D01*
X60573470Y-59325049D01*
X60601183Y-59358817D01*
X60634951Y-59386530D01*
X60634953Y-59386532D01*
X60659691Y-59406834D01*
X60735941Y-59469411D01*
X60889687Y-59551589D01*
X60980684Y-59579193D01*
X61056509Y-59602195D01*
X61071306Y-59603652D01*
X61186523Y-59615000D01*
X61186531Y-59615000D01*
X61230000Y-59619281D01*
X61273469Y-59615000D01*
X62923308Y-59615000D01*
X62957271Y-59629068D01*
X63137911Y-59665000D01*
X63322089Y-59665000D01*
X63502729Y-59629068D01*
X63536692Y-59615000D01*
X66386315Y-59615000D01*
X66575000Y-59803685D01*
X66575001Y-64916521D01*
X66570719Y-64960000D01*
X66587805Y-65133490D01*
X66638412Y-65300313D01*
X66720590Y-65454059D01*
X66803468Y-65555046D01*
X66803471Y-65555049D01*
X66831184Y-65588817D01*
X66853151Y-65606845D01*
X66871183Y-65628817D01*
X67005941Y-65739411D01*
X67159687Y-65821589D01*
X67326510Y-65872195D01*
X67456523Y-65885000D01*
X67456531Y-65885000D01*
X67500000Y-65889281D01*
X67543469Y-65885000D01*
X74133422Y-65885000D01*
X76115000Y-67866579D01*
X76115001Y-79855001D01*
X74774566Y-79855001D01*
X74891680Y-79679727D01*
X74999853Y-79418574D01*
X75055000Y-79141335D01*
X75055000Y-78858665D01*
X74999853Y-78581426D01*
X74891680Y-78320273D01*
X74734637Y-78085241D01*
X74534759Y-77885363D01*
X74299727Y-77728320D01*
X74038574Y-77620147D01*
X73761335Y-77565000D01*
X73478665Y-77565000D01*
X73201426Y-77620147D01*
X72940273Y-77728320D01*
X72705241Y-77885363D01*
X72505363Y-78085241D01*
X72348320Y-78320273D01*
X72240147Y-78581426D01*
X72185000Y-78858665D01*
X72185000Y-79141335D01*
X72240147Y-79418574D01*
X72348320Y-79679727D01*
X72505363Y-79914759D01*
X72705241Y-80114637D01*
X72937759Y-80270000D01*
X72705241Y-80425363D01*
X72505363Y-80625241D01*
X72348320Y-80860273D01*
X72240147Y-81121426D01*
X72185000Y-81398665D01*
X72185000Y-81681335D01*
X72240147Y-81958574D01*
X72348320Y-82219727D01*
X72505363Y-82454759D01*
X72705241Y-82654637D01*
X72940273Y-82811680D01*
X73201426Y-82919853D01*
X73478665Y-82975000D01*
X73717139Y-82975000D01*
X73478724Y-83299119D01*
X76000000Y-85820395D01*
X78521276Y-83299119D01*
X78161088Y-82809452D01*
X77497118Y-82449151D01*
X76775615Y-82225306D01*
X76024305Y-82146520D01*
X75272062Y-82215822D01*
X74800967Y-82355489D01*
X74891680Y-82219727D01*
X74999853Y-81958574D01*
X75055000Y-81681335D01*
X75055000Y-81625001D01*
X76696530Y-81625001D01*
X76739999Y-81629282D01*
X76783468Y-81625001D01*
X76783476Y-81625001D01*
X76913489Y-81612196D01*
X77080312Y-81561590D01*
X77234058Y-81479412D01*
X77368816Y-81368818D01*
X77396533Y-81335045D01*
X77595044Y-81136534D01*
X77628817Y-81108817D01*
X77739411Y-80974059D01*
X77821589Y-80820313D01*
X77872195Y-80653490D01*
X77885000Y-80523477D01*
X77885000Y-80523469D01*
X77889281Y-80480000D01*
X77885000Y-80436531D01*
X77885000Y-67543469D01*
X77889281Y-67500000D01*
X77885000Y-67456531D01*
X77885000Y-67456523D01*
X77872195Y-67326510D01*
X77821589Y-67159687D01*
X77739411Y-67005941D01*
X77628817Y-66871183D01*
X77595050Y-66843471D01*
X75156532Y-64404954D01*
X75128817Y-64371183D01*
X74994059Y-64260589D01*
X74840313Y-64178411D01*
X74673490Y-64127805D01*
X74543477Y-64115000D01*
X74543469Y-64115000D01*
X74500000Y-64110719D01*
X74456531Y-64115000D01*
X68345000Y-64115000D01*
X68345000Y-59803685D01*
X68535799Y-59612886D01*
X68611928Y-59498951D01*
X68611928Y-60750000D01*
X68624188Y-60874482D01*
X68660498Y-60994180D01*
X68719463Y-61104494D01*
X68798815Y-61201185D01*
X68895506Y-61280537D01*
X69005820Y-61339502D01*
X69125518Y-61375812D01*
X69250000Y-61388072D01*
X70750000Y-61388072D01*
X70874482Y-61375812D01*
X70994180Y-61339502D01*
X71104494Y-61280537D01*
X71144492Y-61247711D01*
X73890000Y-61247711D01*
X73890000Y-61732289D01*
X73984536Y-62207556D01*
X74169976Y-62655247D01*
X74439193Y-63058159D01*
X74781841Y-63400807D01*
X75184753Y-63670024D01*
X75632444Y-63855464D01*
X76107711Y-63950000D01*
X76592289Y-63950000D01*
X77067556Y-63855464D01*
X77515247Y-63670024D01*
X77918159Y-63400807D01*
X78260807Y-63058159D01*
X78530024Y-62655247D01*
X78715464Y-62207556D01*
X78810000Y-61732289D01*
X78810000Y-61247711D01*
X78715464Y-60772444D01*
X78530024Y-60324753D01*
X78260807Y-59921841D01*
X77918159Y-59579193D01*
X77515247Y-59309976D01*
X77067556Y-59124536D01*
X76592289Y-59030000D01*
X76107711Y-59030000D01*
X75632444Y-59124536D01*
X75184753Y-59309976D01*
X74781841Y-59579193D01*
X74439193Y-59921841D01*
X74169976Y-60324753D01*
X73984536Y-60772444D01*
X73890000Y-61247711D01*
X71144492Y-61247711D01*
X71201185Y-61201185D01*
X71280537Y-61104494D01*
X71339502Y-60994180D01*
X71375812Y-60874482D01*
X71388072Y-60750000D01*
X71388072Y-59250000D01*
X71375812Y-59125518D01*
X71339502Y-59005820D01*
X71280537Y-58895506D01*
X71201185Y-58798815D01*
X71104494Y-58719463D01*
X70994180Y-58660498D01*
X70874482Y-58624188D01*
X70766517Y-58613555D01*
X70882886Y-58535799D01*
X71075799Y-58342886D01*
X71227371Y-58116043D01*
X71331775Y-57863989D01*
X71385000Y-57596411D01*
X71385000Y-57323589D01*
X71331775Y-57056011D01*
X71227371Y-56803957D01*
X71075799Y-56577114D01*
X70882886Y-56384201D01*
X70656043Y-56232629D01*
X70553127Y-56190000D01*
X70656043Y-56147371D01*
X70882886Y-55995799D01*
X71075799Y-55802886D01*
X71227371Y-55576043D01*
X71331775Y-55323989D01*
X71385000Y-55056411D01*
X71385000Y-54783589D01*
X71331775Y-54516011D01*
X71227371Y-54263957D01*
X71075799Y-54037114D01*
X70882886Y-53844201D01*
X70656043Y-53692629D01*
X70553127Y-53650000D01*
X70656043Y-53607371D01*
X70882886Y-53455799D01*
X71075799Y-53262886D01*
X71227371Y-53036043D01*
X71331775Y-52783989D01*
X71385000Y-52516411D01*
X71385000Y-52243589D01*
X71331775Y-51976011D01*
X71227371Y-51723957D01*
X71075799Y-51497114D01*
X70882886Y-51304201D01*
X70656043Y-51152629D01*
X70403989Y-51048225D01*
X70136411Y-50995000D01*
X69863589Y-50995000D01*
X69596011Y-51048225D01*
X69343957Y-51152629D01*
X69117114Y-51304201D01*
X68926315Y-51495000D01*
X68791514Y-51495000D01*
X68837250Y-51310040D01*
X68849812Y-51037508D01*
X68808965Y-50767762D01*
X68716277Y-50511168D01*
X68655860Y-50398137D01*
X68416993Y-50332612D01*
X67735000Y-51014605D01*
X67735000Y-50655395D01*
X68237388Y-50153007D01*
X68171863Y-49914140D01*
X67924884Y-49798240D01*
X67735000Y-49751286D01*
X67735000Y-49377711D01*
X73890000Y-49377711D01*
X73890000Y-49862289D01*
X73984536Y-50337556D01*
X74169976Y-50785247D01*
X74439193Y-51188159D01*
X74781841Y-51530807D01*
X75184753Y-51800024D01*
X75632444Y-51985464D01*
X76107711Y-52080000D01*
X76592289Y-52080000D01*
X77067556Y-51985464D01*
X77515247Y-51800024D01*
X77918159Y-51530807D01*
X78260807Y-51188159D01*
X78530024Y-50785247D01*
X78715464Y-50337556D01*
X78810000Y-49862289D01*
X78810000Y-49377711D01*
X78715464Y-48902444D01*
X78530024Y-48454753D01*
X78260807Y-48051841D01*
X77918159Y-47709193D01*
X77515247Y-47439976D01*
X77067556Y-47254536D01*
X76592289Y-47160000D01*
X76107711Y-47160000D01*
X75632444Y-47254536D01*
X75184753Y-47439976D01*
X74781841Y-47709193D01*
X74439193Y-48051841D01*
X74169976Y-48454753D01*
X73984536Y-48902444D01*
X73890000Y-49377711D01*
X67735000Y-49377711D01*
X67735000Y-44895000D01*
X51265000Y-44895000D01*
X51265000Y-49013422D01*
X50656534Y-48404956D01*
X50628817Y-48371183D01*
X50494059Y-48260589D01*
X50340313Y-48178411D01*
X50173490Y-48127805D01*
X50043477Y-48115000D01*
X50043469Y-48115000D01*
X50000000Y-48110719D01*
X49956531Y-48115000D01*
X47043469Y-48115000D01*
X47000000Y-48110719D01*
X46956531Y-48115000D01*
X46956523Y-48115000D01*
X46826510Y-48127805D01*
X46659686Y-48178411D01*
X46505941Y-48260589D01*
X46404953Y-48343468D01*
X46404951Y-48343470D01*
X46371183Y-48371183D01*
X46343470Y-48404951D01*
X45404955Y-49343467D01*
X45371183Y-49371183D01*
X45260589Y-49505941D01*
X45178411Y-49659687D01*
X45127805Y-49826510D01*
X45115000Y-49956523D01*
X45115000Y-49956531D01*
X45110719Y-50000000D01*
X45115000Y-50043469D01*
X45115000Y-50293091D01*
X45021294Y-50386797D01*
X44883402Y-50593166D01*
X44788421Y-50822471D01*
X44740000Y-51065901D01*
X44740000Y-51314099D01*
X44788421Y-51557529D01*
X44883402Y-51786834D01*
X45021294Y-51993203D01*
X45196797Y-52168706D01*
X45403166Y-52306598D01*
X45632471Y-52401579D01*
X45875901Y-52450000D01*
X46124099Y-52450000D01*
X46367529Y-52401579D01*
X46596834Y-52306598D01*
X46803203Y-52168706D01*
X46978706Y-51993203D01*
X47116598Y-51786834D01*
X47211579Y-51557529D01*
X47260000Y-51314099D01*
X47260000Y-51065901D01*
X47280000Y-51065901D01*
X47280000Y-51314099D01*
X47328421Y-51557529D01*
X47423402Y-51786834D01*
X47561294Y-51993203D01*
X47736797Y-52168706D01*
X47943166Y-52306598D01*
X48172471Y-52401579D01*
X48415901Y-52450000D01*
X48664099Y-52450000D01*
X48907529Y-52401579D01*
X49136834Y-52306598D01*
X49343203Y-52168706D01*
X49518706Y-51993203D01*
X49656598Y-51786834D01*
X49751579Y-51557529D01*
X49800000Y-51314099D01*
X49800000Y-51065901D01*
X49751579Y-50822471D01*
X49656598Y-50593166D01*
X49518706Y-50386797D01*
X49343203Y-50211294D01*
X49136834Y-50073402D01*
X48907529Y-49978421D01*
X48664099Y-49930000D01*
X48415901Y-49930000D01*
X48172471Y-49978421D01*
X47943166Y-50073402D01*
X47736797Y-50211294D01*
X47561294Y-50386797D01*
X47423402Y-50593166D01*
X47328421Y-50822471D01*
X47280000Y-51065901D01*
X47260000Y-51065901D01*
X47211579Y-50822471D01*
X47116598Y-50593166D01*
X46978706Y-50386797D01*
X46921744Y-50329835D01*
X47366579Y-49885000D01*
X49633422Y-49885000D01*
X52363421Y-52615000D01*
X45366579Y-52615000D01*
X44561303Y-51809725D01*
X44576598Y-51786834D01*
X44671579Y-51557529D01*
X44720000Y-51314099D01*
X44720000Y-51065901D01*
X44671579Y-50822471D01*
X44576598Y-50593166D01*
X44438706Y-50386797D01*
X44263203Y-50211294D01*
X44056834Y-50073402D01*
X43827529Y-49978421D01*
X43584099Y-49930000D01*
X43335901Y-49930000D01*
X43092471Y-49978421D01*
X42863166Y-50073402D01*
X42656797Y-50211294D01*
X42481294Y-50386797D01*
X42343402Y-50593166D01*
X42248421Y-50822471D01*
X42200000Y-51065901D01*
X40685000Y-51065901D01*
X40685000Y-43496993D01*
X54832612Y-43496993D01*
X54898137Y-43735860D01*
X55145116Y-43851760D01*
X55409960Y-43917250D01*
X55682492Y-43929812D01*
X55952238Y-43888965D01*
X56208832Y-43796277D01*
X56321863Y-43735860D01*
X56387388Y-43496993D01*
X55610000Y-42719605D01*
X54832612Y-43496993D01*
X40685000Y-43496993D01*
X40685000Y-42612492D01*
X54220188Y-42612492D01*
X54261035Y-42882238D01*
X54353723Y-43138832D01*
X54414140Y-43251863D01*
X54653007Y-43317388D01*
X55430395Y-42540000D01*
X54653007Y-41762612D01*
X54414140Y-41828137D01*
X54298240Y-42075116D01*
X54232750Y-42339960D01*
X54220188Y-42612492D01*
X40685000Y-42612492D01*
X40685000Y-41583007D01*
X54832612Y-41583007D01*
X55610000Y-42360395D01*
X56387388Y-41583007D01*
X56321863Y-41344140D01*
X56074884Y-41228240D01*
X55810040Y-41162750D01*
X55537508Y-41150188D01*
X55267762Y-41191035D01*
X55011168Y-41283723D01*
X54898137Y-41344140D01*
X54832612Y-41583007D01*
X40685000Y-41583007D01*
X40685000Y-39863589D01*
X55495000Y-39863589D01*
X55495000Y-40136411D01*
X55548225Y-40403989D01*
X55652629Y-40656043D01*
X55804201Y-40882886D01*
X55997114Y-41075799D01*
X56223957Y-41227371D01*
X56476011Y-41331775D01*
X56743589Y-41385000D01*
X57016411Y-41385000D01*
X57283989Y-41331775D01*
X57536043Y-41227371D01*
X57762886Y-41075799D01*
X57955799Y-40882886D01*
X58107371Y-40656043D01*
X58150000Y-40553127D01*
X58192629Y-40656043D01*
X58344201Y-40882886D01*
X58537114Y-41075799D01*
X58763957Y-41227371D01*
X59016011Y-41331775D01*
X59283589Y-41385000D01*
X59556411Y-41385000D01*
X59823989Y-41331775D01*
X60076043Y-41227371D01*
X60302886Y-41075799D01*
X60495799Y-40882886D01*
X60647371Y-40656043D01*
X60690000Y-40553127D01*
X60732629Y-40656043D01*
X60884201Y-40882886D01*
X61077114Y-41075799D01*
X61303957Y-41227371D01*
X61556011Y-41331775D01*
X61823589Y-41385000D01*
X62096411Y-41385000D01*
X62363989Y-41331775D01*
X62616043Y-41227371D01*
X62842886Y-41075799D01*
X63035799Y-40882886D01*
X63113555Y-40766517D01*
X63124188Y-40874482D01*
X63160498Y-40994180D01*
X63219463Y-41104494D01*
X63260912Y-41155000D01*
X63093589Y-41155000D01*
X62826011Y-41208225D01*
X62573957Y-41312629D01*
X62347114Y-41464201D01*
X62154201Y-41657114D01*
X62002629Y-41883957D01*
X61960000Y-41986873D01*
X61917371Y-41883957D01*
X61765799Y-41657114D01*
X61572886Y-41464201D01*
X61346043Y-41312629D01*
X61093989Y-41208225D01*
X60826411Y-41155000D01*
X60553589Y-41155000D01*
X60286011Y-41208225D01*
X60033957Y-41312629D01*
X59807114Y-41464201D01*
X59614201Y-41657114D01*
X59462629Y-41883957D01*
X59420000Y-41986873D01*
X59377371Y-41883957D01*
X59225799Y-41657114D01*
X59032886Y-41464201D01*
X58806043Y-41312629D01*
X58553989Y-41208225D01*
X58286411Y-41155000D01*
X58013589Y-41155000D01*
X57746011Y-41208225D01*
X57493957Y-41312629D01*
X57267114Y-41464201D01*
X57074201Y-41657114D01*
X56922629Y-41883957D01*
X56881489Y-41983279D01*
X56866277Y-41941168D01*
X56805860Y-41828137D01*
X56566993Y-41762612D01*
X55789605Y-42540000D01*
X56566993Y-43317388D01*
X56805860Y-43251863D01*
X56880164Y-43093523D01*
X56922629Y-43196043D01*
X57074201Y-43422886D01*
X57267114Y-43615799D01*
X57493957Y-43767371D01*
X57746011Y-43871775D01*
X58013589Y-43925000D01*
X58286411Y-43925000D01*
X58553989Y-43871775D01*
X58806043Y-43767371D01*
X59032886Y-43615799D01*
X59225799Y-43422886D01*
X59377371Y-43196043D01*
X59420000Y-43093127D01*
X59462629Y-43196043D01*
X59614201Y-43422886D01*
X59807114Y-43615799D01*
X60033957Y-43767371D01*
X60286011Y-43871775D01*
X60553589Y-43925000D01*
X60826411Y-43925000D01*
X61093989Y-43871775D01*
X61346043Y-43767371D01*
X61572886Y-43615799D01*
X61765799Y-43422886D01*
X61917371Y-43196043D01*
X61960000Y-43093127D01*
X62002629Y-43196043D01*
X62154201Y-43422886D01*
X62347114Y-43615799D01*
X62573957Y-43767371D01*
X62826011Y-43871775D01*
X63093589Y-43925000D01*
X63366411Y-43925000D01*
X63633989Y-43871775D01*
X63886043Y-43767371D01*
X64112886Y-43615799D01*
X64305799Y-43422886D01*
X64457371Y-43196043D01*
X64561775Y-42943989D01*
X64615000Y-42676411D01*
X64615000Y-42403589D01*
X64561775Y-42136011D01*
X64457371Y-41883957D01*
X64305799Y-41657114D01*
X64112886Y-41464201D01*
X63998951Y-41388072D01*
X65250000Y-41388072D01*
X65374482Y-41375812D01*
X65494180Y-41339502D01*
X65604494Y-41280537D01*
X65701185Y-41201185D01*
X65780537Y-41104494D01*
X65839502Y-40994180D01*
X65875812Y-40874482D01*
X65888072Y-40750000D01*
X65888072Y-39250000D01*
X65875812Y-39125518D01*
X65839502Y-39005820D01*
X65780537Y-38895506D01*
X65701185Y-38798815D01*
X65604494Y-38719463D01*
X65494180Y-38660498D01*
X65374482Y-38624188D01*
X65250000Y-38611928D01*
X63750000Y-38611928D01*
X63625518Y-38624188D01*
X63505820Y-38660498D01*
X63395506Y-38719463D01*
X63298815Y-38798815D01*
X63219463Y-38895506D01*
X63160498Y-39005820D01*
X63124188Y-39125518D01*
X63113555Y-39233483D01*
X63035799Y-39117114D01*
X62842886Y-38924201D01*
X62616043Y-38772629D01*
X62363989Y-38668225D01*
X62096411Y-38615000D01*
X61823589Y-38615000D01*
X61556011Y-38668225D01*
X61303957Y-38772629D01*
X61077114Y-38924201D01*
X60884201Y-39117114D01*
X60732629Y-39343957D01*
X60690000Y-39446873D01*
X60647371Y-39343957D01*
X60495799Y-39117114D01*
X60302886Y-38924201D01*
X60076043Y-38772629D01*
X59823989Y-38668225D01*
X59556411Y-38615000D01*
X59283589Y-38615000D01*
X59016011Y-38668225D01*
X58763957Y-38772629D01*
X58537114Y-38924201D01*
X58344201Y-39117114D01*
X58192629Y-39343957D01*
X58150000Y-39446873D01*
X58107371Y-39343957D01*
X57955799Y-39117114D01*
X57762886Y-38924201D01*
X57536043Y-38772629D01*
X57283989Y-38668225D01*
X57016411Y-38615000D01*
X56743589Y-38615000D01*
X56476011Y-38668225D01*
X56223957Y-38772629D01*
X55997114Y-38924201D01*
X55804201Y-39117114D01*
X55652629Y-39343957D01*
X55548225Y-39596011D01*
X55495000Y-39863589D01*
X40685000Y-39863589D01*
X40685000Y-36700881D01*
X41478724Y-36700881D01*
X41838912Y-37190548D01*
X42502882Y-37550849D01*
X43224385Y-37774694D01*
X43975695Y-37853480D01*
X44727938Y-37784178D01*
X45452208Y-37569452D01*
X46120670Y-37217555D01*
X46161088Y-37190548D01*
X46521276Y-36700881D01*
X73478724Y-36700881D01*
X73838912Y-37190548D01*
X74502882Y-37550849D01*
X75224385Y-37774694D01*
X75975695Y-37853480D01*
X76727938Y-37784178D01*
X77452208Y-37569452D01*
X78120670Y-37217555D01*
X78161088Y-37190548D01*
X78521276Y-36700881D01*
X76000000Y-34179605D01*
X73478724Y-36700881D01*
X46521276Y-36700881D01*
X44000000Y-34179605D01*
X41478724Y-36700881D01*
X40685000Y-36700881D01*
X40685000Y-35935564D01*
X40782445Y-36120670D01*
X40809452Y-36161088D01*
X41299119Y-36521276D01*
X43820395Y-34000000D01*
X44179605Y-34000000D01*
X46700881Y-36521276D01*
X47190548Y-36161088D01*
X47550849Y-35497118D01*
X47774694Y-34775615D01*
X47853480Y-34024305D01*
X47796675Y-33407711D01*
X51660000Y-33407711D01*
X51660000Y-33892289D01*
X51754536Y-34367556D01*
X51939976Y-34815247D01*
X52209193Y-35218159D01*
X52551841Y-35560807D01*
X52954753Y-35830024D01*
X53402444Y-36015464D01*
X53877711Y-36110000D01*
X54362289Y-36110000D01*
X54837556Y-36015464D01*
X55285247Y-35830024D01*
X55688159Y-35560807D01*
X56030807Y-35218159D01*
X56300024Y-34815247D01*
X56485464Y-34367556D01*
X56580000Y-33892289D01*
X56580000Y-33407711D01*
X63530000Y-33407711D01*
X63530000Y-33892289D01*
X63624536Y-34367556D01*
X63809976Y-34815247D01*
X64079193Y-35218159D01*
X64421841Y-35560807D01*
X64824753Y-35830024D01*
X65272444Y-36015464D01*
X65747711Y-36110000D01*
X66232289Y-36110000D01*
X66707556Y-36015464D01*
X67155247Y-35830024D01*
X67558159Y-35560807D01*
X67900807Y-35218159D01*
X68170024Y-34815247D01*
X68355464Y-34367556D01*
X68433409Y-33975695D01*
X72146520Y-33975695D01*
X72215822Y-34727938D01*
X72430548Y-35452208D01*
X72782445Y-36120670D01*
X72809452Y-36161088D01*
X73299119Y-36521276D01*
X75820395Y-34000000D01*
X73299119Y-31478724D01*
X72809452Y-31838912D01*
X72449151Y-32502882D01*
X72225306Y-33224385D01*
X72146520Y-33975695D01*
X68433409Y-33975695D01*
X68450000Y-33892289D01*
X68450000Y-33407711D01*
X68355464Y-32932444D01*
X68170024Y-32484753D01*
X67900807Y-32081841D01*
X67558159Y-31739193D01*
X67155247Y-31469976D01*
X66707556Y-31284536D01*
X66232289Y-31190000D01*
X65747711Y-31190000D01*
X65272444Y-31284536D01*
X64824753Y-31469976D01*
X64421841Y-31739193D01*
X64079193Y-32081841D01*
X63809976Y-32484753D01*
X63624536Y-32932444D01*
X63530000Y-33407711D01*
X56580000Y-33407711D01*
X56485464Y-32932444D01*
X56300024Y-32484753D01*
X56030807Y-32081841D01*
X55688159Y-31739193D01*
X55285247Y-31469976D01*
X54837556Y-31284536D01*
X54362289Y-31190000D01*
X53877711Y-31190000D01*
X53402444Y-31284536D01*
X52954753Y-31469976D01*
X52551841Y-31739193D01*
X52209193Y-32081841D01*
X51939976Y-32484753D01*
X51754536Y-32932444D01*
X51660000Y-33407711D01*
X47796675Y-33407711D01*
X47784178Y-33272062D01*
X47569452Y-32547792D01*
X47217555Y-31879330D01*
X47190548Y-31838912D01*
X46700881Y-31478724D01*
X44179605Y-34000000D01*
X43820395Y-34000000D01*
X43806253Y-33985858D01*
X43985858Y-33806253D01*
X44000000Y-33820395D01*
X46521276Y-31299119D01*
X46161088Y-30809452D01*
X45931745Y-30685000D01*
X74064436Y-30685000D01*
X73879330Y-30782445D01*
G37*
X73879330Y-30782445D02*
X73838912Y-30809452D01*
X73478724Y-31299119D01*
X76000000Y-33820395D01*
X76014143Y-33806253D01*
X76193748Y-33985858D01*
X76179605Y-34000000D01*
X78700881Y-36521276D01*
X79190548Y-36161088D01*
X79315000Y-35931745D01*
X79315001Y-84064438D01*
X79217555Y-83879330D01*
X79190548Y-83838912D01*
X78700881Y-83478724D01*
X76179605Y-86000000D01*
X76193748Y-86014143D01*
X76014143Y-86193748D01*
X76000000Y-86179605D01*
X73478724Y-88700881D01*
X73838912Y-89190548D01*
X74068255Y-89315000D01*
X45935564Y-89315000D01*
X46120670Y-89217555D01*
X46161088Y-89190548D01*
X46521276Y-88700881D01*
X44000000Y-86179605D01*
X43985858Y-86193748D01*
X43806253Y-86014143D01*
X43820395Y-86000000D01*
X44179605Y-86000000D01*
X46700881Y-88521276D01*
X47190548Y-88161088D01*
X47550849Y-87497118D01*
X47774694Y-86775615D01*
X47853480Y-86024305D01*
X47837767Y-85853740D01*
X48815000Y-85853740D01*
X48815000Y-86146260D01*
X48872068Y-86433158D01*
X48984010Y-86703411D01*
X49146525Y-86946632D01*
X49353368Y-87153475D01*
X49596589Y-87315990D01*
X49866842Y-87427932D01*
X50153740Y-87485000D01*
X50446260Y-87485000D01*
X50733158Y-87427932D01*
X51003411Y-87315990D01*
X51246632Y-87153475D01*
X51453475Y-86946632D01*
X51570000Y-86772240D01*
X51686525Y-86946632D01*
X51893368Y-87153475D01*
X52136589Y-87315990D01*
X52406842Y-87427932D01*
X52693740Y-87485000D01*
X52986260Y-87485000D01*
X53273158Y-87427932D01*
X53543411Y-87315990D01*
X53786632Y-87153475D01*
X53993475Y-86946632D01*
X54110000Y-86772240D01*
X54226525Y-86946632D01*
X54433368Y-87153475D01*
X54676589Y-87315990D01*
X54946842Y-87427932D01*
X55233740Y-87485000D01*
X55526260Y-87485000D01*
X55813158Y-87427932D01*
X56083411Y-87315990D01*
X56326632Y-87153475D01*
X56533475Y-86946632D01*
X56650000Y-86772240D01*
X56766525Y-86946632D01*
X56973368Y-87153475D01*
X57216589Y-87315990D01*
X57486842Y-87427932D01*
X57773740Y-87485000D01*
X58066260Y-87485000D01*
X58353158Y-87427932D01*
X58623411Y-87315990D01*
X58866632Y-87153475D01*
X59073475Y-86946632D01*
X59190000Y-86772240D01*
X59306525Y-86946632D01*
X59513368Y-87153475D01*
X59756589Y-87315990D01*
X60026842Y-87427932D01*
X60313740Y-87485000D01*
X60606260Y-87485000D01*
X60893158Y-87427932D01*
X61163411Y-87315990D01*
X61406632Y-87153475D01*
X61538487Y-87021620D01*
X61560498Y-87094180D01*
X61619463Y-87204494D01*
X61698815Y-87301185D01*
X61795506Y-87380537D01*
X61905820Y-87439502D01*
X62025518Y-87475812D01*
X62150000Y-87488072D01*
X62714250Y-87485000D01*
X62873000Y-87326250D01*
X62873000Y-86127000D01*
X63127000Y-86127000D01*
X63127000Y-87326250D01*
X63285750Y-87485000D01*
X63850000Y-87488072D01*
X63974482Y-87475812D01*
X64094180Y-87439502D01*
X64204494Y-87380537D01*
X64301185Y-87301185D01*
X64380537Y-87204494D01*
X64439502Y-87094180D01*
X64475812Y-86974482D01*
X64488072Y-86850000D01*
X64485000Y-86285750D01*
X64326250Y-86127000D01*
X63127000Y-86127000D01*
X62873000Y-86127000D01*
X62853000Y-86127000D01*
X62853000Y-85975695D01*
X72146520Y-85975695D01*
X72215822Y-86727938D01*
X72430548Y-87452208D01*
X72782445Y-88120670D01*
X72809452Y-88161088D01*
X73299119Y-88521276D01*
X75820395Y-86000000D01*
X73299119Y-83478724D01*
X72809452Y-83838912D01*
X72449151Y-84502882D01*
X72225306Y-85224385D01*
X72146520Y-85975695D01*
X62853000Y-85975695D01*
X62853000Y-85873000D01*
X62873000Y-85873000D01*
X62873000Y-84673750D01*
X63127000Y-84673750D01*
X63127000Y-85873000D01*
X64326250Y-85873000D01*
X64485000Y-85714250D01*
X64488072Y-85150000D01*
X64475812Y-85025518D01*
X64439502Y-84905820D01*
X64380537Y-84795506D01*
X64301185Y-84698815D01*
X64204494Y-84619463D01*
X64094180Y-84560498D01*
X63974482Y-84524188D01*
X63850000Y-84511928D01*
X63285750Y-84515000D01*
X63127000Y-84673750D01*
X62873000Y-84673750D01*
X62714250Y-84515000D01*
X62150000Y-84511928D01*
X62025518Y-84524188D01*
X61905820Y-84560498D01*
X61795506Y-84619463D01*
X61698815Y-84698815D01*
X61619463Y-84795506D01*
X61560498Y-84905820D01*
X61538487Y-84978380D01*
X61406632Y-84846525D01*
X61345000Y-84805344D01*
X61345000Y-81889039D01*
X64608096Y-81889039D01*
X64648754Y-82023087D01*
X64768963Y-82277420D01*
X64936481Y-82503414D01*
X65144869Y-82692385D01*
X65386119Y-82837070D01*
X65650960Y-82931909D01*
X65873000Y-82810624D01*
X65873000Y-81667000D01*
X66127000Y-81667000D01*
X66127000Y-82810624D01*
X66349040Y-82931909D01*
X66613881Y-82837070D01*
X66855131Y-82692385D01*
X67063519Y-82503414D01*
X67231037Y-82277420D01*
X67351246Y-82023087D01*
X67391904Y-81889039D01*
X67269915Y-81667000D01*
X66127000Y-81667000D01*
X65873000Y-81667000D01*
X64730085Y-81667000D01*
X64608096Y-81889039D01*
X61345000Y-81889039D01*
X61345000Y-80906578D01*
X61366578Y-80885000D01*
X62956531Y-80885000D01*
X63000000Y-80889281D01*
X63043469Y-80885000D01*
X63043477Y-80885000D01*
X63173490Y-80872195D01*
X63340313Y-80821589D01*
X63494059Y-80739411D01*
X63628817Y-80628817D01*
X63656534Y-80595044D01*
X64366579Y-79885000D01*
X64570299Y-79885000D01*
X64574188Y-79924482D01*
X64610498Y-80044180D01*
X64669463Y-80154494D01*
X64748815Y-80251185D01*
X64845506Y-80330537D01*
X64955820Y-80389502D01*
X65075518Y-80425812D01*
X65100080Y-80428231D01*
X64936481Y-80576586D01*
X64768963Y-80802580D01*
X64648754Y-81056913D01*
X64608096Y-81190961D01*
X64730085Y-81413000D01*
X65873000Y-81413000D01*
X65873000Y-81393000D01*
X66127000Y-81393000D01*
X66127000Y-81413000D01*
X67269915Y-81413000D01*
X67391904Y-81190961D01*
X67351246Y-81056913D01*
X67231037Y-80802580D01*
X67063519Y-80576586D01*
X66899920Y-80428231D01*
X66924482Y-80425812D01*
X67044180Y-80389502D01*
X67154494Y-80330537D01*
X67251185Y-80251185D01*
X67330537Y-80154494D01*
X67389502Y-80044180D01*
X67425812Y-79924482D01*
X67438072Y-79800000D01*
X67438072Y-78200000D01*
X67425812Y-78075518D01*
X67389502Y-77955820D01*
X67330537Y-77845506D01*
X67251185Y-77748815D01*
X67154494Y-77669463D01*
X67044180Y-77610498D01*
X66924482Y-77574188D01*
X66800000Y-77561928D01*
X65200000Y-77561928D01*
X65075518Y-77574188D01*
X64955820Y-77610498D01*
X64845506Y-77669463D01*
X64748815Y-77748815D01*
X64669463Y-77845506D01*
X64610498Y-77955820D01*
X64574188Y-78075518D01*
X64570299Y-78115000D01*
X64043469Y-78115000D01*
X64000000Y-78110719D01*
X63956531Y-78115000D01*
X63956523Y-78115000D01*
X63826510Y-78127805D01*
X63659686Y-78178411D01*
X63505941Y-78260589D01*
X63404953Y-78343468D01*
X63404951Y-78343470D01*
X63371183Y-78371183D01*
X63343470Y-78404951D01*
X62633422Y-79115000D01*
X61640156Y-79115000D01*
X61739411Y-78994059D01*
X61821589Y-78840313D01*
X61872195Y-78673490D01*
X61875401Y-78640935D01*
X61914759Y-78614637D01*
X62114637Y-78414759D01*
X62271680Y-78179727D01*
X62379853Y-77918574D01*
X62435000Y-77641335D01*
X62435000Y-77358665D01*
X62379853Y-77081426D01*
X62271680Y-76820273D01*
X62114637Y-76585241D01*
X61914759Y-76385363D01*
X61679727Y-76228320D01*
X61418574Y-76120147D01*
X61141335Y-76065000D01*
X60858665Y-76065000D01*
X60581426Y-76120147D01*
X60320273Y-76228320D01*
X60085241Y-76385363D01*
X59885363Y-76585241D01*
X59728320Y-76820273D01*
X59620147Y-77081426D01*
X59565000Y-77358665D01*
X59565000Y-77641335D01*
X59620147Y-77918574D01*
X59728320Y-78179727D01*
X59864655Y-78383767D01*
X59133422Y-79115000D01*
X55806692Y-79115000D01*
X55772729Y-79100932D01*
X55592089Y-79065000D01*
X55407911Y-79065000D01*
X55227271Y-79100932D01*
X55057111Y-79171414D01*
X54903972Y-79273738D01*
X54773738Y-79403972D01*
X54671414Y-79557111D01*
X54600932Y-79727271D01*
X54565000Y-79907911D01*
X54565000Y-80092089D01*
X54600932Y-80272729D01*
X54671414Y-80442889D01*
X54773738Y-80596028D01*
X54903972Y-80726262D01*
X55057111Y-80828586D01*
X55091077Y-80842655D01*
X57035001Y-82786580D01*
X57035000Y-84805344D01*
X56973368Y-84846525D01*
X56766525Y-85053368D01*
X56650000Y-85227760D01*
X56533475Y-85053368D01*
X56326632Y-84846525D01*
X56083411Y-84684010D01*
X55813158Y-84572068D01*
X55526260Y-84515000D01*
X55233740Y-84515000D01*
X54946842Y-84572068D01*
X54676589Y-84684010D01*
X54433368Y-84846525D01*
X54226525Y-85053368D01*
X54110000Y-85227760D01*
X53993475Y-85053368D01*
X53786632Y-84846525D01*
X53728331Y-84807569D01*
X53729281Y-84797919D01*
X53725000Y-84754450D01*
X53725000Y-84754442D01*
X53712195Y-84624429D01*
X53661589Y-84457606D01*
X53579411Y-84303860D01*
X53468817Y-84169102D01*
X53435049Y-84141389D01*
X51885000Y-82591341D01*
X51885000Y-74866578D01*
X52366579Y-74385000D01*
X55193308Y-74385000D01*
X55227271Y-74399068D01*
X55407911Y-74435000D01*
X55592089Y-74435000D01*
X55772729Y-74399068D01*
X55806692Y-74385000D01*
X64496531Y-74385000D01*
X64540000Y-74389281D01*
X64583469Y-74385000D01*
X64583477Y-74385000D01*
X64713490Y-74372195D01*
X64880313Y-74321589D01*
X65034059Y-74239411D01*
X65168817Y-74128817D01*
X65196534Y-74095044D01*
X65823561Y-73468017D01*
X65858665Y-73475000D01*
X66141335Y-73475000D01*
X66418574Y-73419853D01*
X66679727Y-73311680D01*
X66914759Y-73154637D01*
X67114637Y-72954759D01*
X67271680Y-72719727D01*
X67379853Y-72458574D01*
X67435000Y-72181335D01*
X67435000Y-71898665D01*
X67379853Y-71621426D01*
X67271680Y-71360273D01*
X67114637Y-71125241D01*
X66916039Y-70926643D01*
X66924482Y-70925812D01*
X67044180Y-70889502D01*
X67154494Y-70830537D01*
X67251185Y-70751185D01*
X67330537Y-70654494D01*
X67389502Y-70544180D01*
X67425812Y-70424482D01*
X67438072Y-70300000D01*
X67438072Y-69358665D01*
X72185000Y-69358665D01*
X72185000Y-69641335D01*
X72240147Y-69918574D01*
X72348320Y-70179727D01*
X72505363Y-70414759D01*
X72705241Y-70614637D01*
X72937759Y-70770000D01*
X72705241Y-70925363D01*
X72505363Y-71125241D01*
X72348320Y-71360273D01*
X72240147Y-71621426D01*
X72185000Y-71898665D01*
X72185000Y-72181335D01*
X72240147Y-72458574D01*
X72348320Y-72719727D01*
X72505363Y-72954759D01*
X72705241Y-73154637D01*
X72940273Y-73311680D01*
X73201426Y-73419853D01*
X73478665Y-73475000D01*
X73761335Y-73475000D01*
X74038574Y-73419853D01*
X74299727Y-73311680D01*
X74534759Y-73154637D01*
X74734637Y-72954759D01*
X74891680Y-72719727D01*
X74999853Y-72458574D01*
X75055000Y-72181335D01*
X75055000Y-71898665D01*
X74999853Y-71621426D01*
X74891680Y-71360273D01*
X74734637Y-71125241D01*
X74534759Y-70925363D01*
X74302241Y-70770000D01*
X74534759Y-70614637D01*
X74734637Y-70414759D01*
X74891680Y-70179727D01*
X74999853Y-69918574D01*
X75055000Y-69641335D01*
X75055000Y-69358665D01*
X74999853Y-69081426D01*
X74891680Y-68820273D01*
X74734637Y-68585241D01*
X74534759Y-68385363D01*
X74299727Y-68228320D01*
X74038574Y-68120147D01*
X73761335Y-68065000D01*
X73478665Y-68065000D01*
X73201426Y-68120147D01*
X72940273Y-68228320D01*
X72705241Y-68385363D01*
X72505363Y-68585241D01*
X72348320Y-68820273D01*
X72240147Y-69081426D01*
X72185000Y-69358665D01*
X67438072Y-69358665D01*
X67438072Y-68700000D01*
X67425812Y-68575518D01*
X67389502Y-68455820D01*
X67330537Y-68345506D01*
X67251185Y-68248815D01*
X67154494Y-68169463D01*
X67044180Y-68110498D01*
X66924482Y-68074188D01*
X66800000Y-68061928D01*
X65813507Y-68061928D01*
X61156534Y-63404956D01*
X61128817Y-63371183D01*
X60994059Y-63260589D01*
X60840313Y-63178411D01*
X60673490Y-63127805D01*
X60543477Y-63115000D01*
X60543469Y-63115000D01*
X60500000Y-63110719D01*
X60456531Y-63115000D01*
X55806692Y-63115000D01*
X55772729Y-63100932D01*
X55592089Y-63065000D01*
X55407911Y-63065000D01*
X55227271Y-63100932D01*
X55057111Y-63171414D01*
X54903972Y-63273738D01*
X54773738Y-63403972D01*
X54671414Y-63557111D01*
X54600932Y-63727271D01*
X54565000Y-63907911D01*
X54565000Y-64092089D01*
X54600932Y-64272729D01*
X54671414Y-64442889D01*
X54773738Y-64596028D01*
X54903972Y-64726262D01*
X55057111Y-64828586D01*
X55227271Y-64899068D01*
X55407911Y-64935000D01*
X55592089Y-64935000D01*
X55772729Y-64899068D01*
X55806692Y-64885000D01*
X60133422Y-64885000D01*
X64561928Y-69313507D01*
X64561928Y-70300000D01*
X64574188Y-70424482D01*
X64610498Y-70544180D01*
X64669463Y-70654494D01*
X64748815Y-70751185D01*
X64845506Y-70830537D01*
X64955820Y-70889502D01*
X65075518Y-70925812D01*
X65083961Y-70926643D01*
X64885363Y-71125241D01*
X64728320Y-71360273D01*
X64620147Y-71621426D01*
X64565000Y-71898665D01*
X64565000Y-72181335D01*
X64571983Y-72216439D01*
X64173422Y-72615000D01*
X56385000Y-72615000D01*
X56385000Y-70806692D01*
X56399068Y-70772729D01*
X56435000Y-70592089D01*
X56435000Y-70407911D01*
X56399068Y-70227271D01*
X56328586Y-70057111D01*
X56226262Y-69903972D01*
X56096028Y-69773738D01*
X56043538Y-69738665D01*
X59565000Y-69738665D01*
X59565000Y-70021335D01*
X59620147Y-70298574D01*
X59728320Y-70559727D01*
X59885363Y-70794759D01*
X60085241Y-70994637D01*
X60320273Y-71151680D01*
X60581426Y-71259853D01*
X60858665Y-71315000D01*
X61141335Y-71315000D01*
X61418574Y-71259853D01*
X61679727Y-71151680D01*
X61914759Y-70994637D01*
X62114637Y-70794759D01*
X62271680Y-70559727D01*
X62379853Y-70298574D01*
X62435000Y-70021335D01*
X62435000Y-69738665D01*
X62379853Y-69461426D01*
X62271680Y-69200273D01*
X62114637Y-68965241D01*
X61914759Y-68765363D01*
X61679727Y-68608320D01*
X61418574Y-68500147D01*
X61141335Y-68445000D01*
X60858665Y-68445000D01*
X60581426Y-68500147D01*
X60320273Y-68608320D01*
X60085241Y-68765363D01*
X59885363Y-68965241D01*
X59728320Y-69200273D01*
X59620147Y-69461426D01*
X59565000Y-69738665D01*
X56043538Y-69738665D01*
X55942889Y-69671414D01*
X55772729Y-69600932D01*
X55592089Y-69565000D01*
X55407911Y-69565000D01*
X55227271Y-69600932D01*
X55057111Y-69671414D01*
X54903972Y-69773738D01*
X54773738Y-69903972D01*
X54671414Y-70057111D01*
X54600932Y-70227271D01*
X54565000Y-70407911D01*
X54565000Y-70592089D01*
X54600932Y-70772729D01*
X54615001Y-70806695D01*
X54615000Y-72615000D01*
X52043469Y-72615000D01*
X52000000Y-72610719D01*
X51956531Y-72615000D01*
X51956523Y-72615000D01*
X51826510Y-72627805D01*
X51659686Y-72678411D01*
X51505941Y-72760589D01*
X51404953Y-72843468D01*
X51404951Y-72843470D01*
X51371183Y-72871183D01*
X51343470Y-72904951D01*
X50404951Y-73843471D01*
X50371184Y-73871183D01*
X50343471Y-73904951D01*
X50343468Y-73904954D01*
X50260590Y-74005941D01*
X50178412Y-74159687D01*
X50127805Y-74326510D01*
X50110719Y-74500000D01*
X50115001Y-74543479D01*
X50115000Y-82043476D01*
X50115001Y-82043485D01*
X50115000Y-82914449D01*
X50110719Y-82957919D01*
X50115000Y-83001388D01*
X50115000Y-83001395D01*
X50127805Y-83131408D01*
X50178411Y-83298231D01*
X50260589Y-83451977D01*
X50371183Y-83586736D01*
X50404956Y-83614453D01*
X51765198Y-84974695D01*
X51686525Y-85053368D01*
X51570000Y-85227760D01*
X51453475Y-85053368D01*
X51246632Y-84846525D01*
X51003411Y-84684010D01*
X50733158Y-84572068D01*
X50446260Y-84515000D01*
X50153740Y-84515000D01*
X49866842Y-84572068D01*
X49596589Y-84684010D01*
X49353368Y-84846525D01*
X49146525Y-85053368D01*
X48984010Y-85296589D01*
X48872068Y-85566842D01*
X48815000Y-85853740D01*
X47837767Y-85853740D01*
X47784178Y-85272062D01*
X47569452Y-84547792D01*
X47217555Y-83879330D01*
X47190548Y-83838912D01*
X46700881Y-83478724D01*
X44179605Y-86000000D01*
X43820395Y-86000000D01*
X41299119Y-83478724D01*
X40809452Y-83838912D01*
X40685000Y-84068255D01*
X40685000Y-83299119D01*
X41478724Y-83299119D01*
X44000000Y-85820395D01*
X46521276Y-83299119D01*
X46161088Y-82809452D01*
X45497118Y-82449151D01*
X44775615Y-82225306D01*
X44024305Y-82146520D01*
X43272062Y-82215822D01*
X42547792Y-82430548D01*
X41879330Y-82782445D01*
X41838912Y-82809452D01*
X41478724Y-83299119D01*
X40685000Y-83299119D01*
X40685000Y-58185000D01*
X42196928Y-58185000D01*
X42196928Y-59435000D01*
X42209188Y-59559482D01*
X42245498Y-59679180D01*
X42304463Y-59789494D01*
X42383815Y-59886185D01*
X42480506Y-59965537D01*
X42590820Y-60024502D01*
X42710518Y-60060812D01*
X42835000Y-60073072D01*
X44085000Y-60073072D01*
X44209482Y-60060812D01*
X44329180Y-60024502D01*
X44439494Y-59965537D01*
X44536185Y-59886185D01*
X44615537Y-59789494D01*
X44674502Y-59679180D01*
X44710812Y-59559482D01*
X44723072Y-59435000D01*
X44723072Y-58685901D01*
X44740000Y-58685901D01*
X44740000Y-58934099D01*
X44788421Y-59177529D01*
X44883402Y-59406834D01*
X45021294Y-59613203D01*
X45196797Y-59788706D01*
X45403166Y-59926598D01*
X45632471Y-60021579D01*
X45875901Y-60070000D01*
X46124099Y-60070000D01*
X46367529Y-60021579D01*
X46596834Y-59926598D01*
X46803203Y-59788706D01*
X46978706Y-59613203D01*
X47116598Y-59406834D01*
X47211579Y-59177529D01*
X47260000Y-58934099D01*
X47260000Y-58685901D01*
X47280000Y-58685901D01*
X47280000Y-58934099D01*
X47328421Y-59177529D01*
X47423402Y-59406834D01*
X47561294Y-59613203D01*
X47736797Y-59788706D01*
X47943166Y-59926598D01*
X48172471Y-60021579D01*
X48415901Y-60070000D01*
X48664099Y-60070000D01*
X48907529Y-60021579D01*
X49136834Y-59926598D01*
X49343203Y-59788706D01*
X49518706Y-59613203D01*
X49656598Y-59406834D01*
X49751579Y-59177529D01*
X49800000Y-58934099D01*
X49800000Y-58685901D01*
X49751579Y-58442471D01*
X49656598Y-58213166D01*
X49518706Y-58006797D01*
X49343203Y-57831294D01*
X49136834Y-57693402D01*
X48907529Y-57598421D01*
X48664099Y-57550000D01*
X48415901Y-57550000D01*
X48172471Y-57598421D01*
X47943166Y-57693402D01*
X47736797Y-57831294D01*
X47561294Y-58006797D01*
X47423402Y-58213166D01*
X47328421Y-58442471D01*
X47280000Y-58685901D01*
X47260000Y-58685901D01*
X47211579Y-58442471D01*
X47116598Y-58213166D01*
X46978706Y-58006797D01*
X46803203Y-57831294D01*
X46596834Y-57693402D01*
X46367529Y-57598421D01*
X46124099Y-57550000D01*
X45875901Y-57550000D01*
X45632471Y-57598421D01*
X45403166Y-57693402D01*
X45196797Y-57831294D01*
X45021294Y-58006797D01*
X44883402Y-58213166D01*
X44788421Y-58442471D01*
X44740000Y-58685901D01*
X44723072Y-58685901D01*
X44723072Y-58185000D01*
X44710812Y-58060518D01*
X44674502Y-57940820D01*
X44615537Y-57830506D01*
X44536185Y-57733815D01*
X44439494Y-57654463D01*
X44329180Y-57595498D01*
X44209482Y-57559188D01*
X44085000Y-57546928D01*
X42835000Y-57546928D01*
X42710518Y-57559188D01*
X42590820Y-57595498D01*
X42480506Y-57654463D01*
X42383815Y-57733815D01*
X42304463Y-57830506D01*
X42245498Y-57940820D01*
X42209188Y-58060518D01*
X42196928Y-58185000D01*
X40685000Y-58185000D01*
X40685000Y-51065901D01*
X42200000Y-51065901D01*
X42200000Y-51314099D01*
X42248421Y-51557529D01*
X42343402Y-51786834D01*
X42481294Y-51993203D01*
X42584115Y-52096024D01*
X42587805Y-52133489D01*
X42638411Y-52300312D01*
X42720589Y-52454058D01*
X42831183Y-52588817D01*
X42864956Y-52616534D01*
X44343470Y-54095049D01*
X44371183Y-54128817D01*
X44404951Y-54156530D01*
X44404953Y-54156532D01*
X44505941Y-54239411D01*
X44659687Y-54321589D01*
X44826510Y-54372195D01*
X44956523Y-54385000D01*
X44956531Y-54385000D01*
X45000000Y-54389281D01*
X45043469Y-54385000D01*
X55633422Y-54385000D01*
X60573470Y-59325049D01*
X60601183Y-59358817D01*
X60634951Y-59386530D01*
X60634953Y-59386532D01*
X60659691Y-59406834D01*
X60735941Y-59469411D01*
X60889687Y-59551589D01*
X60980684Y-59579193D01*
X61056509Y-59602195D01*
X61071306Y-59603652D01*
X61186523Y-59615000D01*
X61186531Y-59615000D01*
X61230000Y-59619281D01*
X61273469Y-59615000D01*
X62923308Y-59615000D01*
X62957271Y-59629068D01*
X63137911Y-59665000D01*
X63322089Y-59665000D01*
X63502729Y-59629068D01*
X63536692Y-59615000D01*
X66386315Y-59615000D01*
X66575000Y-59803685D01*
X66575001Y-64916521D01*
X66570719Y-64960000D01*
X66587805Y-65133490D01*
X66638412Y-65300313D01*
X66720590Y-65454059D01*
X66803468Y-65555046D01*
X66803471Y-65555049D01*
X66831184Y-65588817D01*
X66853151Y-65606845D01*
X66871183Y-65628817D01*
X67005941Y-65739411D01*
X67159687Y-65821589D01*
X67326510Y-65872195D01*
X67456523Y-65885000D01*
X67456531Y-65885000D01*
X67500000Y-65889281D01*
X67543469Y-65885000D01*
X74133422Y-65885000D01*
X76115000Y-67866579D01*
X76115001Y-79855001D01*
X74774566Y-79855001D01*
X74891680Y-79679727D01*
X74999853Y-79418574D01*
X75055000Y-79141335D01*
X75055000Y-78858665D01*
X74999853Y-78581426D01*
X74891680Y-78320273D01*
X74734637Y-78085241D01*
X74534759Y-77885363D01*
X74299727Y-77728320D01*
X74038574Y-77620147D01*
X73761335Y-77565000D01*
X73478665Y-77565000D01*
X73201426Y-77620147D01*
X72940273Y-77728320D01*
X72705241Y-77885363D01*
X72505363Y-78085241D01*
X72348320Y-78320273D01*
X72240147Y-78581426D01*
X72185000Y-78858665D01*
X72185000Y-79141335D01*
X72240147Y-79418574D01*
X72348320Y-79679727D01*
X72505363Y-79914759D01*
X72705241Y-80114637D01*
X72937759Y-80270000D01*
X72705241Y-80425363D01*
X72505363Y-80625241D01*
X72348320Y-80860273D01*
X72240147Y-81121426D01*
X72185000Y-81398665D01*
X72185000Y-81681335D01*
X72240147Y-81958574D01*
X72348320Y-82219727D01*
X72505363Y-82454759D01*
X72705241Y-82654637D01*
X72940273Y-82811680D01*
X73201426Y-82919853D01*
X73478665Y-82975000D01*
X73717139Y-82975000D01*
X73478724Y-83299119D01*
X76000000Y-85820395D01*
X78521276Y-83299119D01*
X78161088Y-82809452D01*
X77497118Y-82449151D01*
X76775615Y-82225306D01*
X76024305Y-82146520D01*
X75272062Y-82215822D01*
X74800967Y-82355489D01*
X74891680Y-82219727D01*
X74999853Y-81958574D01*
X75055000Y-81681335D01*
X75055000Y-81625001D01*
X76696530Y-81625001D01*
X76739999Y-81629282D01*
X76783468Y-81625001D01*
X76783476Y-81625001D01*
X76913489Y-81612196D01*
X77080312Y-81561590D01*
X77234058Y-81479412D01*
X77368816Y-81368818D01*
X77396533Y-81335045D01*
X77595044Y-81136534D01*
X77628817Y-81108817D01*
X77739411Y-80974059D01*
X77821589Y-80820313D01*
X77872195Y-80653490D01*
X77885000Y-80523477D01*
X77885000Y-80523469D01*
X77889281Y-80480000D01*
X77885000Y-80436531D01*
X77885000Y-67543469D01*
X77889281Y-67500000D01*
X77885000Y-67456531D01*
X77885000Y-67456523D01*
X77872195Y-67326510D01*
X77821589Y-67159687D01*
X77739411Y-67005941D01*
X77628817Y-66871183D01*
X77595050Y-66843471D01*
X75156532Y-64404954D01*
X75128817Y-64371183D01*
X74994059Y-64260589D01*
X74840313Y-64178411D01*
X74673490Y-64127805D01*
X74543477Y-64115000D01*
X74543469Y-64115000D01*
X74500000Y-64110719D01*
X74456531Y-64115000D01*
X68345000Y-64115000D01*
X68345000Y-59803685D01*
X68535799Y-59612886D01*
X68611928Y-59498951D01*
X68611928Y-60750000D01*
X68624188Y-60874482D01*
X68660498Y-60994180D01*
X68719463Y-61104494D01*
X68798815Y-61201185D01*
X68895506Y-61280537D01*
X69005820Y-61339502D01*
X69125518Y-61375812D01*
X69250000Y-61388072D01*
X70750000Y-61388072D01*
X70874482Y-61375812D01*
X70994180Y-61339502D01*
X71104494Y-61280537D01*
X71144492Y-61247711D01*
X73890000Y-61247711D01*
X73890000Y-61732289D01*
X73984536Y-62207556D01*
X74169976Y-62655247D01*
X74439193Y-63058159D01*
X74781841Y-63400807D01*
X75184753Y-63670024D01*
X75632444Y-63855464D01*
X76107711Y-63950000D01*
X76592289Y-63950000D01*
X77067556Y-63855464D01*
X77515247Y-63670024D01*
X77918159Y-63400807D01*
X78260807Y-63058159D01*
X78530024Y-62655247D01*
X78715464Y-62207556D01*
X78810000Y-61732289D01*
X78810000Y-61247711D01*
X78715464Y-60772444D01*
X78530024Y-60324753D01*
X78260807Y-59921841D01*
X77918159Y-59579193D01*
X77515247Y-59309976D01*
X77067556Y-59124536D01*
X76592289Y-59030000D01*
X76107711Y-59030000D01*
X75632444Y-59124536D01*
X75184753Y-59309976D01*
X74781841Y-59579193D01*
X74439193Y-59921841D01*
X74169976Y-60324753D01*
X73984536Y-60772444D01*
X73890000Y-61247711D01*
X71144492Y-61247711D01*
X71201185Y-61201185D01*
X71280537Y-61104494D01*
X71339502Y-60994180D01*
X71375812Y-60874482D01*
X71388072Y-60750000D01*
X71388072Y-59250000D01*
X71375812Y-59125518D01*
X71339502Y-59005820D01*
X71280537Y-58895506D01*
X71201185Y-58798815D01*
X71104494Y-58719463D01*
X70994180Y-58660498D01*
X70874482Y-58624188D01*
X70766517Y-58613555D01*
X70882886Y-58535799D01*
X71075799Y-58342886D01*
X71227371Y-58116043D01*
X71331775Y-57863989D01*
X71385000Y-57596411D01*
X71385000Y-57323589D01*
X71331775Y-57056011D01*
X71227371Y-56803957D01*
X71075799Y-56577114D01*
X70882886Y-56384201D01*
X70656043Y-56232629D01*
X70553127Y-56190000D01*
X70656043Y-56147371D01*
X70882886Y-55995799D01*
X71075799Y-55802886D01*
X71227371Y-55576043D01*
X71331775Y-55323989D01*
X71385000Y-55056411D01*
X71385000Y-54783589D01*
X71331775Y-54516011D01*
X71227371Y-54263957D01*
X71075799Y-54037114D01*
X70882886Y-53844201D01*
X70656043Y-53692629D01*
X70553127Y-53650000D01*
X70656043Y-53607371D01*
X70882886Y-53455799D01*
X71075799Y-53262886D01*
X71227371Y-53036043D01*
X71331775Y-52783989D01*
X71385000Y-52516411D01*
X71385000Y-52243589D01*
X71331775Y-51976011D01*
X71227371Y-51723957D01*
X71075799Y-51497114D01*
X70882886Y-51304201D01*
X70656043Y-51152629D01*
X70403989Y-51048225D01*
X70136411Y-50995000D01*
X69863589Y-50995000D01*
X69596011Y-51048225D01*
X69343957Y-51152629D01*
X69117114Y-51304201D01*
X68926315Y-51495000D01*
X68791514Y-51495000D01*
X68837250Y-51310040D01*
X68849812Y-51037508D01*
X68808965Y-50767762D01*
X68716277Y-50511168D01*
X68655860Y-50398137D01*
X68416993Y-50332612D01*
X67735000Y-51014605D01*
X67735000Y-50655395D01*
X68237388Y-50153007D01*
X68171863Y-49914140D01*
X67924884Y-49798240D01*
X67735000Y-49751286D01*
X67735000Y-49377711D01*
X73890000Y-49377711D01*
X73890000Y-49862289D01*
X73984536Y-50337556D01*
X74169976Y-50785247D01*
X74439193Y-51188159D01*
X74781841Y-51530807D01*
X75184753Y-51800024D01*
X75632444Y-51985464D01*
X76107711Y-52080000D01*
X76592289Y-52080000D01*
X77067556Y-51985464D01*
X77515247Y-51800024D01*
X77918159Y-51530807D01*
X78260807Y-51188159D01*
X78530024Y-50785247D01*
X78715464Y-50337556D01*
X78810000Y-49862289D01*
X78810000Y-49377711D01*
X78715464Y-48902444D01*
X78530024Y-48454753D01*
X78260807Y-48051841D01*
X77918159Y-47709193D01*
X77515247Y-47439976D01*
X77067556Y-47254536D01*
X76592289Y-47160000D01*
X76107711Y-47160000D01*
X75632444Y-47254536D01*
X75184753Y-47439976D01*
X74781841Y-47709193D01*
X74439193Y-48051841D01*
X74169976Y-48454753D01*
X73984536Y-48902444D01*
X73890000Y-49377711D01*
X67735000Y-49377711D01*
X67735000Y-44895000D01*
X51265000Y-44895000D01*
X51265000Y-49013422D01*
X50656534Y-48404956D01*
X50628817Y-48371183D01*
X50494059Y-48260589D01*
X50340313Y-48178411D01*
X50173490Y-48127805D01*
X50043477Y-48115000D01*
X50043469Y-48115000D01*
X50000000Y-48110719D01*
X49956531Y-48115000D01*
X47043469Y-48115000D01*
X47000000Y-48110719D01*
X46956531Y-48115000D01*
X46956523Y-48115000D01*
X46826510Y-48127805D01*
X46659686Y-48178411D01*
X46505941Y-48260589D01*
X46404953Y-48343468D01*
X46404951Y-48343470D01*
X46371183Y-48371183D01*
X46343470Y-48404951D01*
X45404955Y-49343467D01*
X45371183Y-49371183D01*
X45260589Y-49505941D01*
X45178411Y-49659687D01*
X45127805Y-49826510D01*
X45115000Y-49956523D01*
X45115000Y-49956531D01*
X45110719Y-50000000D01*
X45115000Y-50043469D01*
X45115000Y-50293091D01*
X45021294Y-50386797D01*
X44883402Y-50593166D01*
X44788421Y-50822471D01*
X44740000Y-51065901D01*
X44740000Y-51314099D01*
X44788421Y-51557529D01*
X44883402Y-51786834D01*
X45021294Y-51993203D01*
X45196797Y-52168706D01*
X45403166Y-52306598D01*
X45632471Y-52401579D01*
X45875901Y-52450000D01*
X46124099Y-52450000D01*
X46367529Y-52401579D01*
X46596834Y-52306598D01*
X46803203Y-52168706D01*
X46978706Y-51993203D01*
X47116598Y-51786834D01*
X47211579Y-51557529D01*
X47260000Y-51314099D01*
X47260000Y-51065901D01*
X47280000Y-51065901D01*
X47280000Y-51314099D01*
X47328421Y-51557529D01*
X47423402Y-51786834D01*
X47561294Y-51993203D01*
X47736797Y-52168706D01*
X47943166Y-52306598D01*
X48172471Y-52401579D01*
X48415901Y-52450000D01*
X48664099Y-52450000D01*
X48907529Y-52401579D01*
X49136834Y-52306598D01*
X49343203Y-52168706D01*
X49518706Y-51993203D01*
X49656598Y-51786834D01*
X49751579Y-51557529D01*
X49800000Y-51314099D01*
X49800000Y-51065901D01*
X49751579Y-50822471D01*
X49656598Y-50593166D01*
X49518706Y-50386797D01*
X49343203Y-50211294D01*
X49136834Y-50073402D01*
X48907529Y-49978421D01*
X48664099Y-49930000D01*
X48415901Y-49930000D01*
X48172471Y-49978421D01*
X47943166Y-50073402D01*
X47736797Y-50211294D01*
X47561294Y-50386797D01*
X47423402Y-50593166D01*
X47328421Y-50822471D01*
X47280000Y-51065901D01*
X47260000Y-51065901D01*
X47211579Y-50822471D01*
X47116598Y-50593166D01*
X46978706Y-50386797D01*
X46921744Y-50329835D01*
X47366579Y-49885000D01*
X49633422Y-49885000D01*
X52363421Y-52615000D01*
X45366579Y-52615000D01*
X44561303Y-51809725D01*
X44576598Y-51786834D01*
X44671579Y-51557529D01*
X44720000Y-51314099D01*
X44720000Y-51065901D01*
X44671579Y-50822471D01*
X44576598Y-50593166D01*
X44438706Y-50386797D01*
X44263203Y-50211294D01*
X44056834Y-50073402D01*
X43827529Y-49978421D01*
X43584099Y-49930000D01*
X43335901Y-49930000D01*
X43092471Y-49978421D01*
X42863166Y-50073402D01*
X42656797Y-50211294D01*
X42481294Y-50386797D01*
X42343402Y-50593166D01*
X42248421Y-50822471D01*
X42200000Y-51065901D01*
X40685000Y-51065901D01*
X40685000Y-43496993D01*
X54832612Y-43496993D01*
X54898137Y-43735860D01*
X55145116Y-43851760D01*
X55409960Y-43917250D01*
X55682492Y-43929812D01*
X55952238Y-43888965D01*
X56208832Y-43796277D01*
X56321863Y-43735860D01*
X56387388Y-43496993D01*
X55610000Y-42719605D01*
X54832612Y-43496993D01*
X40685000Y-43496993D01*
X40685000Y-42612492D01*
X54220188Y-42612492D01*
X54261035Y-42882238D01*
X54353723Y-43138832D01*
X54414140Y-43251863D01*
X54653007Y-43317388D01*
X55430395Y-42540000D01*
X54653007Y-41762612D01*
X54414140Y-41828137D01*
X54298240Y-42075116D01*
X54232750Y-42339960D01*
X54220188Y-42612492D01*
X40685000Y-42612492D01*
X40685000Y-41583007D01*
X54832612Y-41583007D01*
X55610000Y-42360395D01*
X56387388Y-41583007D01*
X56321863Y-41344140D01*
X56074884Y-41228240D01*
X55810040Y-41162750D01*
X55537508Y-41150188D01*
X55267762Y-41191035D01*
X55011168Y-41283723D01*
X54898137Y-41344140D01*
X54832612Y-41583007D01*
X40685000Y-41583007D01*
X40685000Y-39863589D01*
X55495000Y-39863589D01*
X55495000Y-40136411D01*
X55548225Y-40403989D01*
X55652629Y-40656043D01*
X55804201Y-40882886D01*
X55997114Y-41075799D01*
X56223957Y-41227371D01*
X56476011Y-41331775D01*
X56743589Y-41385000D01*
X57016411Y-41385000D01*
X57283989Y-41331775D01*
X57536043Y-41227371D01*
X57762886Y-41075799D01*
X57955799Y-40882886D01*
X58107371Y-40656043D01*
X58150000Y-40553127D01*
X58192629Y-40656043D01*
X58344201Y-40882886D01*
X58537114Y-41075799D01*
X58763957Y-41227371D01*
X59016011Y-41331775D01*
X59283589Y-41385000D01*
X59556411Y-41385000D01*
X59823989Y-41331775D01*
X60076043Y-41227371D01*
X60302886Y-41075799D01*
X60495799Y-40882886D01*
X60647371Y-40656043D01*
X60690000Y-40553127D01*
X60732629Y-40656043D01*
X60884201Y-40882886D01*
X61077114Y-41075799D01*
X61303957Y-41227371D01*
X61556011Y-41331775D01*
X61823589Y-41385000D01*
X62096411Y-41385000D01*
X62363989Y-41331775D01*
X62616043Y-41227371D01*
X62842886Y-41075799D01*
X63035799Y-40882886D01*
X63113555Y-40766517D01*
X63124188Y-40874482D01*
X63160498Y-40994180D01*
X63219463Y-41104494D01*
X63260912Y-41155000D01*
X63093589Y-41155000D01*
X62826011Y-41208225D01*
X62573957Y-41312629D01*
X62347114Y-41464201D01*
X62154201Y-41657114D01*
X62002629Y-41883957D01*
X61960000Y-41986873D01*
X61917371Y-41883957D01*
X61765799Y-41657114D01*
X61572886Y-41464201D01*
X61346043Y-41312629D01*
X61093989Y-41208225D01*
X60826411Y-41155000D01*
X60553589Y-41155000D01*
X60286011Y-41208225D01*
X60033957Y-41312629D01*
X59807114Y-41464201D01*
X59614201Y-41657114D01*
X59462629Y-41883957D01*
X59420000Y-41986873D01*
X59377371Y-41883957D01*
X59225799Y-41657114D01*
X59032886Y-41464201D01*
X58806043Y-41312629D01*
X58553989Y-41208225D01*
X58286411Y-41155000D01*
X58013589Y-41155000D01*
X57746011Y-41208225D01*
X57493957Y-41312629D01*
X57267114Y-41464201D01*
X57074201Y-41657114D01*
X56922629Y-41883957D01*
X56881489Y-41983279D01*
X56866277Y-41941168D01*
X56805860Y-41828137D01*
X56566993Y-41762612D01*
X55789605Y-42540000D01*
X56566993Y-43317388D01*
X56805860Y-43251863D01*
X56880164Y-43093523D01*
X56922629Y-43196043D01*
X57074201Y-43422886D01*
X57267114Y-43615799D01*
X57493957Y-43767371D01*
X57746011Y-43871775D01*
X58013589Y-43925000D01*
X58286411Y-43925000D01*
X58553989Y-43871775D01*
X58806043Y-43767371D01*
X59032886Y-43615799D01*
X59225799Y-43422886D01*
X59377371Y-43196043D01*
X59420000Y-43093127D01*
X59462629Y-43196043D01*
X59614201Y-43422886D01*
X59807114Y-43615799D01*
X60033957Y-43767371D01*
X60286011Y-43871775D01*
X60553589Y-43925000D01*
X60826411Y-43925000D01*
X61093989Y-43871775D01*
X61346043Y-43767371D01*
X61572886Y-43615799D01*
X61765799Y-43422886D01*
X61917371Y-43196043D01*
X61960000Y-43093127D01*
X62002629Y-43196043D01*
X62154201Y-43422886D01*
X62347114Y-43615799D01*
X62573957Y-43767371D01*
X62826011Y-43871775D01*
X63093589Y-43925000D01*
X63366411Y-43925000D01*
X63633989Y-43871775D01*
X63886043Y-43767371D01*
X64112886Y-43615799D01*
X64305799Y-43422886D01*
X64457371Y-43196043D01*
X64561775Y-42943989D01*
X64615000Y-42676411D01*
X64615000Y-42403589D01*
X64561775Y-42136011D01*
X64457371Y-41883957D01*
X64305799Y-41657114D01*
X64112886Y-41464201D01*
X63998951Y-41388072D01*
X65250000Y-41388072D01*
X65374482Y-41375812D01*
X65494180Y-41339502D01*
X65604494Y-41280537D01*
X65701185Y-41201185D01*
X65780537Y-41104494D01*
X65839502Y-40994180D01*
X65875812Y-40874482D01*
X65888072Y-40750000D01*
X65888072Y-39250000D01*
X65875812Y-39125518D01*
X65839502Y-39005820D01*
X65780537Y-38895506D01*
X65701185Y-38798815D01*
X65604494Y-38719463D01*
X65494180Y-38660498D01*
X65374482Y-38624188D01*
X65250000Y-38611928D01*
X63750000Y-38611928D01*
X63625518Y-38624188D01*
X63505820Y-38660498D01*
X63395506Y-38719463D01*
X63298815Y-38798815D01*
X63219463Y-38895506D01*
X63160498Y-39005820D01*
X63124188Y-39125518D01*
X63113555Y-39233483D01*
X63035799Y-39117114D01*
X62842886Y-38924201D01*
X62616043Y-38772629D01*
X62363989Y-38668225D01*
X62096411Y-38615000D01*
X61823589Y-38615000D01*
X61556011Y-38668225D01*
X61303957Y-38772629D01*
X61077114Y-38924201D01*
X60884201Y-39117114D01*
X60732629Y-39343957D01*
X60690000Y-39446873D01*
X60647371Y-39343957D01*
X60495799Y-39117114D01*
X60302886Y-38924201D01*
X60076043Y-38772629D01*
X59823989Y-38668225D01*
X59556411Y-38615000D01*
X59283589Y-38615000D01*
X59016011Y-38668225D01*
X58763957Y-38772629D01*
X58537114Y-38924201D01*
X58344201Y-39117114D01*
X58192629Y-39343957D01*
X58150000Y-39446873D01*
X58107371Y-39343957D01*
X57955799Y-39117114D01*
X57762886Y-38924201D01*
X57536043Y-38772629D01*
X57283989Y-38668225D01*
X57016411Y-38615000D01*
X56743589Y-38615000D01*
X56476011Y-38668225D01*
X56223957Y-38772629D01*
X55997114Y-38924201D01*
X55804201Y-39117114D01*
X55652629Y-39343957D01*
X55548225Y-39596011D01*
X55495000Y-39863589D01*
X40685000Y-39863589D01*
X40685000Y-36700881D01*
X41478724Y-36700881D01*
X41838912Y-37190548D01*
X42502882Y-37550849D01*
X43224385Y-37774694D01*
X43975695Y-37853480D01*
X44727938Y-37784178D01*
X45452208Y-37569452D01*
X46120670Y-37217555D01*
X46161088Y-37190548D01*
X46521276Y-36700881D01*
X73478724Y-36700881D01*
X73838912Y-37190548D01*
X74502882Y-37550849D01*
X75224385Y-37774694D01*
X75975695Y-37853480D01*
X76727938Y-37784178D01*
X77452208Y-37569452D01*
X78120670Y-37217555D01*
X78161088Y-37190548D01*
X78521276Y-36700881D01*
X76000000Y-34179605D01*
X73478724Y-36700881D01*
X46521276Y-36700881D01*
X44000000Y-34179605D01*
X41478724Y-36700881D01*
X40685000Y-36700881D01*
X40685000Y-35935564D01*
X40782445Y-36120670D01*
X40809452Y-36161088D01*
X41299119Y-36521276D01*
X43820395Y-34000000D01*
X44179605Y-34000000D01*
X46700881Y-36521276D01*
X47190548Y-36161088D01*
X47550849Y-35497118D01*
X47774694Y-34775615D01*
X47853480Y-34024305D01*
X47796675Y-33407711D01*
X51660000Y-33407711D01*
X51660000Y-33892289D01*
X51754536Y-34367556D01*
X51939976Y-34815247D01*
X52209193Y-35218159D01*
X52551841Y-35560807D01*
X52954753Y-35830024D01*
X53402444Y-36015464D01*
X53877711Y-36110000D01*
X54362289Y-36110000D01*
X54837556Y-36015464D01*
X55285247Y-35830024D01*
X55688159Y-35560807D01*
X56030807Y-35218159D01*
X56300024Y-34815247D01*
X56485464Y-34367556D01*
X56580000Y-33892289D01*
X56580000Y-33407711D01*
X63530000Y-33407711D01*
X63530000Y-33892289D01*
X63624536Y-34367556D01*
X63809976Y-34815247D01*
X64079193Y-35218159D01*
X64421841Y-35560807D01*
X64824753Y-35830024D01*
X65272444Y-36015464D01*
X65747711Y-36110000D01*
X66232289Y-36110000D01*
X66707556Y-36015464D01*
X67155247Y-35830024D01*
X67558159Y-35560807D01*
X67900807Y-35218159D01*
X68170024Y-34815247D01*
X68355464Y-34367556D01*
X68433409Y-33975695D01*
X72146520Y-33975695D01*
X72215822Y-34727938D01*
X72430548Y-35452208D01*
X72782445Y-36120670D01*
X72809452Y-36161088D01*
X73299119Y-36521276D01*
X75820395Y-34000000D01*
X73299119Y-31478724D01*
X72809452Y-31838912D01*
X72449151Y-32502882D01*
X72225306Y-33224385D01*
X72146520Y-33975695D01*
X68433409Y-33975695D01*
X68450000Y-33892289D01*
X68450000Y-33407711D01*
X68355464Y-32932444D01*
X68170024Y-32484753D01*
X67900807Y-32081841D01*
X67558159Y-31739193D01*
X67155247Y-31469976D01*
X66707556Y-31284536D01*
X66232289Y-31190000D01*
X65747711Y-31190000D01*
X65272444Y-31284536D01*
X64824753Y-31469976D01*
X64421841Y-31739193D01*
X64079193Y-32081841D01*
X63809976Y-32484753D01*
X63624536Y-32932444D01*
X63530000Y-33407711D01*
X56580000Y-33407711D01*
X56485464Y-32932444D01*
X56300024Y-32484753D01*
X56030807Y-32081841D01*
X55688159Y-31739193D01*
X55285247Y-31469976D01*
X54837556Y-31284536D01*
X54362289Y-31190000D01*
X53877711Y-31190000D01*
X53402444Y-31284536D01*
X52954753Y-31469976D01*
X52551841Y-31739193D01*
X52209193Y-32081841D01*
X51939976Y-32484753D01*
X51754536Y-32932444D01*
X51660000Y-33407711D01*
X47796675Y-33407711D01*
X47784178Y-33272062D01*
X47569452Y-32547792D01*
X47217555Y-31879330D01*
X47190548Y-31838912D01*
X46700881Y-31478724D01*
X44179605Y-34000000D01*
X43820395Y-34000000D01*
X43806253Y-33985858D01*
X43985858Y-33806253D01*
X44000000Y-33820395D01*
X46521276Y-31299119D01*
X46161088Y-30809452D01*
X45931745Y-30685000D01*
X74064436Y-30685000D01*
X73879330Y-30782445D01*
M02*
