G04 #@! TF.GenerationSoftware,KiCad,Pcbnew,(5.1.5-0)*
G04 #@! TF.CreationDate,2020-02-11T13:53:14+00:00*
G04 #@! TF.ProjectId,baseBoard,62617365-426f-4617-9264-2e6b69636164,rev?*
G04 #@! TF.SameCoordinates,Original*
G04 #@! TF.FileFunction,Profile,NP*
%FSLAX46Y46*%
G04 Gerber Fmt 4.6, Leading zero omitted, Abs format (unit mm)*
G04 Created by KiCad (PCBNEW (5.1.5-0)) date 2020-02-11 13:53:14*
%MOMM*%
%LPD*%
G04 APERTURE LIST*
%ADD10C,0.150000*%
G04 APERTURE END LIST*
D10*
X12000000Y-15000000D02*
G75*
G02X15000000Y-12000000I3000000J0D01*
G01*
X15000000Y-212000000D02*
G75*
G02X12000000Y-209000000I0J3000000D01*
G01*
X312000000Y-209000000D02*
G75*
G02X309000000Y-212000000I-3000000J0D01*
G01*
X309000000Y-12000000D02*
G75*
G02X312000000Y-15000000I0J-3000000D01*
G01*
X309000000Y-12000000D02*
X15000000Y-12000000D01*
X312000000Y-209000000D02*
X312000000Y-15000000D01*
X15000000Y-212000000D02*
X309000000Y-212000000D01*
X12000000Y-15000000D02*
X12000000Y-209000000D01*
M02*
