M48
; DRILL file {KiCad (5.1.5-0)} date Tuesday, 11 February 2020 at 01:55:43 pm
; FORMAT={-:-/ absolute / metric / decimal}
; #@! TF.CreationDate,2020-02-11T13:55:43+00:00
; #@! TF.GenerationSoftware,Kicad,Pcbnew,(5.1.5-0)
FMAT,2
METRIC
T1C0.400
T2C0.500
T3C0.900
T4C1.000
T5C1.300
T6C1.520
T7C3.200
%
G90
G05
T1
X30.0Y-60.5
X39.5Y-60.5
X48.5Y-60.5
X58.5Y-60.5
X68.5Y-60.5
X79.0Y-60.5
X89.0Y-61.0
X112.5Y-67.5
X112.5Y-68.5
X112.5Y-69.5
X112.5Y-70.5
X113.5Y-40.0
X124.38Y-62.38
X134.0Y-67.5
X134.0Y-68.5
X134.0Y-69.5
X134.0Y-70.5
X144.5Y-68.5
X144.5Y-69.5
X144.5Y-70.5
X163.5Y-91.3
X163.5Y-99.3
X163.5Y-108.3
X173.0Y-127.5
T2
X257.6Y-26.0
X258.303Y-24.303
X258.303Y-27.697
X260.0Y-23.6
X260.0Y-28.4
X261.697Y-24.303
X261.697Y-27.697
X262.4Y-26.0
X118.6Y-188.0
X119.303Y-186.303
X119.303Y-189.697
X121.0Y-185.6
X121.0Y-190.4
X122.697Y-186.303
X122.697Y-189.697
X123.4Y-188.0
X137.6Y-78.0
X138.303Y-76.303
X138.303Y-79.697
X140.0Y-75.6
X140.0Y-80.4
X141.697Y-76.303
X141.697Y-79.697
X142.4Y-78.0
X75.4Y-170.0
X76.103Y-168.303
X76.103Y-171.697
X77.8Y-167.6
X77.8Y-172.4
X79.497Y-168.303
X79.497Y-171.697
X80.2Y-170.0
X305.6Y-16.0
X306.303Y-14.303
X306.303Y-17.697
X308.0Y-13.6
X308.0Y-18.4
X309.697Y-14.303
X309.697Y-17.697
X310.4Y-16.0
X13.6Y-208.0
X14.303Y-206.303
X14.303Y-209.697
X16.0Y-205.6
X16.0Y-210.4
X17.697Y-206.303
X17.697Y-209.697
X18.4Y-208.0
X155.6Y-26.0
X156.303Y-24.303
X156.303Y-27.697
X158.0Y-23.6
X158.0Y-28.4
X159.697Y-24.303
X159.697Y-27.697
X160.4Y-26.0
X137.6Y-26.0
X138.303Y-24.303
X138.303Y-27.697
X140.0Y-23.6
X140.0Y-28.4
X141.697Y-24.303
X141.697Y-27.697
X142.4Y-26.0
X220.6Y-188.0
X221.303Y-186.303
X221.303Y-189.697
X223.0Y-185.6
X223.0Y-190.4
X224.697Y-186.303
X224.697Y-189.697
X225.4Y-188.0
X13.6Y-112.0
X14.303Y-110.303
X14.303Y-113.697
X16.0Y-109.6
X16.0Y-114.4
X17.697Y-110.303
X17.697Y-113.697
X18.4Y-112.0
X105.6Y-78.0
X106.303Y-76.303
X106.303Y-79.697
X108.0Y-75.6
X108.0Y-80.4
X109.697Y-76.303
X109.697Y-79.697
X110.4Y-78.0
X27.2Y-93.8
X27.903Y-92.103
X27.903Y-95.497
X29.6Y-91.4
X29.6Y-96.2
X31.297Y-92.103
X31.297Y-95.497
X32.0Y-93.8
X215.6Y-98.0
X216.303Y-96.303
X216.303Y-99.697
X218.0Y-95.6
X218.0Y-100.4
X219.697Y-96.303
X219.697Y-99.697
X220.4Y-98.0
X27.2Y-168.7
X27.903Y-167.003
X27.903Y-170.397
X29.6Y-166.3
X29.6Y-171.1
X31.297Y-167.003
X31.297Y-170.397
X32.0Y-168.7
X220.6Y-126.0
X221.303Y-124.303
X221.303Y-127.697
X223.0Y-123.6
X223.0Y-128.4
X224.697Y-124.303
X224.697Y-127.697
X225.4Y-126.0
X13.6Y-16.0
X14.303Y-14.303
X14.303Y-17.697
X16.0Y-13.6
X16.0Y-18.4
X17.697Y-14.303
X17.697Y-17.697
X18.4Y-16.0
X197.6Y-68.0
X198.303Y-66.303
X198.303Y-69.697
X200.0Y-65.6
X200.0Y-70.4
X201.697Y-66.303
X201.697Y-69.697
X202.4Y-68.0
X305.6Y-112.0
X306.303Y-110.303
X306.303Y-113.697
X308.0Y-109.6
X308.0Y-114.4
X309.697Y-110.303
X309.697Y-113.697
X310.4Y-112.0
X75.41Y-87.54
X76.113Y-85.843
X76.113Y-89.237
X77.81Y-85.14
X77.81Y-89.94
X79.507Y-85.843
X79.507Y-89.237
X80.21Y-87.54
X215.6Y-26.0
X216.303Y-24.303
X216.303Y-27.697
X218.0Y-23.6
X218.0Y-28.4
X219.697Y-24.303
X219.697Y-27.697
X220.4Y-26.0
X197.6Y-26.0
X198.303Y-24.303
X198.303Y-27.697
X200.0Y-23.6
X200.0Y-28.4
X201.697Y-24.303
X201.697Y-27.697
X202.4Y-26.0
X70.3Y-117.9
X71.003Y-116.203
X71.003Y-119.597
X72.7Y-115.5
X72.7Y-120.3
X74.397Y-116.203
X74.397Y-119.597
X75.1Y-117.9
X305.6Y-208.0
X306.303Y-206.303
X306.303Y-209.697
X308.0Y-205.6
X308.0Y-210.4
X309.697Y-206.303
X309.697Y-209.697
X310.4Y-208.0
X155.6Y-68.0
X156.303Y-66.303
X156.303Y-69.697
X158.0Y-65.6
X158.0Y-70.4
X159.697Y-66.303
X159.697Y-69.697
X160.4Y-68.0
X105.6Y-26.0
X106.303Y-24.303
X106.303Y-27.697
X108.0Y-23.6
X108.0Y-28.4
X109.697Y-24.303
X109.697Y-27.697
X110.4Y-26.0
X118.6Y-126.0
X119.303Y-124.303
X119.303Y-127.697
X121.0Y-123.6
X121.0Y-128.4
X122.697Y-124.303
X122.697Y-127.697
X123.4Y-126.0
X42.4Y-117.9
X43.103Y-116.203
X43.103Y-119.597
X44.8Y-115.5
X44.8Y-120.3
X46.497Y-116.203
X46.497Y-119.597
X47.2Y-117.9
X257.6Y-98.0
X258.303Y-96.303
X258.303Y-99.697
X260.0Y-95.6
X260.0Y-100.4
X261.697Y-96.303
X261.697Y-99.697
X262.4Y-98.0
X159.6Y-16.0
X160.303Y-14.303
X160.303Y-17.697
X162.0Y-13.6
X162.0Y-18.4
X163.697Y-14.303
X163.697Y-17.697
X164.4Y-16.0
X159.6Y-208.0
X160.303Y-206.303
X160.303Y-209.697
X162.0Y-205.6
X162.0Y-210.4
X163.697Y-206.303
X163.697Y-209.697
X164.4Y-208.0
T3
X90.5Y-175.0
X90.5Y-177.5
X90.5Y-179.5
X90.5Y-182.0
X90.78Y-193.5
X90.78Y-196.0
X90.78Y-198.0
X90.78Y-200.5
T4
X94.0Y-22.0
X94.0Y-24.54
X94.0Y-27.08
X94.0Y-29.62
X168.14Y-79.0
X170.68Y-79.0
X173.22Y-79.0
X175.76Y-79.0
X178.3Y-79.0
X180.84Y-79.0
X183.38Y-79.0
X185.92Y-79.0
X188.46Y-79.0
X191.0Y-79.0
X31.6Y-75.46
X31.6Y-78.0
X34.14Y-75.46
X34.14Y-78.0
X36.68Y-75.46
X36.68Y-78.0
X39.22Y-75.46
X39.22Y-78.0
X41.76Y-75.46
X41.76Y-78.0
X44.3Y-75.46
X44.3Y-78.0
X46.84Y-75.46
X46.84Y-78.0
X49.38Y-75.46
X49.38Y-78.0
X51.92Y-75.46
X51.92Y-78.0
X54.46Y-75.46
X54.46Y-78.0
X57.0Y-75.46
X57.0Y-78.0
X59.54Y-75.46
X59.54Y-78.0
X62.08Y-75.46
X62.08Y-78.0
X64.62Y-75.46
X64.62Y-78.0
X67.16Y-75.46
X67.16Y-78.0
X69.7Y-75.46
X69.7Y-78.0
X72.24Y-75.46
X72.24Y-78.0
X74.78Y-75.46
X74.78Y-78.0
X44.0Y-22.0
X44.0Y-24.54
X44.0Y-27.08
X44.0Y-29.62
X235.14Y-133.0
X237.68Y-133.0
X240.22Y-133.0
X242.76Y-133.0
X245.3Y-133.0
X247.84Y-133.0
X250.38Y-133.0
X252.92Y-133.0
X255.46Y-133.0
X258.0Y-133.0
X168.14Y-87.0
X170.68Y-87.0
X173.22Y-87.0
X175.76Y-87.0
X178.3Y-87.0
X180.84Y-87.0
X183.38Y-87.0
X185.92Y-87.0
X188.46Y-87.0
X191.0Y-87.0
X24.0Y-22.0
X24.0Y-24.54
X24.0Y-27.08
X24.0Y-29.62
X64.0Y-52.0
X64.0Y-54.54
X64.0Y-57.08
X64.0Y-59.62
X74.0Y-22.0
X74.0Y-24.54
X74.0Y-27.08
X74.0Y-29.62
X44.0Y-52.0
X44.0Y-54.54
X44.0Y-57.08
X44.0Y-59.62
X119.3Y-104.0
X121.84Y-104.0
X124.38Y-104.0
X126.92Y-104.0
X129.46Y-104.0
X132.0Y-104.0
X54.0Y-22.0
X54.0Y-24.54
X54.0Y-27.08
X54.0Y-29.62
X94.0Y-52.0
X94.0Y-54.54
X94.0Y-57.08
X94.0Y-59.62
X24.0Y-52.0
X24.0Y-54.54
X24.0Y-57.08
X24.0Y-59.62
X86.0Y-100.0
X86.0Y-102.54
X86.0Y-105.08
X86.0Y-107.62
X86.0Y-110.16
X86.0Y-112.7
X86.0Y-115.24
X86.0Y-117.78
X86.0Y-120.32
X86.0Y-122.86
X86.0Y-125.4
X86.0Y-127.94
X86.0Y-130.48
X86.0Y-133.02
X86.0Y-135.56
X86.0Y-138.1
X86.0Y-140.64
X86.0Y-143.18
X86.0Y-145.72
X86.0Y-148.26
X86.0Y-150.8
X86.0Y-153.34
X86.0Y-155.88
X86.0Y-158.42
X86.0Y-160.96
X86.0Y-163.5
X119.3Y-91.0
X121.84Y-91.0
X124.38Y-91.0
X126.92Y-91.0
X129.46Y-91.0
X132.0Y-91.0
X74.0Y-52.0
X74.0Y-54.54
X74.0Y-57.08
X74.0Y-59.62
X84.0Y-22.0
X84.0Y-24.54
X84.0Y-27.08
X84.0Y-29.62
X23.0Y-93.62
X23.0Y-96.16
X23.0Y-98.7
X23.0Y-101.24
X23.0Y-103.78
X23.0Y-106.32
X23.0Y-108.86
X23.0Y-111.4
X23.0Y-113.94
X23.0Y-116.48
X23.0Y-119.02
X23.0Y-121.56
X23.0Y-124.1
X23.0Y-126.64
X23.0Y-129.18
X23.0Y-131.72
X23.0Y-134.26
X23.0Y-136.8
X23.0Y-139.34
X23.0Y-141.88
X23.0Y-144.42
X23.0Y-146.96
X23.0Y-149.5
X23.0Y-152.04
X23.0Y-154.58
X23.0Y-157.12
X23.0Y-159.66
X23.0Y-162.2
X168.14Y-95.0
X170.68Y-95.0
X173.22Y-95.0
X175.76Y-95.0
X178.3Y-95.0
X180.84Y-95.0
X183.38Y-95.0
X185.92Y-95.0
X188.46Y-95.0
X191.0Y-95.0
X34.0Y-22.0
X34.0Y-24.54
X34.0Y-27.08
X34.0Y-29.62
X235.14Y-117.0
X237.68Y-117.0
X240.22Y-117.0
X242.76Y-117.0
X245.3Y-117.0
X247.84Y-117.0
X250.38Y-117.0
X252.92Y-117.0
X255.46Y-117.0
X258.0Y-117.0
X119.3Y-111.0
X121.84Y-111.0
X124.38Y-111.0
X126.92Y-111.0
X129.46Y-111.0
X132.0Y-111.0
X168.14Y-103.0
X170.68Y-103.0
X173.22Y-103.0
X175.76Y-103.0
X178.3Y-103.0
X180.84Y-103.0
X183.38Y-103.0
X185.92Y-103.0
X188.46Y-103.0
X191.0Y-103.0
X54.0Y-52.0
X54.0Y-54.54
X54.0Y-57.08
X54.0Y-59.62
X64.0Y-22.0
X64.0Y-24.54
X64.0Y-27.08
X64.0Y-29.62
X119.3Y-98.0
X121.84Y-98.0
X124.38Y-98.0
X126.92Y-98.0
X129.46Y-98.0
X132.0Y-98.0
X34.5Y-52.0
X34.5Y-54.54
X34.5Y-57.08
X34.5Y-59.62
X235.22Y-125.0
X237.76Y-125.0
X240.3Y-125.0
X242.84Y-125.0
X245.38Y-125.0
X247.92Y-125.0
X250.46Y-125.0
X253.0Y-125.0
X255.54Y-125.0
X258.08Y-125.0
X235.14Y-108.0
X237.68Y-108.0
X240.22Y-108.0
X242.76Y-108.0
X245.3Y-108.0
X247.84Y-108.0
X250.38Y-108.0
X252.92Y-108.0
X255.46Y-108.0
X258.0Y-108.0
X84.0Y-52.0
X84.0Y-54.54
X84.0Y-57.08
X84.0Y-59.62
T6
X298.0Y-23.84
X298.0Y-28.92
X298.0Y-34.0
X214.0Y-168.92
X214.0Y-174.0
X214.0Y-140.92
X214.0Y-146.0
X132.0Y-158.0
X132.0Y-163.08
X132.0Y-168.16
X132.0Y-173.24
X132.0Y-136.0
X132.0Y-141.08
X132.0Y-146.16
X132.0Y-151.24
T7
X121.0Y-126.0
X44.8Y-117.9
X260.0Y-98.0
X162.0Y-16.0
X162.0Y-208.0
X260.0Y-26.0
X121.0Y-188.0
X140.0Y-78.0
X77.8Y-170.0
X308.0Y-16.0
X16.0Y-208.0
X158.0Y-26.0
X140.0Y-26.0
X223.0Y-188.0
X16.0Y-112.0
X108.0Y-78.0
X29.6Y-93.8
X218.0Y-98.0
X29.6Y-168.7
X223.0Y-126.0
X16.0Y-16.0
X200.0Y-68.0
X308.0Y-112.0
X77.81Y-87.54
X218.0Y-26.0
X200.0Y-26.0
X72.7Y-117.9
X308.0Y-208.0
X158.0Y-68.0
X108.0Y-26.0
T5
G00X85.72Y-179.0
M15
G01X85.72Y-178.0
M16
G05
G00X89.4Y-171.93
M15
G01X90.4Y-171.93
M16
G05
G00X90.4Y-185.07
M15
G01X89.4Y-185.07
M16
G05
G00X86.0Y-197.5
M15
G01X86.0Y-196.5
M16
G05
G00X89.68Y-190.43
M15
G01X90.68Y-190.43
M16
G05
G00X90.68Y-203.57
M15
G01X89.68Y-203.57
M16
G05
T0
M30
